%!PS-Adobe-3.0 EPSF-3.0
%%Creator: MATLAB, The MathWorks, Inc. Version 8.3.0.532 (R2014a). Operating System: Darwin 13.4.0 Darwin Kernel Version 13.4.0: Sun Aug 17 19:50:11 PDT 2014; root:xnu-2422.115.4~1/RELEASE_X86_64 x86_64.
%%Title: /Users/KeKo/Desktop/FeedbackGraphs.eps
%%CreationDate: 01/25/2015  14:34:18
%%DocumentNeededFonts: Helvetica
%%DocumentProcessColors: Cyan Magenta Yellow Black
%%LanguageLevel: 2
%%Pages: 1
%%BoundingBox:    17   210   577   630
%%EndComments

%%BeginProlog
% MathWorks dictionary
/MathWorks 160 dict begin
% definition operators
/bdef {bind def} bind def
/ldef {load def} bind def
/xdef {exch def} bdef
/xstore {exch store} bdef
% operator abbreviations
/c  /clip ldef
/cc /concat ldef
/cp /closepath ldef
/gr /grestore ldef
/gs /gsave ldef
/mt /moveto ldef
/np /newpath ldef
/cm /currentmatrix ldef
/sm /setmatrix ldef
/rm /rmoveto ldef
/rl /rlineto ldef
/s {show newpath} bdef
/sc {setcmykcolor} bdef
/sr /setrgbcolor ldef
/sg /setgray ldef
/w /setlinewidth ldef
/j /setlinejoin ldef
/cap /setlinecap ldef
/rc {rectclip} bdef
/rf {rectfill} bdef
% page state control
/pgsv () def
/bpage {/pgsv save def} bdef
/epage {pgsv restore} bdef
/bplot /gsave ldef
/eplot {stroke grestore} bdef
% orientation switch
/portraitMode 0 def /landscapeMode 1 def /rotateMode 2 def
% coordinate system mappings
/dpi2point 0 def
% font control
/FontSize 0 def
/FMS {/FontSize xstore findfont [FontSize 0 0 FontSize neg 0 0]
  makefont setfont} bdef
/reencode {exch dup where {pop load} {pop StandardEncoding} ifelse
  exch dup 3 1 roll findfont dup length dict begin
  { 1 index /FID ne {def}{pop pop} ifelse } forall
  /Encoding exch def currentdict end definefont pop} bdef
/isroman {findfont /CharStrings get /Agrave known} bdef
/FMSR {3 1 roll 1 index dup isroman {reencode} {pop pop} ifelse
  exch FMS} bdef
/csm {1 dpi2point div -1 dpi2point div scale neg translate
 dup landscapeMode eq {pop -90 rotate}
  {rotateMode eq {90 rotate} if} ifelse} bdef
% line types: solid, dotted, dashed, dotdash
/SO { [] 0 setdash } bdef
/DO { [.5 dpi2point mul 4 dpi2point mul] 0 setdash } bdef
/DA { [6 dpi2point mul] 0 setdash } bdef
/DD { [.5 dpi2point mul 4 dpi2point mul 6 dpi2point mul 4
  dpi2point mul] 0 setdash } bdef
% macros for lines and objects
/L {lineto stroke} bdef
/MP {3 1 roll moveto 1 sub {rlineto} repeat} bdef
/AP {{rlineto} repeat} bdef
/PDlw -1 def
/W {/PDlw currentlinewidth def setlinewidth} def
/PP {closepath eofill} bdef
/DP {closepath stroke} bdef
/MR {4 -2 roll moveto dup  0 exch rlineto exch 0 rlineto
  neg 0 exch rlineto closepath} bdef
/FR {MR stroke} bdef
/PR {MR fill} bdef
/L1i {{currentfile picstr readhexstring pop} image} bdef
/tMatrix matrix def
/MakeOval {newpath tMatrix currentmatrix pop translate scale
0 0 1 0 360 arc tMatrix setmatrix} bdef
/FO {MakeOval stroke} bdef
/PO {MakeOval fill} bdef
/PD {currentlinewidth 2 div 0 360 arc fill
   PDlw -1 eq not {PDlw w /PDlw -1 def} if} def
/FA {newpath tMatrix currentmatrix pop translate scale
  0 0 1 5 -2 roll arc tMatrix setmatrix stroke} bdef
/PA {newpath tMatrix currentmatrix pop	translate 0 0 moveto scale
  0 0 1 5 -2 roll arc closepath tMatrix setmatrix fill} bdef
/FAn {newpath tMatrix currentmatrix pop translate scale
  0 0 1 5 -2 roll arcn tMatrix setmatrix stroke} bdef
/PAn {newpath tMatrix currentmatrix pop translate 0 0 moveto scale
  0 0 1 5 -2 roll arcn closepath tMatrix setmatrix fill} bdef
/vradius 0 def /hradius 0 def /lry 0 def
/lrx 0 def /uly 0 def /ulx 0 def /rad 0 def
/MRR {/vradius xdef /hradius xdef /lry xdef /lrx xdef /uly xdef
  /ulx xdef newpath tMatrix currentmatrix pop ulx hradius add uly
  vradius add translate hradius vradius scale 0 0 1 180 270 arc 
  tMatrix setmatrix lrx hradius sub uly vradius add translate
  hradius vradius scale 0 0 1 270 360 arc tMatrix setmatrix
  lrx hradius sub lry vradius sub translate hradius vradius scale
  0 0 1 0 90 arc tMatrix setmatrix ulx hradius add lry vradius sub
  translate hradius vradius scale 0 0 1 90 180 arc tMatrix setmatrix
  closepath} bdef
/FRR {MRR stroke } bdef
/PRR {MRR fill } bdef
/MlrRR {/lry xdef /lrx xdef /uly xdef /ulx xdef /rad lry uly sub 2 div def
  newpath tMatrix currentmatrix pop ulx rad add uly rad add translate
  rad rad scale 0 0 1 90 270 arc tMatrix setmatrix lrx rad sub lry rad
  sub translate rad rad scale 0 0 1 270 90 arc tMatrix setmatrix
  closepath} bdef
/FlrRR {MlrRR stroke } bdef
/PlrRR {MlrRR fill } bdef
/MtbRR {/lry xdef /lrx xdef /uly xdef /ulx xdef /rad lrx ulx sub 2 div def
  newpath tMatrix currentmatrix pop ulx rad add uly rad add translate
  rad rad scale 0 0 1 180 360 arc tMatrix setmatrix lrx rad sub lry rad
  sub translate rad rad scale 0 0 1 0 180 arc tMatrix setmatrix
  closepath} bdef
/FtbRR {MtbRR stroke } bdef
/PtbRR {MtbRR fill } bdef
/stri 6 array def /dtri 6 array def
/smat 6 array def /dmat 6 array def
/tmat1 6 array def /tmat2 6 array def /dif 3 array def
/asub {/ind2 exch def /ind1 exch def dup dup
  ind1 get exch ind2 get sub exch } bdef
/tri_to_matrix {
  2 0 asub 3 1 asub 4 0 asub 5 1 asub
  dup 0 get exch 1 get 7 -1 roll astore } bdef
/compute_transform {
  dmat dtri tri_to_matrix tmat1 invertmatrix 
  smat stri tri_to_matrix tmat2 concatmatrix } bdef
/ds {stri astore pop} bdef
/dt {dtri astore pop} bdef
/db {2 copy /cols xdef /rows xdef mul dup 3 mul string
  currentfile 
  3 index 0 eq {/ASCIIHexDecode filter}
  {/ASCII85Decode filter 3 index 2 eq {/RunLengthDecode filter} if }
  ifelse exch readstring pop
  dup 0 3 index getinterval /rbmap xdef
  dup 2 index dup getinterval /gbmap xdef
  1 index dup 2 mul exch getinterval /bbmap xdef pop pop}bdef
/it {gs np dtri aload pop moveto lineto lineto cp c
  cols rows 8 compute_transform 
  rbmap gbmap bbmap true 3 colorimage gr}bdef
/il {newpath moveto lineto stroke}bdef
currentdict end def
%%EndProlog

%%BeginSetup
MathWorks begin

0 cap

end
%%EndSetup

%%Page: 1 1
%%BeginPageSetup
%%PageBoundingBox:    17   210   577   630
MathWorks begin
bpage
%%EndPageSetup

%%BeginObject: obj1
bplot

/dpi2point 12 def
portraitMode 0204 7560 csm

    0     0  6723  5040 rc
86 dict begin %Colortable dictionary
/c0 { 0.000000 0.000000 0.000000 sr} bdef
/c1 { 1.000000 1.000000 1.000000 sr} bdef
/c2 { 0.900000 0.000000 0.000000 sr} bdef
/c3 { 0.000000 0.820000 0.000000 sr} bdef
/c4 { 0.000000 0.000000 0.800000 sr} bdef
/c5 { 0.910000 0.820000 0.320000 sr} bdef
/c6 { 1.000000 0.260000 0.820000 sr} bdef
/c7 { 0.000000 0.820000 0.820000 sr} bdef
c0
1 j
1 sg
   0    0 6724 5041 rf
6 w
0 -4108 1356 0 0 4108 4728 378 4 MP
PP
-1356 0 0 -4108 1356 0 0 4108 4728 378 5 MP stroke
4 w
DO
SO
6 w
0 sg
4728  378 mt 6084  378 L
4728 4486 mt 6084 4486 L
4728  378 mt 4728 4486 L
6084  378 mt 6084 4486 L
4728 4486 mt 6084 4486 L
4728  378 mt 4728 4486 L
4728 4486 mt 4728 4444 L
4728  378 mt 4728  419 L
%%IncludeResource: font Helvetica
/Helvetica /ISOLatin1Encoding 120 FMSR

4625 4631 mt 
(-2) s
5406 4486 mt 5406 4444 L
5406  378 mt 5406  419 L
5373 4631 mt 
(0) s
6084 4486 mt 6084 4444 L
6084  378 mt 6084  419 L
6051 4631 mt 
(2) s
4728  378 mt 4769  378 L
6084  378 mt 6042  378 L
4627  422 mt 
(0) s
4728  788 mt 4769  788 L
6084  788 mt 6042  788 L
4560  832 mt 
(10) s
4728 1199 mt 4769 1199 L
6084 1199 mt 6042 1199 L
4560 1243 mt 
(20) s
4728 1610 mt 4769 1610 L
6084 1610 mt 6042 1610 L
4560 1654 mt 
(30) s
4728 2021 mt 4769 2021 L
6084 2021 mt 6042 2021 L
4560 2065 mt 
(40) s
4728 2432 mt 4769 2432 L
6084 2432 mt 6042 2432 L
4560 2476 mt 
(50) s
4728 2842 mt 4769 2842 L
6084 2842 mt 6042 2842 L
4560 2886 mt 
(60) s
4728 3253 mt 4769 3253 L
6084 3253 mt 6042 3253 L
4560 3297 mt 
(70) s
4728 3664 mt 4769 3664 L
6084 3664 mt 6042 3664 L
4560 3708 mt 
(80) s
4728 4075 mt 4769 4075 L
6084 4075 mt 6042 4075 L
4560 4119 mt 
(90) s
4728 4486 mt 4769 4486 L
6084 4486 mt 6042 4486 L
4493 4530 mt 
(100) s
4728  378 mt 6084  378 L
4728 4486 mt 6084 4486 L
4728  378 mt 4728 4486 L
6084  378 mt 6084 4486 L
gs 4728 378 1357 4109 rc
/c8 { 0.000000 0.000000 1.000000 sr} bdef
c8
180 42 -51 41 -6 41 65 41 22 41 -104 41 70 41 -44 41 
40 41 -200 41 7 41 -189 41 278 42 -3 41 128 41 0 41 
-40 41 -137 41 -170 41 67 41 78 41 63 41 -82 41 -274 41 
380 41 16 42 -66 41 26 41 -156 41 -96 41 189 41 37 41 
-115 41 -54 41 -161 41 380 41 -74 41 -84 42 121 41 -56 41 
-183 41 111 41 168 41 0 41 56 41 -140 41 106 41 -99 41 
-32 41 -113 41 61 42 -118 41 202 41 161 41 -137 41 -43 41 
-183 41 227 41 174 41 -150 41 295 41 -209 41 209 42 26 41 
0 41 -163 41 -57 41 65 41 -80 41 94 41 -14 41 155 41 
-167 41 -89 41 256 41 -26 42 -373 41 115 41 165 41 119 41 
0 41 -321 41 202 41 -116 41 -21 41 101 41 -8 41 -70 42 
-23 41 -16 41 131 41 -143 41 -115 41 280 41 -165 41 90 41 
-19 41 -105 41 77 41 5434 419 100 MP stroke
/c9 { 0.000000 1.000000 0.000000 sr} bdef
c9
0 4067 5576 419 2 MP stroke
/c10 { 1.000000 0.000000 0.000000 sr} bdef
c10
0 4067 5423 419 2 MP stroke
gr

c10
0 sg
4765  283 mt 
(Horizontal Classification) s
4742 4774 mt 
(Prediction Value \(shifted\)) s
4411 2735 mt  -90 rotate
(Steps Back) s
90 rotate
1 sg
0 1899 2898 0 0 -1899 874 3381 4 MP
PP
-2898 0 0 1899 2898 0 0 -1899 874 3381 5 MP stroke
4 w
DO
SO
6 w
0 sg
 874 3381 mt 3772 3381 L
 874 1482 mt 3772 1482 L
 874 3381 mt  874 1482 L
3772 3381 mt 3772 1482 L
 874 3381 mt 3772 3381 L
 874 3381 mt  874 1482 L
 874 3381 mt  874 3352 L
 874 1482 mt  874 1510 L
 841 3526 mt 
(0) s
1453 3381 mt 1453 3352 L
1453 1482 mt 1453 1510 L
1387 3526 mt 
(20) s
2033 3381 mt 2033 3352 L
2033 1482 mt 2033 1510 L
1967 3526 mt 
(40) s
2612 3381 mt 2612 3352 L
2612 1482 mt 2612 1510 L
2546 3526 mt 
(60) s
3192 3381 mt 3192 3352 L
3192 1482 mt 3192 1510 L
3126 3526 mt 
(80) s
3772 3381 mt 3772 3352 L
3772 1482 mt 3772 1510 L
3672 3526 mt 
(100) s
 874 3381 mt  902 3381 L
3772 3381 mt 3743 3381 L
 636 3425 mt 
(-10) s
 874 3109 mt  902 3109 L
3772 3109 mt 3743 3109 L
 703 3153 mt 
(-5) s
 874 2838 mt  902 2838 L
3772 2838 mt 3743 2838 L
 773 2882 mt 
(0) s
 874 2567 mt  902 2567 L
3772 2567 mt 3743 2567 L
 773 2611 mt 
(5) s
 874 2295 mt  902 2295 L
3772 2295 mt 3743 2295 L
 706 2339 mt 
(10) s
 874 2024 mt  902 2024 L
3772 2024 mt 3743 2024 L
 706 2068 mt 
(15) s
 874 1753 mt  902 1753 L
3772 1753 mt 3743 1753 L
 706 1797 mt 
(20) s
 874 1482 mt  902 1482 L
3772 1482 mt 3743 1482 L
 706 1526 mt 
(25) s
 874 3381 mt 3772 3381 L
 874 1482 mt 3772 1482 L
 874 3381 mt  874 1482 L
3772 3381 mt 3772 1482 L
gs 874 1482 2899 1900 rc
c8
29 514 29 -413 29 -212 29 -144 29 -12 29 113 29 95 29 307 
29 -932 29 114 29 -50 29 246 29 -93 29 -213 29 122 29 0 
29 67 29 -68 29 239 29 -230 29 -74 29 -51 29 -79 29 102 
29 -150 29 110 29 -13 29 25 29 75 29 109 29 -128 29 -81 
29 155 29 107 29 -209 29 -150 29 43 29 134 29 -34 29 -33 
29 196 29 -54 29 -39 29 0 29 -30 29 81 29 -76 29 -145 
29 5 28 311 29 -182 29 129 29 -263 29 146 29 -92 29 13 
29 196 29 -185 29 -159 29 72 29 -33 29 -43 29 43 29 24 
29 0 29 -109 29 -42 29 25 29 59 29 -7 29 -52 29 126 
29 -103 29 30 29 73 29 -24 29 -65 29 -34 29 67 29 56 
29 0 29 9 29 -65 29 -11 29 -6 29 -53 29 112 29 -70 
29 11 29 -42 29 41 29 -49 29 34 29 33 29 -67 29 68 
29 -4 29 15 29 72 902 2992 100 MP stroke
c9
29 0 29 0 29 0 29 0 29 0 29 0 29 0 29 0 
29 0 29 0 29 0 29 0 29 0 29 0 29 0 29 0 
29 0 29 0 29 0 29 0 29 0 29 0 29 0 29 0 
29 0 29 0 29 0 29 0 29 0 29 0 29 0 29 0 
29 0 29 0 29 0 29 0 29 0 29 0 29 0 29 0 
29 0 29 0 29 0 29 0 29 0 29 0 29 0 29 0 
29 0 28 0 29 0 29 0 29 0 29 0 29 0 29 0 
29 0 29 0 29 0 29 0 29 0 29 0 29 0 29 0 
29 0 29 0 29 0 29 0 29 0 29 0 29 0 29 0 
29 0 29 0 29 0 29 0 29 0 29 0 29 0 29 0 
29 0 29 0 29 0 29 0 29 0 29 0 29 0 29 0 
29 0 29 0 29 0 29 0 29 0 29 0 29 0 29 0 
29 0 29 0 29 0 902 2316 100 MP stroke
c10
29 0 29 0 29 0 29 0 29 0 29 0 29 0 29 0 
29 0 29 0 29 0 29 0 29 0 29 0 29 0 29 0 
29 0 29 0 29 0 29 0 29 0 29 0 29 0 29 0 
29 0 29 0 29 0 29 0 29 0 29 0 29 0 29 0 
29 0 29 0 29 0 29 0 29 0 29 0 29 0 29 0 
29 0 29 0 29 0 29 0 29 0 29 0 29 0 29 0 
29 0 28 0 29 0 29 0 29 0 29 0 29 0 29 0 
29 0 29 0 29 0 29 0 29 0 29 0 29 0 29 0 
29 0 29 0 29 0 29 0 29 0 29 0 29 0 29 0 
29 0 29 0 29 0 29 0 29 0 29 0 29 0 29 0 
29 0 29 0 29 0 29 0 29 0 29 0 29 0 29 0 
29 0 29 0 29 0 29 0 29 0 29 0 29 0 29 0 
29 0 29 0 29 0 902 2786 100 MP stroke
gr

c10
0 sg
1754 1387 mt 
(Vertical Classification) s
2020 3669 mt 
(Steps Back) s
 554 3095 mt  -90 rotate
(Prediction Value \(shifted\)) s
90 rotate

end %%Color Dict

eplot
%%EndObject

epage
end

showpage

%%Trailer
%%EOF
