%!PS-Adobe-3.0 EPSF-3.0
%%Creator: MATLAB, The MathWorks, Inc. Version 8.3.0.532 (R2014a). Operating System: Microsoft Windows 7 Home Premium .
%%Title: C:\Users\Ed\Desktop\8uH.eps
%%CreationDate: 01/26/2015  11:00:11
%%DocumentNeededFonts: Helvetica
%%DocumentProcessColors: Cyan Magenta Yellow Black
%%LanguageLevel: 2
%%Pages: 1
%%BoundingBox:    87   262   507   578
%%EndComments

%%BeginProlog
% MathWorks dictionary
/MathWorks 160 dict begin
% definition operators
/bdef {bind def} bind def
/ldef {load def} bind def
/xdef {exch def} bdef
/xstore {exch store} bdef
% operator abbreviations
/c  /clip ldef
/cc /concat ldef
/cp /closepath ldef
/gr /grestore ldef
/gs /gsave ldef
/mt /moveto ldef
/np /newpath ldef
/cm /currentmatrix ldef
/sm /setmatrix ldef
/rm /rmoveto ldef
/rl /rlineto ldef
/s {show newpath} bdef
/sc {setcmykcolor} bdef
/sr /setrgbcolor ldef
/sg /setgray ldef
/w /setlinewidth ldef
/j /setlinejoin ldef
/cap /setlinecap ldef
/rc {rectclip} bdef
/rf {rectfill} bdef
% page state control
/pgsv () def
/bpage {/pgsv save def} bdef
/epage {pgsv restore} bdef
/bplot /gsave ldef
/eplot {stroke grestore} bdef
% orientation switch
/portraitMode 0 def /landscapeMode 1 def /rotateMode 2 def
% coordinate system mappings
/dpi2point 0 def
% font control
/FontSize 0 def
/FMS {/FontSize xstore findfont [FontSize 0 0 FontSize neg 0 0]
  makefont setfont} bdef
/ISOLatin1Encoding where {pop /WindowsLatin1Encoding 256 array bdef
ISOLatin1Encoding WindowsLatin1Encoding copy pop
/.notdef/.notdef/quotesinglbase/florin/quotedblbase/ellipsis/dagger
/daggerdbl/circumflex/perthousand/Scaron/guilsinglleft/OE/.notdef/.notdef
/.notdef/.notdef/quoteleft/quoteright/quotedblleft/quotedblright/bullet
/endash/emdash/tilde/trademark/scaron/guilsinglright/oe/.notdef/.notdef
/Ydieresis WindowsLatin1Encoding 128 32 getinterval astore pop}
{/WindowsLatin1Encoding StandardEncoding bdef} ifelse
/reencode {exch dup where {pop load} {pop StandardEncoding} ifelse
  exch dup 3 1 roll findfont dup length dict begin
  { 1 index /FID ne {def}{pop pop} ifelse } forall
  /Encoding exch def currentdict end definefont pop} bdef
/isroman {findfont /CharStrings get /Agrave known} bdef
/FMSR {3 1 roll 1 index dup isroman {reencode} {pop pop} ifelse
  exch FMS} bdef
/csm {1 dpi2point div -1 dpi2point div scale neg translate
 dup landscapeMode eq {pop -90 rotate}
  {rotateMode eq {90 rotate} if} ifelse} bdef
% line types: solid, dotted, dashed, dotdash
/SO { [] 0 setdash } bdef
/DO { [.5 dpi2point mul 4 dpi2point mul] 0 setdash } bdef
/DA { [6 dpi2point mul] 0 setdash } bdef
/DD { [.5 dpi2point mul 4 dpi2point mul 6 dpi2point mul 4
  dpi2point mul] 0 setdash } bdef
% macros for lines and objects
/L {lineto stroke} bdef
/MP {3 1 roll moveto 1 sub {rlineto} repeat} bdef
/AP {{rlineto} repeat} bdef
/PDlw -1 def
/W {/PDlw currentlinewidth def setlinewidth} def
/PP {closepath eofill} bdef
/DP {closepath stroke} bdef
/MR {4 -2 roll moveto dup  0 exch rlineto exch 0 rlineto
  neg 0 exch rlineto closepath} bdef
/FR {MR stroke} bdef
/PR {MR fill} bdef
/L1i {{currentfile picstr readhexstring pop} image} bdef
/tMatrix matrix def
/MakeOval {newpath tMatrix currentmatrix pop translate scale
0 0 1 0 360 arc tMatrix setmatrix} bdef
/FO {MakeOval stroke} bdef
/PO {MakeOval fill} bdef
/PD {currentlinewidth 2 div 0 360 arc fill
   PDlw -1 eq not {PDlw w /PDlw -1 def} if} def
/FA {newpath tMatrix currentmatrix pop translate scale
  0 0 1 5 -2 roll arc tMatrix setmatrix stroke} bdef
/PA {newpath tMatrix currentmatrix pop	translate 0 0 moveto scale
  0 0 1 5 -2 roll arc closepath tMatrix setmatrix fill} bdef
/FAn {newpath tMatrix currentmatrix pop translate scale
  0 0 1 5 -2 roll arcn tMatrix setmatrix stroke} bdef
/PAn {newpath tMatrix currentmatrix pop translate 0 0 moveto scale
  0 0 1 5 -2 roll arcn closepath tMatrix setmatrix fill} bdef
/vradius 0 def /hradius 0 def /lry 0 def
/lrx 0 def /uly 0 def /ulx 0 def /rad 0 def
/MRR {/vradius xdef /hradius xdef /lry xdef /lrx xdef /uly xdef
  /ulx xdef newpath tMatrix currentmatrix pop ulx hradius add uly
  vradius add translate hradius vradius scale 0 0 1 180 270 arc 
  tMatrix setmatrix lrx hradius sub uly vradius add translate
  hradius vradius scale 0 0 1 270 360 arc tMatrix setmatrix
  lrx hradius sub lry vradius sub translate hradius vradius scale
  0 0 1 0 90 arc tMatrix setmatrix ulx hradius add lry vradius sub
  translate hradius vradius scale 0 0 1 90 180 arc tMatrix setmatrix
  closepath} bdef
/FRR {MRR stroke } bdef
/PRR {MRR fill } bdef
/MlrRR {/lry xdef /lrx xdef /uly xdef /ulx xdef /rad lry uly sub 2 div def
  newpath tMatrix currentmatrix pop ulx rad add uly rad add translate
  rad rad scale 0 0 1 90 270 arc tMatrix setmatrix lrx rad sub lry rad
  sub translate rad rad scale 0 0 1 270 90 arc tMatrix setmatrix
  closepath} bdef
/FlrRR {MlrRR stroke } bdef
/PlrRR {MlrRR fill } bdef
/MtbRR {/lry xdef /lrx xdef /uly xdef /ulx xdef /rad lrx ulx sub 2 div def
  newpath tMatrix currentmatrix pop ulx rad add uly rad add translate
  rad rad scale 0 0 1 180 360 arc tMatrix setmatrix lrx rad sub lry rad
  sub translate rad rad scale 0 0 1 0 180 arc tMatrix setmatrix
  closepath} bdef
/FtbRR {MtbRR stroke } bdef
/PtbRR {MtbRR fill } bdef
/stri 6 array def /dtri 6 array def
/smat 6 array def /dmat 6 array def
/tmat1 6 array def /tmat2 6 array def /dif 3 array def
/asub {/ind2 exch def /ind1 exch def dup dup
  ind1 get exch ind2 get sub exch } bdef
/tri_to_matrix {
  2 0 asub 3 1 asub 4 0 asub 5 1 asub
  dup 0 get exch 1 get 7 -1 roll astore } bdef
/compute_transform {
  dmat dtri tri_to_matrix tmat1 invertmatrix 
  smat stri tri_to_matrix tmat2 concatmatrix } bdef
/ds {stri astore pop} bdef
/dt {dtri astore pop} bdef
/db {2 copy /cols xdef /rows xdef mul dup 3 mul string
  currentfile 
  3 index 0 eq {/ASCIIHexDecode filter}
  {/ASCII85Decode filter 3 index 2 eq {/RunLengthDecode filter} if }
  ifelse exch readstring pop
  dup 0 3 index getinterval /rbmap xdef
  dup 2 index dup getinterval /gbmap xdef
  1 index dup 2 mul exch getinterval /bbmap xdef pop pop}bdef
/it {gs np dtri aload pop moveto lineto lineto cp c
  cols rows 8 compute_transform 
  rbmap gbmap bbmap true 3 colorimage gr}bdef
/il {newpath moveto lineto stroke}bdef
currentdict end def
%%EndProlog

%%BeginSetup
MathWorks begin

0 cap

end
%%EndSetup

%%Page: 1 1
%%BeginPageSetup
%%PageBoundingBox:    87   262   507   578
MathWorks begin
bpage
%%EndPageSetup

%%BeginObject: obj1
bplot

/dpi2point 12 def
portraitMode 1044 6936 csm

    0     0  5045  3782 rc
86 dict begin %Colortable dictionary
/c0 { 0.000000 0.000000 0.000000 sr} bdef
/c1 { 1.000000 1.000000 1.000000 sr} bdef
/c2 { 0.900000 0.000000 0.000000 sr} bdef
/c3 { 0.000000 0.820000 0.000000 sr} bdef
/c4 { 0.000000 0.000000 0.800000 sr} bdef
/c5 { 0.910000 0.820000 0.320000 sr} bdef
/c6 { 1.000000 0.260000 0.820000 sr} bdef
/c7 { 0.000000 0.820000 0.820000 sr} bdef
c0
1 j
1 sg
   0    0 5046 3783 rf
6 w
0 3083 3910 0 0 -3083 656 3366 4 MP
PP
-3910 0 0 3083 3910 0 0 -3083 656 3366 5 MP stroke
4 w
DO
SO
6 w
0 sg
 656  283 mt 4566  283 L
 656 3366 mt 4566 3366 L
4566 3366 mt 4566  283 L
 656 3366 mt  656  283 L
 656 3366 mt 4566 3366 L
 656 3366 mt  656  283 L
 656 3366 mt  656 3326 L
 656  283 mt  656  323 L
%%IncludeResource: font Helvetica
/Helvetica /WindowsLatin1Encoding 120 FMSR

 553 3511 mt 
(-5) s
2611 3366 mt 2611 3326 L
2611  283 mt 2611  323 L
2578 3511 mt 
(0) s
4566 3366 mt 4566 3326 L
4566  283 mt 4566  323 L
4533 3511 mt 
(5) s
 656 3366 mt  695 3366 L
4566 3366 mt 4526 3366 L
 555 3410 mt 
(0) s
 656 3023 mt  695 3023 L
4566 3023 mt 4526 3023 L
 455 3067 mt 
(0.1) s
 656 2681 mt  695 2681 L
4566 2681 mt 4526 2681 L
 455 2725 mt 
(0.2) s
 656 2338 mt  695 2338 L
4566 2338 mt 4526 2338 L
 455 2382 mt 
(0.3) s
 656 1996 mt  695 1996 L
4566 1996 mt 4526 1996 L
 455 2040 mt 
(0.4) s
 656 1653 mt  695 1653 L
4566 1653 mt 4526 1653 L
 455 1697 mt 
(0.5) s
 656 1311 mt  695 1311 L
4566 1311 mt 4526 1311 L
 455 1355 mt 
(0.6) s
 656  968 mt  695  968 L
4566  968 mt 4526  968 L
 455 1012 mt 
(0.7) s
 656  626 mt  695  626 L
4566  626 mt 4526  626 L
 455  670 mt 
(0.8) s
 656  283 mt  695  283 L
4566  283 mt 4526  283 L
 455  327 mt 
(0.9) s
 656  283 mt 4566  283 L
 656 3366 mt 4566 3366 L
4566 3366 mt 4566  283 L
 656 3366 mt  656  283 L
gs 656 284 3911 3083 rc
/c8 { 0.000000 0.000000 1.000000 sr} bdef
c8
1 0 1 0 1 0 1 0 1 0 1 0 1 0 1 0 
1 0 1 0 1 0 1 0 1 0 1 0 1 0 1 0 
1 0 1 0 1 0 1 0 1 0 1 0 1 0 1 0 
1 0 1 0 1 0 1 0 1 0 1 0 1 0 1 0 
1 0 1 0 1 0 1 0 1 0 1 0 1 0 1 0 
1 0 1 0 1 0 1 0 1 0 1 0 1 0 1 0 
1 0 1 0 1 0 1 0 1 0 1 0 1 0 1 0 
1 0 1 0 1 0 1 0 1 0 1 0 1 0 1 0 
1 0 1 0 1 0 1 0 1 0 1 0 1 0 1 0 
1 0 1 0 1 0 1 0 1 0 1 0 1 0 1 0 
1 0 1 0 1 0 1 0 1 0 1 0 1 0 1 0 
1 0 1 0 1 0 1 0 1 0 1 0 1 0 1 0 
1 0 1 0 1 0 1 0 1 0 1 0 1 0 1 0 
1 0 1 0 1 0 1 0 1 0 1 0 1 0 1 0 
1 0 1 0 1 0 1 0 1 0 1 0 1 0 1 0 
1 0 1 0 1 0 1 0 1 0 1 0 1 0 1 0 
1 0 1 0 1 0 1 0 1 0 1 0 1 0 1 0 
1 0 1 0 1 0 1 0 1 0 1 0 1 0 1 0 
1 0 1 0 1 0 1 0 1 0 1 0 1 0 1 0 
1 0 1 0 1 0 1 0 1 0 1 0 1 0 1 0 
1 0 1 0 1 0 1 0 1 0 1 0 1 0 1 0 
1 0 1 0 1 0 1 0 1 0 1 0 1 0 1 0 
1 0 1 0 1 0 1 0 1 0 1 0 1 0 1 0 
1 0 1 0 1 0 1 0 1 0 1 0 1 0 1 0 
1 0 1 0 1 0 1 0 1 0 1 0 1 0 1 0 
1 0 1 0 1 0 1 0 1 0 1 0 1 0 1 0 
1 0 1 0 1 0 1 0 1 0 1 0 1 0 1 0 
1 0 1 0 1 0 1 0 1 0 1 0 1 0 1 0 
1 0 1 0 1 0 1 1 1 0 1 0 1 0 1 0 
1 0 1 0 1 0 1 0 1 0 1 0 1 0 1 0 
1 0 1 0 1 0 1 0 1 0 1 0 1 0 1 0 
1 0 1 0 1 0 1 0 1 0 1 0 1 0 1 0 
1 0 1 0 1 0 1 0 1 0 1 0 1 0 1 0 
1 0 1 0 1 0 1 0 1 0 1 0 1 0 1 0 
1 0 1 0 1 0 1 0 1 0 1 0 1 0 1 0 
1 0 1 0 1 0 1 0 1 0 1 0 1 0 1 0 
1 0 1 0 1 0 1 0 1 0 1 0 1 1 1 0 
1 0 1 0 1 0 4107 3363 300 MP stroke
1 0 1 0 1 0 1 0 1 0 1 0 1 0 1 0 
1 0 1 0 1 0 1 0 1 0 1 0 1 0 1 0 
1 0 1 0 1 0 1 0 1 0 1 0 1 0 1 0 
1 0 1 0 1 0 1 0 1 0 1 0 1 0 1 0 
1 0 1 0 1 0 1 0 1 1 1 0 1 0 1 0 
1 0 1 0 1 0 1 0 1 0 1 0 1 0 1 0 
1 0 1 0 1 0 1 0 1 0 1 0 1 0 1 0 
1 0 1 0 1 0 1 0 1 0 1 0 1 0 1 0 
1 0 1 1 1 0 1 0 1 0 1 0 1 0 1 0 
1 0 1 0 1 0 1 0 1 0 1 0 1 0 1 0 
1 0 1 0 1 0 1 0 1 0 1 0 1 0 1 0 
1 0 1 1 1 0 1 0 1 0 1 0 1 0 1 0 
1 0 1 0 1 0 1 0 1 0 1 0 1 0 1 0 
1 0 1 0 1 0 1 0 1 1 1 0 1 0 1 0 
1 0 1 0 1 0 1 0 1 0 1 0 1 0 1 0 
1 0 1 0 1 0 1 0 1 0 1 1 1 0 1 0 
1 0 1 0 1 0 1 0 1 0 1 0 1 0 1 0 
1 0 1 0 1 0 1 0 1 1 1 0 1 0 1 0 
1 0 1 0 1 0 1 0 1 0 1 0 1 0 1 0 
1 0 1 1 1 0 1 0 1 0 1 0 1 0 1 0 
1 0 1 0 1 0 1 0 1 0 1 1 1 0 1 0 
1 0 1 0 1 0 1 0 1 0 1 0 1 0 1 0 
1 1 1 0 1 0 1 0 1 0 1 0 1 0 1 0 
1 0 1 0 1 1 1 0 1 0 1 0 1 0 1 0 
1 0 1 0 1 0 1 1 1 0 1 0 1 0 1 0 
1 0 1 0 1 0 1 0 1 1 1 0 1 0 1 0 
1 0 1 0 1 0 1 0 1 1 1 0 1 0 1 0 
1 0 1 0 1 0 1 0 1 1 1 0 1 0 1 0 
1 0 1 0 1 0 1 1 1 0 1 0 1 0 1 0 
1 0 1 0 1 1 1 0 1 0 1 0 1 0 1 0 
1 1 1 0 1 0 1 0 1 0 1 0 1 0 1 1 
1 0 1 0 1 0 1 0 1 0 1 1 1 0 1 0 
1 0 1 0 1 1 1 0 1 0 1 0 1 0 1 0 
1 1 1 0 1 0 1 0 1 0 1 1 1 0 1 0 
1 0 1 0 1 1 1 0 1 0 1 0 1 0 1 1 
1 0 1 0 1 0 1 0 1 1 1 0 1 0 1 0 
1 0 1 1 1 0 1 0 1 0 1 1 1 0 1 0 
1 0 1 1 1 0 3808 3335 300 MP stroke
1 0 1 0 1 0 1 1 1 0 1 0 1 0 1 1 
1 0 1 0 1 0 1 1 1 0 1 0 1 0 1 1 
1 0 1 0 1 1 1 0 1 0 1 0 1 1 1 0 
1 0 1 0 1 1 1 0 1 0 1 1 1 0 1 0 
1 0 1 1 1 0 1 0 1 1 1 0 1 0 1 1 
1 0 1 0 1 0 1 1 1 0 1 0 1 1 1 0 
1 0 1 1 1 0 1 0 1 1 1 0 1 0 1 1 
1 0 1 0 1 1 1 0 1 0 1 1 1 0 1 0 
1 1 1 0 1 1 1 0 1 0 1 1 1 0 1 0 
1 1 1 0 1 1 1 0 1 0 1 1 1 0 1 0 
1 1 1 0 1 1 1 0 1 0 1 1 1 0 1 1 
1 0 1 1 1 0 1 0 1 1 1 0 1 1 1 0 
1 1 1 0 1 0 1 1 1 0 1 1 1 0 1 1 
1 0 1 1 1 0 1 0 1 1 1 0 1 1 1 0 
1 1 1 0 1 1 1 0 1 1 1 0 1 1 1 0 
1 1 1 0 1 1 1 0 1 1 1 0 1 1 1 0 
1 1 1 0 1 1 1 0 1 1 1 0 1 1 1 1 
1 0 1 1 1 0 1 1 1 0 1 1 1 0 1 1 
1 1 1 0 1 1 1 0 1 1 1 1 1 0 1 1 
1 0 1 1 1 0 1 1 1 1 1 0 1 1 1 1 
1 0 1 1 1 0 1 1 1 1 1 0 1 1 1 1 
1 0 1 1 1 1 1 0 1 1 1 1 1 0 1 1 
1 1 1 0 1 1 1 1 1 0 1 1 1 1 1 0 
1 1 1 1 1 1 1 0 1 1 1 1 1 0 1 1 
1 1 1 1 1 0 1 1 1 1 1 1 1 0 1 1 
1 1 1 1 1 0 1 1 1 1 1 1 1 1 1 0 
1 1 1 1 1 1 1 1 1 0 1 1 1 1 1 1 
1 1 1 1 1 0 1 1 1 1 1 1 1 1 1 1 
1 0 1 1 1 1 1 1 1 1 1 1 1 1 1 1 
1 0 1 1 1 1 1 1 1 1 1 1 1 1 1 1 
1 1 1 1 1 1 1 1 1 1 1 0 1 1 1 1 
1 1 1 1 1 1 1 1 1 1 1 1 1 1 1 1 
1 1 1 1 1 1 1 1 1 1 1 1 1 1 1 1 
1 1 1 1 1 1 1 1 0 1 2 2 1 1 1 1 
1 1 1 1 1 1 1 1 1 1 1 1 1 1 1 1 
0 1 2 2 1 1 1 1 1 1 1 1 1 1 1 1 
0 1 2 2 1 1 1 1 1 1 1 1 0 1 2 2 
1 1 1 1 1 1 3509 3147 300 MP stroke
0 1 2 2 1 1 1 1 1 1 0 1 2 2 1 1 
1 1 0 1 2 2 1 1 1 1 0 1 2 2 1 1 
1 1 0 1 2 2 1 1 0 1 2 2 1 1 1 1 
0 1 2 2 1 1 0 1 2 2 1 1 0 1 2 2 
1 1 0 1 2 2 0 1 2 2 1 1 0 1 2 2 
0 1 2 2 1 1 0 1 2 2 0 1 2 2 1 1 
0 1 2 2 0 1 2 2 0 1 2 2 0 1 2 2 
0 1 2 2 0 1 2 2 0 1 2 2 0 1 2 2 
0 1 2 2 0 1 2 2 0 1 2 2 0 1 2 2 
1 1 0 2 2 2 0 1 2 2 0 1 2 2 1 1 
0 2 2 2 0 1 2 2 1 1 0 2 2 2 1 1 
0 2 2 2 1 1 0 2 2 2 1 1 0 2 2 2 
1 1 0 2 2 2 1 1 0 2 2 2 0 1 2 2 
0 2 2 2 0 1 2 2 0 2 2 2 0 1 2 2 
0 2 2 2 1 1 0 2 2 2 0 2 2 2 1 1 
0 2 2 2 0 2 2 2 0 1 2 2 0 2 2 2 
0 2 2 2 0 1 2 2 0 2 2 2 0 2 2 2 
0 2 2 2 0 1 2 2 0 2 2 2 0 2 2 2 
0 2 2 2 0 2 2 2 0 2 2 2 0 1 2 2 
0 2 2 2 0 2 2 2 0 2 2 2 0 2 2 2 
0 2 2 2 0 2 2 2 0 2 2 2 0 2 2 2 
0 2 2 2 0 2 1 1 0 2 2 2 0 2 2 2 
0 2 2 2 0 2 2 2 0 2 2 2 0 2 2 2 
0 2 1 1 0 2 2 2 0 2 2 2 0 2 2 2 
0 2 2 2 0 3 2 2 0 2 2 2 0 2 2 2 
0 3 2 2 0 2 2 2 0 2 2 2 0 3 2 2 
0 2 2 2 0 2 1 1 0 2 2 2 0 2 2 2 
0 3 2 2 0 2 2 2 0 3 2 2 0 2 2 2 
0 3 2 2 0 2 2 2 0 2 1 1 0 2 2 2 
0 2 1 1 0 1 1 1 0 2 2 2 0 2 1 1 
0 2 2 2 0 2 1 1 0 2 2 2 0 2 1 1 
0 2 2 2 0 2 1 1 0 2 2 2 0 2 1 1 
0 2 2 2 0 2 1 1 0 2 2 2 0 2 1 1 
0 2 2 2 0 2 1 1 0 2 2 2 0 3 2 2 
0 2 1 1 0 2 2 2 0 3 2 2 0 2 1 1 
0 2 2 2 0 3 2 2 0 2 1 1 0 2 2 2 
0 3 2 2 0 3 2 2 0 2 1 1 0 2 2 2 
0 3 2 2 0 3 3229 2620 300 MP stroke
2 2 0 3 2 2 0 2 1 1 0 2 2 2 0 3 
2 2 0 3 2 2 0 3 2 2 0 3 2 2 0 3 
2 2 0 2 1 1 0 2 2 2 0 3 2 2 0 3 
2 2 0 3 2 2 0 3 2 2 0 3 2 2 0 3 
2 2 0 3 2 2 0 3 2 2 0 3 2 2 0 3 
2 2 0 3 2 2 0 3 2 2 0 3 2 2 0 3 
2 2 0 3 2 2 0 3 2 2 0 3 2 2 0 3 
2 2 0 3 2 2 0 3 2 2 0 3 2 2 0 3 
2 2 0 2 1 1 0 3 2 2 0 3 2 2 0 3 
2 2 0 3 2 2 0 3 2 2 0 3 2 2 0 3 
2 2 0 3 2 2 0 3 2 2 0 3 2 2 0 3 
2 2 0 3 2 2 0 3 2 2 0 3 2 2 0 3 
2 2 0 3 2 2 0 3 2 2 0 3 2 2 0 3 
2 2 0 3 2 2 0 2 1 1 0 2 2 2 0 3 
2 2 0 3 2 2 0 3 2 2 0 3 2 2 0 3 
2 2 0 2 1 1 0 2 2 2 0 3 2 2 0 3 
2 2 0 3 2 2 0 2 1 1 0 2 2 2 0 3 
2 2 0 2 1 1 0 2 2 2 0 3 2 2 0 2 
1 1 0 2 2 2 0 3 2 2 0 2 1 1 0 2 
2 2 0 3 2 2 0 2 1 1 0 2 2 2 0 2 
1 1 0 2 2 2 0 2 1 1 0 2 2 2 0 2 
1 1 0 2 2 2 0 2 1 1 0 2 2 2 0 2 
1 1 0 2 2 2 0 3 2 2 0 2 2 2 0 3 
2 2 0 2 2 2 0 2 1 1 0 2 2 2 0 2 
1 1 0 2 2 2 0 2 2 2 0 3 2 2 0 2 
2 2 0 3 2 2 0 2 2 2 0 2 2 2 0 3 
2 2 0 2 2 2 0 2 2 2 0 2 1 1 0 2 
2 2 0 2 2 2 0 2 2 2 0 2 2 2 0 2 
1 1 0 2 2 2 0 2 2 2 0 2 2 2 0 2 
2 2 0 2 2 2 0 2 2 2 0 2 2 2 0 2 
2 2 0 2 2 2 0 2 2 2 0 2 2 2 0 2 
2 2 1 1 0 2 2 2 0 2 2 2 0 2 2 2 
0 2 2 2 0 1 2 2 0 2 2 2 0 2 2 2 
1 1 0 2 2 2 0 2 2 2 0 1 2 2 0 2 
2 2 1 1 0 2 2 2 0 1 2 2 0 2 2 2 
1 1 0 2 2 2 0 1 2 2 1 1 0 2 2 2 
1 1 0 2 2 2 0 1 2 2 0 1 2 2 0 1 
2 2 0 1 2 2 2948 1990 300 MP stroke
0 1 2 2 0 1 2 2 0 1 2 2 0 1 2 2 
0 1 2 2 1 1 0 1 2 2 0 1 2 2 1 1 
0 1 2 2 1 1 0 1 2 2 1 1 0 1 2 2 
1 1 0 1 2 2 1 1 1 1 1 1 0 1 2 2 
1 1 1 1 1 1 0 1 2 2 1 1 1 1 1 1 
1 1 1 1 0 1 2 2 1 1 1 1 1 1 1 1 
1 1 1 1 1 1 1 1 1 1 1 1 1 1 1 1 
1 1 1 1 1 1 1 1 1 1 1 0 1 1 1 1 
1 1 1 1 1 1 1 1 1 1 1 0 1 1 1 1 
1 1 1 1 1 0 1 1 1 1 1 1 1 0 1 1 
1 1 1 0 1 1 1 1 1 0 1 1 1 1 1 0 
1 1 1 0 1 1 1 1 1 0 1 1 1 0 1 1 
1 0 1 1 1 0 1 1 1 0 1 1 1 0 1 1 
1 0 1 1 1 0 1 0 1 1 1 0 1 1 1 0 
1 0 1 1 1 0 1 0 1 0 1 1 1 0 1 0 
1 1 1 0 1 0 1 0 1 0 1 1 1 0 1 0 
1 0 1 0 1 0 1 1 1 0 1 0 1 0 1 0 
1 0 1 0 1 0 1 0 1 0 1 0 1 0 1 0 
1 0 1 0 1 0 1 0 1 0 1 0 1 0 1 0 
1 -1 1 0 1 0 1 0 1 0 1 0 1 -1 1 0 
1 0 1 0 1 0 1 -1 1 0 1 0 1 0 1 -1 
1 0 1 0 1 -1 1 0 1 0 1 -1 1 0 1 0 
1 -1 1 0 1 -1 1 0 1 -1 1 0 1 0 1 -1 
1 0 1 -1 1 0 1 -1 1 0 1 -1 1 -1 1 0 
1 -1 1 0 1 -1 1 0 1 -1 1 -1 1 0 1 -1 
1 -1 1 0 1 -1 1 -1 1 0 1 -1 1 -1 1 -1 
1 0 1 -1 1 -1 1 -1 1 -1 1 0 1 -1 1 -1 
1 -1 1 -1 1 -1 1 0 1 -1 1 -1 1 -1 1 -1 
1 -1 1 -1 1 -1 1 -1 1 -1 1 -1 1 -1 1 -1 
1 -1 1 -1 1 -1 1 -1 1 -1 1 -1 1 -1 1 -1 
1 -1 1 -1 1 -1 0 -1 2 -2 1 -1 1 -1 1 -1 
1 -1 0 -1 2 -2 1 -1 1 -1 0 -1 2 -2 1 -1 
1 -1 0 -1 2 -2 1 -1 1 -1 0 -1 2 -2 1 -1 
0 -1 2 -2 1 -1 0 -1 2 -2 0 -1 2 -2 1 -1 
0 -1 2 -2 0 -1 2 -2 0 -1 2 -2 0 -1 2 -2 
1 -1 0 -1 2 -2 1 -1 0 -2 2 -2 0 -1 2 -2 
0 -1 2 -2 0 -1 2 -2 1 -1 0 -2 2 -2 1 -1 
0 -2 2 -2 0 -1 2650 2013 300 MP stroke
2 -2 0 -1 2 -2 0 -2 2 -2 1 -1 0 -2 2 -2 
0 -1 2 -2 0 -2 2 -2 0 -1 2 -2 0 -2 2 -2 
1 -1 0 -2 2 -2 0 -2 2 -2 0 -1 2 -2 0 -2 
2 -2 0 -2 2 -2 0 -1 2 -2 0 -2 2 -2 0 -2 
2 -2 0 -2 2 -2 0 -2 2 -2 1 -1 0 -2 2 -2 
0 -2 2 -2 0 -2 2 -2 0 -2 2 -2 0 -2 2 -2 
0 -2 2 -2 0 -2 2 -2 0 -2 2 -2 0 -2 2 -2 
0 -3 2 -2 0 -2 2 -2 0 -2 2 -2 0 -2 2 -2 
0 -2 2 -2 0 -2 1 -1 0 -2 2 -2 0 -2 2 -2 
0 -2 2 -2 0 -3 2 -2 0 -2 2 -2 0 -2 2 -2 
0 -2 1 -1 0 -2 2 -2 0 -2 2 -2 0 -3 2 -2 
0 -2 2 -2 0 -3 2 -2 0 -2 2 -2 0 -3 2 -2 
0 -2 2 -2 0 -2 1 -1 0 -2 2 -2 0 -3 2 -2 
0 -2 2 -2 0 -2 1 -1 0 -2 2 -2 0 -2 1 -1 
0 -2 2 -2 0 -2 1 -1 0 -2 2 -2 0 -2 1 -1 
0 -2 2 -2 0 -3 2 -2 0 -2 1 -1 0 -2 2 -2 
0 -2 1 -1 0 -2 2 -2 0 -3 2 -2 0 -2 1 -1 
0 -2 2 -2 0 -3 2 -2 0 -2 1 -1 0 -2 2 -2 
0 -3 2 -2 0 -3 2 -2 0 -2 1 -1 0 -2 2 -2 
0 -3 2 -2 0 -3 2 -2 0 -2 1 -1 0 -2 2 -2 
0 -3 2 -2 0 -3 2 -2 0 -3 2 -2 0 -3 2 -2 
0 -3 2 -2 0 -3 2 -2 0 -2 1 -1 0 -2 2 -2 
0 -3 2 -2 0 -3 2 -2 0 -3 2 -2 0 -3 2 -2 
0 -3 2 -2 0 -3 2 -2 0 -3 2 -2 0 -3 2 -2 
0 -3 2 -2 0 -3 2 -2 0 -3 2 -2 0 -3 2 -2 
0 -3 2 -2 0 -3 2 -2 0 -3 2 -2 0 -3 2 -2 
0 -3 2 -2 0 -3 2 -2 0 -2 1 -1 0 -3 2 -2 
0 -3 2 -2 0 -3 2 -2 0 -3 2 -2 0 -3 2 -2 
0 -3 2 -2 0 -3 2 -2 0 -3 2 -2 0 -3 2 -2 
0 -3 2 -2 0 -3 2 -2 0 -3 2 -2 0 -3 2 -2 
0 -3 2 -2 0 -3 2 -2 0 -3 2 -2 0 -3 2 -2 
0 -3 2 -2 0 -3 2 -2 0 -3 2 -2 0 -3 2 -2 
0 -3 2 -2 0 -3 2 -2 0 -3 2 -2 0 -2 1 -1 
0 -2 2 -2 0 -3 2 -2 0 -3 2 -2 0 -3 2 -2 
0 -3 2 -2 0 -3 2 -2 0 -2 1 -1 0 -2 2 -2 
0 -3 2 -2 0 -3 2 -2 0 -2 1 -1 0 -2 2 -2 
0 -3 2 -2 0 -3 2 -2 0 -2 1 -1 0 -2 2 -2 
0 -3 2 -2 0 -2 2370 2655 300 MP stroke
1 -1 0 -2 2 -2 0 -3 2 -2 0 -2 1 -1 0 -2 
2 -2 0 -3 2 -2 0 -2 1 -1 0 -2 2 -2 0 -2 
1 -1 0 -2 2 -2 0 -3 2 -2 0 -2 1 -1 0 -2 
2 -2 0 -2 1 -1 0 -2 2 -2 0 -2 1 -1 0 -2 
2 -2 0 -2 1 -1 0 -2 2 -2 0 -2 1 -1 0 -1 
1 -1 0 -2 2 -2 0 -2 1 -1 0 -2 2 -2 0 -3 
2 -2 0 -2 2 -2 0 -2 1 -1 0 -2 2 -2 0 -3 
2 -2 0 -2 2 -2 0 -3 2 -2 0 -2 2 -2 0 -2 
1 -1 0 -2 2 -2 0 -2 2 -2 0 -2 1 -1 0 -2 
2 -2 0 -2 2 -2 0 -2 1 -1 0 -2 2 -2 0 -2 
2 -2 0 -3 2 -2 0 -2 2 -2 0 -2 2 -2 0 -3 
2 -2 0 -2 2 -2 0 -2 2 -2 0 -2 2 -2 0 -2 
1 -1 0 -2 2 -2 0 -2 2 -2 0 -2 2 -2 0 -2 
2 -2 0 -2 2 -2 0 -3 2 -2 0 -2 2 -2 0 -2 
2 -2 0 -2 2 -2 0 -2 2 -2 0 -2 2 -2 0 -2 
2 -2 0 -2 2 -2 0 -2 2 -2 0 -2 2 -2 0 -2 
2 -2 0 -2 2 -2 0 -2 2 -2 0 -2 2 -2 1 -1 
0 -2 2 -2 0 -2 2 -2 0 -2 2 -2 0 -2 2 -2 
0 -2 2 -2 1 -1 0 -2 2 -2 0 -2 2 -2 0 -2 
2 -2 0 -1 2 -2 0 -2 2 -2 0 -2 2 -2 1 -1 
0 -2 2 -2 0 -2 2 -2 0 -1 2 -2 0 -2 2 -2 
0 -1 2 -2 0 -2 2 -2 0 -1 2 -2 0 -2 2 -2 
0 -1 2 -2 0 -2 2 -2 1 -1 0 -2 2 -2 1 -1 
0 -2 2 -2 1 -1 0 -2 2 -2 1 -1 0 -2 2 -2 
1 -1 0 -2 2 -2 1 -1 0 -2 2 -2 0 -1 2 -2 
1 -1 0 -2 2 -2 0 -1 2 -2 0 -1 2 -2 1 -1 
0 -2 2 -2 0 -1 2 -2 0 -1 2 -2 0 -1 2 -2 
0 -1 2 -2 0 -1 2 -2 0 -1 2 -2 0 -1 2 -2 
0 -1 2 -2 0 -1 2 -2 0 -1 2 -2 0 -1 2 -2 
1 -1 0 -1 2 -2 0 -1 2 -2 0 -1 2 -2 1 -1 
0 -1 2 -2 1 -1 0 -1 2 -2 0 -1 2 -2 1 -1 
0 -1 2 -2 1 -1 0 -1 2 -2 1 -1 0 -1 2 -2 
1 -1 0 -1 2 -2 1 -1 0 -1 2 -2 1 -1 1 -1 
0 -1 2 -2 1 -1 1 -1 0 -1 2 -2 1 -1 1 -1 
0 -1 2 -2 1 -1 1 -1 0 -1 2 -2 1 -1 1 -1 
1 -1 0 -1 2 -2 1 -1 1 -1 1 -1 1 -1 0 -1 
2 -2 1 -1 1 -1 1 -1 1 -1 0 -1 2 -2 1 -1 
1 -1 1 -1 1 -1 2086 3166 300 MP stroke
1 -1 1 -1 1 -1 0 -1 2 -2 1 -1 1 -1 1 -1 
1 -1 1 -1 1 -1 1 -1 1 -1 1 -1 1 -1 1 -1 
1 -1 1 -1 1 -1 1 -1 1 -1 1 -1 1 -1 1 -1 
1 -1 1 -1 1 -1 1 -1 1 -1 1 -1 1 -1 1 -1 
1 -1 1 -1 1 -1 1 -1 1 -1 1 -1 1 -1 1 -1 
1 -1 1 -1 1 -1 1 -1 1 -1 1 0 1 -1 1 -1 
1 -1 1 -1 1 -1 1 -1 1 -1 1 -1 1 0 1 -1 
1 -1 1 -1 1 -1 1 -1 1 -1 1 0 1 -1 1 -1 
1 -1 1 -1 1 -1 1 0 1 -1 1 -1 1 -1 1 -1 
1 -1 1 0 1 -1 1 -1 1 -1 1 0 1 -1 1 -1 
1 -1 1 -1 1 0 1 -1 1 -1 1 -1 1 0 1 -1 
1 -1 1 -1 1 0 1 -1 1 -1 1 0 1 -1 1 -1 
1 -1 1 0 1 -1 1 -1 1 0 1 -1 1 -1 1 0 
1 -1 1 -1 1 0 1 -1 1 -1 1 -1 1 0 1 -1 
1 0 1 -1 1 -1 1 0 1 -1 1 -1 1 0 1 -1 
1 -1 1 0 1 -1 1 0 1 -1 1 -1 1 0 1 -1 
1 0 1 -1 1 -1 1 0 1 -1 1 0 1 -1 1 -1 
1 0 1 -1 1 0 1 -1 1 0 1 -1 1 -1 1 0 
1 -1 1 0 1 -1 1 0 1 -1 1 0 1 -1 1 0 
1 -1 1 0 1 -1 1 -1 1 0 1 -1 1 0 1 -1 
1 0 1 -1 1 0 1 -1 1 0 1 -1 1 0 1 -1 
1 0 1 0 1 -1 1 0 1 -1 1 0 1 -1 1 0 
1 -1 1 0 1 -1 1 0 1 -1 1 0 1 0 1 -1 
1 0 1 -1 1 0 1 -1 1 0 1 0 1 -1 1 0 
1 -1 1 0 1 -1 1 0 1 0 1 -1 1 0 1 -1 
1 0 1 0 1 -1 1 0 1 -1 1 0 1 0 1 -1 
1 0 1 0 1 -1 1 0 1 -1 1 0 1 0 1 -1 
1 0 1 0 1 -1 1 0 1 0 1 -1 1 0 1 0 
1 -1 1 0 1 -1 1 0 1 0 1 -1 1 0 1 0 
1 0 1 -1 1 0 1 0 1 -1 1 0 1 0 1 -1 
1 0 1 0 1 -1 1 0 1 0 1 -1 1 0 1 0 
1 0 1 -1 1 0 1 0 1 -1 1 0 1 0 1 0 
1 -1 1 0 1 0 1 -1 1 0 1 0 1 0 1 -1 
1 0 1 0 1 0 1 -1 1 0 1 0 1 0 1 -1 
1 0 1 0 1 0 1 -1 1 0 1 0 1 0 1 -1 
1 0 1 0 1 0 1 -1 1 0 1 0 1 0 1 -1 
1 0 1 0 1 0 1 0 1 -1 1 0 1 0 1 0 
1 -1 1 0 1 0 1787 3339 300 MP stroke
1 0 1 0 1 -1 1 0 1 0 1 0 1 0 1 -1 
1 0 1 0 1 0 1 0 1 -1 1 0 1 0 1 0 
1 0 1 0 1 -1 1 0 1 0 1 0 1 0 1 -1 
1 0 1 0 1 0 1 0 1 0 1 -1 1 0 1 0 
1 0 1 0 1 0 1 -1 1 0 1 0 1 0 1 0 
1 0 1 -1 1 0 1 0 1 0 1 0 1 0 1 0 
1 -1 1 0 1 0 1 0 1 0 1 0 1 0 1 -1 
1 0 1 0 1 0 1 0 1 0 1 0 1 -1 1 0 
1 0 1 0 1 0 1 0 1 0 1 -1 1 0 1 0 
1 0 1 0 1 0 1 0 1 0 1 0 1 -1 1 0 
1 0 1 0 1 0 1 0 1 0 1 0 1 -1 1 0 
1 0 1 0 1 0 1 0 1 0 1 0 1 0 1 0 
1 -1 1 0 1 0 1 0 1 0 1 0 1 0 1 0 
1 0 1 0 1 -1 1 0 1 0 1 0 1 0 1 0 
1 0 1 0 1 0 1 0 1 -1 1 0 1 0 1 0 
1 0 1 0 1 0 1 0 1 0 1 0 1 0 1 0 
1 -1 1 0 1 0 1 0 1 0 1 0 1 0 1 0 
1 0 1 0 1 0 1 0 1 0 1 0 1 -1 1 0 
1 0 1 0 1 0 1 0 1 0 1 0 1 0 1 0 
1 0 1 0 1 0 1 0 1 -1 1 0 1 0 1 0 
1 0 1 0 1 0 1 0 1 0 1 0 1 0 1 0 
1 0 1 0 1 0 1 0 1 0 1 -1 1 0 1 0 
1 0 1 0 1 0 1 0 1 0 1 0 1 0 1 0 
1 0 1 0 1 0 1 0 1 0 1 0 1 0 1 0 
1 0 1 -1 1 0 1 0 1 0 1 0 1 0 1 0 
1 0 1 0 1 0 1 0 1 0 1 0 1 0 1 0 
1 0 1 0 1 0 1 0 1 0 1 0 1 0 1 0 
1 -1 1 0 1 0 1 0 1 0 1 0 1 0 1 0 
1 0 1 0 1 0 1 0 1 0 1 0 1 0 1 0 
1 0 1 0 1 0 1 0 1 0 1 0 1 0 1 0 
1 0 1 0 1 0 1 0 1 0 1 0 1 -1 1 0 
1 0 1 0 1 0 1 0 1 0 1 0 1 0 1 0 
1 0 1 0 1 0 1 0 1 0 1 0 1 0 1 0 
1 0 1 0 1 0 1 0 1 0 1 0 1 0 1 0 
1 0 1 0 1 0 1 0 1 0 1 0 1 0 1 0 
1 0 1 0 1 0 1 0 1 0 1 0 1 -1 1 0 
1 0 1 0 1 0 1 0 1 0 1 0 1 0 1 0 
1 0 1 0 1 0 1488 3364 300 MP stroke
1 0 1 0 1 0 1 0 1 0 1 0 1 0 1 0 
1 0 1 0 1 0 1 0 1 0 1 0 1 0 1 0 
1 0 1 0 1 0 1 0 1 0 1 0 1 0 1 0 
1 0 1 0 1 0 1 0 1 0 1 0 1 0 1 0 
1 0 1 0 1 0 1 0 1 0 1 0 1 0 1 0 
1 0 1 0 1 0 1 0 1 0 1 0 1 0 1 0 
1 0 1 0 1 0 1 0 1 0 1 0 1 -1 1 0 
1 0 1 0 1 0 1 0 1 0 1 0 1 0 1 0 
1 0 1 0 1 0 1 0 1 0 1 0 1 0 1 0 
1 0 1 0 1 0 1 0 1 0 1 0 1 0 1 0 
1 0 1 0 1 0 1 0 1 0 1 0 1 0 1 0 
1 0 1 0 1 0 1 0 1 0 1 0 1 0 1 0 
1 0 1 0 1 0 1 0 1 0 1 0 1 0 1 0 
1 0 1 0 1 0 1 0 1 0 1 0 1 0 1 0 
1 0 1 0 1 0 1 0 1 0 1 0 1 0 1 0 
1 0 1 0 1 0 1 0 1 0 1 0 1 0 1 0 
1 0 1 0 1 0 1 0 1 0 1 0 1 0 1 0 
1 0 1 0 1 0 1 0 1 0 1 0 1 0 1 0 
1 0 1 0 1 0 1 0 1 0 1 0 1 0 1 0 
1 0 1 0 1 0 1 0 1 0 1 0 1 0 1 0 
1 0 1 0 1 0 1 0 1 0 1 0 1 0 1 0 
1 0 1 0 1 0 1 0 1 0 1 0 1 0 1 0 
1 0 1 0 1 0 1 0 1 0 1 0 1 0 1 0 
1 0 1 0 1 0 1 0 1 0 1 0 1 0 1 0 
1 0 1 0 1 0 1 0 1 0 1 0 1 0 1 0 
1 0 1 0 1 0 1 0 1 0 1 0 1 0 1 0 
1 0 1 0 1 0 1 0 1 0 1 0 1 0 1 0 
1 0 1 0 1 0 1 0 1 0 1 0 1 0 1 0 
1 0 1 0 1 0 1 0 1 0 1 0 1 0 1 0 
1 0 1 0 1 0 1 0 1 0 1 0 1 0 1 0 
1 0 1 0 1 0 1 0 1 0 1 0 1 0 1 0 
1 0 1 0 1 0 1 0 1 0 1 0 1 0 1 0 
1 0 1 0 1 0 1 0 1 0 1 0 1 0 1 0 
1 0 1 0 1 0 1 0 1 0 1 0 1 0 1 0 
1 0 1 0 1 0 1 0 1 0 1 0 1 0 1 0 
1 0 1 0 1 0 1 0 1 0 1 0 1 0 1 0 
1 0 1 0 1 0 1 0 1 0 1 0 1 0 1 0 
1 0 1 0 1 0 1189 3365 300 MP stroke
1 0 1 0 1 0 1 0 1 0 1 0 1 0 1 0 
1 0 1 0 1 0 1 0 1 0 1 0 1 0 1 0 
1 0 1 0 1 0 1 0 1 0 1 0 1 0 1 0 
1 0 1 0 1 0 1 0 1 0 1 0 1 0 1 0 
1 0 1 0 1 0 1 0 1 0 1 0 1 0 1 0 
1 0 1 0 1 0 1 0 1 0 1 0 1 0 1 0 
1 0 1 0 1 0 1 0 1 0 1 0 1 0 1 0 
1 0 1 0 1 0 1 0 1 0 1 0 1 0 1 0 
1 0 1 0 1 0 1 0 1 0 1 0 1 0 1 0 
1 0 1 0 1 0 1 0 1 0 1 0 1 0 1 0 
1 0 1 0 1 0 1 0 1 0 1 0 1 0 1 0 
1 0 1 0 1 0 1 0 1 0 1 0 1 0 1 0 
1 0 1 0 1 0 1 0 1 0 1 0 1 0 1 0 
1 0 1 0 1 0 1 0 1 0 1 0 1 0 1 0 
1 0 1 0 1 0 1 0 1 0 1 0 1 0 1 0 
1 0 1 0 1 0 1 0 1 0 1 0 1 0 1 0 
1 0 1 0 1 0 1 0 1 0 1 0 1 0 1 0 
1 0 1 0 1 0 1 0 1 0 1 0 1 0 1 0 
1 0 1 0 1 0 1 0 1 0 1 0 1 0 1 0 
1 0 1 0 1 0 1 0 1 0 1 0 1 0 1 0 
1 0 1 0 1 0 1 0 1 0 1 0 1 0 1 0 
1 0 1 0 1 0 1 0 1 0 1 0 1 0 1 0 
1 0 1 0 1 0 1 0 1 0 1 0 1 0 1 0 
1 0 1 0 1 0 1 0 1 0 1 0 1 0 1 0 
1 0 1 0 1 0 1 0 1 0 1 0 1 0 1 0 
1 0 1 0 1 0 1 0 1 0 1 0 1 0 1 0 
1 0 1 0 1 0 1 0 1 0 1 0 1 0 1 0 
1 0 1 0 1 0 1 0 1 0 1 0 1 0 1 0 
1 0 1 0 1 0 1 0 1 0 1 0 1 0 1 0 
1 0 1 0 1 0 1 0 1 0 1 0 1 0 1 0 
1 0 1 0 1 0 1 0 1 0 1 0 1 0 1 0 
1 0 1 0 1 0 1 0 1 0 1 0 1 0 1 0 
1 0 1 0 1 0 1 0 1 0 1 0 1 0 1 0 
1 0 1 0 1 0 1 0 1 0 1 0 1 0 1 0 
1 0 1 0 1 0 1 0 1 0 1 0 1 0 1 0 
1 0 1 0 1 0 1 0 1 0 1 0 1 0 1 0 
1 0 1 0 1 0 1 0 1 0 1 0 1 0 1 0 
1 0 1 0 1 0 890 3365 300 MP stroke
1 0 1 0 1 0 1 0 1 0 1 0 1 0 1 0 
1 0 1 0 1 0 1 0 1 0 1 0 1 0 1 0 
1 0 1 0 1 0 1 0 1 0 1 0 1 0 1 0 
1 0 1 0 1 0 1 0 1 0 1 0 1 0 1 0 
1 0 1 0 1 0 1 0 1 0 1 0 1 0 1 0 
1 0 1 0 1 0 1 0 1 0 1 0 1 0 1 0 
1 0 1 0 1 0 1 0 1 0 1 0 1 0 1 0 
1 0 1 0 1 0 1 0 1 0 1 0 1 0 1 0 
1 0 1 0 1 0 1 0 1 0 1 0 1 0 1 0 
1 0 1 0 1 0 815 3365 76 MP stroke
/c9 { 0.000000 1.000000 0.000000 sr} bdef
c9
1 0 1 0 1 0 1 0 1 0 1 0 1 0 1 0 
1 0 1 0 1 0 1 0 1 0 1 0 1 0 1 0 
1 0 1 0 1 0 1 0 1 0 1 0 1 0 1 0 
1 0 1 0 1 0 1 0 1 0 1 0 1 0 1 0 
1 0 1 0 1 0 1 0 1 0 1 0 1 0 1 0 
1 0 1 0 1 0 1 0 1 0 1 0 1 0 1 0 
1 0 1 0 1 0 1 0 1 0 1 0 1 0 1 0 
1 0 1 0 1 0 1 0 1 0 1 0 1 0 1 0 
1 0 1 0 1 0 1 0 1 0 1 0 1 0 1 0 
1 0 1 0 1 0 1 0 1 0 1 0 1 0 1 0 
1 0 1 0 1 0 1 0 1 0 1 0 1 0 1 0 
1 0 1 0 1 0 1 0 1 0 1 0 1 0 1 0 
1 0 1 0 1 0 1 0 1 0 1 0 1 0 1 0 
1 0 1 0 1 0 1 0 1 0 1 0 1 0 1 0 
1 0 1 0 1 0 1 0 1 0 1 0 1 0 1 0 
1 0 1 0 1 0 1 0 1 0 1 0 1 0 1 0 
1 0 1 0 1 0 1 0 1 0 1 0 1 0 1 0 
1 0 1 1 1 0 1 0 1 0 1 0 1 0 1 0 
1 0 1 0 1 0 1 0 1 0 1 0 1 0 1 0 
1 0 1 0 1 0 1 0 1 0 1 0 1 0 1 0 
1 0 1 0 1 0 1 0 1 0 1 0 1 0 1 0 
1 0 1 0 1 0 1 0 1 0 1 1 1 0 1 0 
1 0 1 0 1 0 1 0 1 0 1 0 1 0 1 0 
1 0 1 0 1 0 1 0 1 0 1 0 1 0 1 0 
1 0 1 0 1 0 1 1 1 0 1 0 1 0 1 0 
1 0 1 0 1 0 1 0 1 0 1 0 1 0 1 0 
1 0 1 0 1 0 1 1 1 0 1 0 1 0 1 0 
1 0 1 0 1 0 1 0 1 0 1 0 1 0 1 0 
1 1 1 0 1 0 1 0 1 0 1 0 1 0 1 0 
1 0 1 0 1 1 1 0 1 0 1 0 1 0 1 0 
1 0 1 0 1 0 1 1 1 0 1 0 1 0 1 0 
1 0 1 0 1 0 1 1 1 0 1 0 1 0 1 0 
1 0 1 0 1 1 1 0 1 0 1 0 1 0 1 0 
1 0 1 1 1 0 1 0 1 0 1 0 1 1 1 0 
1 0 1 0 1 0 1 0 1 1 1 0 1 0 1 0 
1 0 1 1 1 0 1 0 1 0 1 1 1 0 1 0 
1 0 1 0 1 1 1 0 1 0 1 0 1 1 1 0 
1 0 1 0 1 1 3326 3348 300 MP stroke
1 0 1 0 1 1 1 0 1 0 1 0 1 1 1 0 
1 0 1 1 1 0 1 0 1 1 1 0 1 0 1 1 
1 0 1 0 1 1 1 0 1 0 1 1 1 0 1 0 
1 1 1 0 1 1 1 0 1 0 1 1 1 0 1 1 
1 0 1 0 1 1 1 0 1 1 1 0 1 1 1 0 
1 1 1 0 1 1 1 0 1 0 1 1 1 1 1 0 
1 1 1 0 1 1 1 0 1 1 1 0 1 1 1 0 
1 1 1 0 1 1 1 1 1 0 1 1 1 0 1 1 
1 1 1 0 1 1 1 1 1 0 1 1 1 1 1 0 
1 1 1 1 1 1 1 0 1 1 1 1 1 0 1 1 
1 1 1 1 1 1 1 0 1 1 1 1 1 1 1 1 
1 0 1 1 1 1 1 1 1 1 1 1 1 1 1 1 
1 1 1 1 1 0 1 1 1 1 1 1 1 1 1 1 
1 1 1 1 1 1 0 1 2 2 1 1 1 1 1 1 
1 1 1 1 1 1 1 1 0 1 2 2 1 1 1 1 
1 1 0 1 2 2 1 1 1 1 0 1 2 2 1 1 
0 1 2 2 1 1 0 1 2 2 0 1 2 2 1 1 
0 1 2 2 0 1 2 2 0 1 2 2 0 1 2 2 
1 1 0 2 2 2 0 1 2 2 1 1 0 2 2 2 
0 1 2 2 0 2 2 2 0 1 2 2 0 2 2 2 
0 1 2 2 0 2 2 2 0 2 2 2 0 2 2 2 
0 2 2 2 0 2 2 2 0 2 2 2 0 2 2 2 
0 2 2 2 0 2 2 2 0 3 2 2 0 2 2 2 
0 2 1 1 0 2 2 2 0 2 1 1 0 2 2 2 
0 3 2 2 0 3 2 2 0 3 2 2 0 3 2 2 
0 3 2 2 0 2 1 1 0 3 2 2 0 2 1 1 
0 3 2 2 0 2 1 1 0 2 1 1 0 3 2 2 
0 2 1 1 0 2 1 1 0 2 1 1 0 2 1 1 
0 2 1 1 0 2 1 1 0 2 1 1 0 2 1 1 
0 2 1 1 0 2 1 1 0 2 1 1 0 2 1 1 
0 2 1 1 0 2 1 1 0 3 1 1 0 2 1 1 
0 2 1 1 0 2 1 1 0 3 1 1 0 2 1 1 
0 2 1 1 0 3 1 1 0 2 1 1 0 2 1 1 
0 3 1 1 0 2 1 1 0 3 1 1 0 2 1 1 
0 3 1 1 0 2 1 1 0 3 1 1 0 3 1 1 
0 2 1 1 0 3 1 1 0 3 1 1 0 2 1 1 
0 3 1 1 0 3 1 1 0 3 1 1 0 2 1 1 
0 3 1 1 0 3 3075 2957 300 MP stroke
1 1 0 3 1 1 0 3 1 1 0 3 1 1 0 3 
1 1 0 3 1 1 0 3 1 1 0 3 1 1 0 3 
1 1 0 3 1 1 0 4 1 1 0 3 1 1 0 3 
1 1 0 3 1 1 0 3 1 1 0 4 1 1 0 3 
1 1 0 3 1 1 0 4 1 1 0 3 1 1 0 4 
1 1 0 3 1 1 0 4 1 1 0 3 1 1 0 4 
1 1 0 3 1 1 0 4 1 1 0 3 1 1 0 4 
1 1 0 4 1 1 0 4 1 1 0 3 1 1 0 4 
1 1 0 4 1 1 0 4 1 1 0 4 1 1 0 3 
1 1 0 4 1 1 0 4 1 1 0 4 1 1 0 4 
1 1 0 4 1 1 0 4 1 1 0 4 1 1 0 5 
1 1 0 4 1 1 0 4 1 1 0 4 1 1 0 4 
1 1 0 5 1 1 0 4 1 1 0 4 1 1 0 5 
1 1 0 4 1 1 0 4 1 1 0 5 1 1 0 4 
1 1 0 5 1 1 0 4 1 1 0 5 1 1 0 4 
1 1 0 5 1 1 0 5 1 1 0 4 1 1 0 5 
1 1 0 5 1 1 0 4 1 1 0 5 1 1 0 5 
1 1 0 5 1 1 0 5 1 1 0 5 1 1 0 4 
1 1 0 5 1 1 0 5 1 1 0 5 1 1 0 5 
1 1 0 5 1 1 0 5 1 1 0 6 1 1 0 5 
1 1 0 5 1 1 0 5 1 1 0 5 1 1 0 5 
1 1 0 6 1 1 0 5 1 1 0 5 1 1 0 6 
1 1 0 5 1 1 0 5 1 1 0 6 1 1 0 5 
1 1 0 6 1 1 0 5 1 1 0 6 1 1 0 5 
1 1 0 6 1 1 0 5 1 1 0 6 1 1 0 6 
1 1 0 5 1 1 0 6 1 1 0 6 1 1 0 5 
1 1 0 6 1 1 0 6 1 1 0 6 1 1 0 6 
1 1 0 5 1 1 0 6 1 1 0 6 1 1 0 6 
1 1 0 6 1 1 0 6 1 1 0 6 1 1 0 6 
1 1 0 6 1 1 0 6 1 1 0 6 1 1 0 6 
1 1 0 6 1 1 0 6 1 1 0 7 1 1 0 6 
1 1 0 6 1 1 0 6 1 1 0 6 1 1 0 7 
1 1 0 6 1 1 0 6 1 1 0 6 1 1 0 7 
1 1 0 6 1 1 0 6 1 1 0 7 1 1 0 6 
1 1 0 7 1 1 0 6 1 1 0 6 1 1 0 7 
1 1 0 6 1 1 0 7 1 1 0 6 1 1 0 7 
1 1 0 6 1 1 0 7 1 1 0 7 1 1 0 6 
1 1 0 7 1 1 2925 2075 300 MP stroke
0 6 1 1 0 7 1 1 0 7 1 1 0 6 1 1 
0 7 1 1 0 7 1 1 0 6 1 1 0 7 1 1 
0 7 1 1 0 6 1 1 0 7 1 1 0 7 1 1 
0 7 1 1 0 6 1 1 0 7 1 1 0 7 1 1 
0 7 1 1 0 6 1 1 0 7 1 1 0 7 1 1 
0 7 1 1 0 7 1 1 0 6 1 1 0 7 1 1 
0 7 1 1 0 7 1 1 0 7 1 1 0 7 1 1 
0 6 1 1 0 7 1 1 0 7 1 1 0 7 1 1 
0 7 1 1 0 7 1 1 0 7 1 1 0 7 1 1 
0 6 1 1 0 7 1 1 0 7 1 1 0 7 1 1 
0 7 1 1 0 7 1 1 0 7 1 1 0 6 1 1 
0 7 1 1 0 7 1 1 0 7 1 1 0 7 1 1 
0 7 1 1 0 7 1 1 0 6 1 1 0 7 1 1 
0 7 1 1 0 7 1 1 0 7 1 1 0 7 1 1 
0 7 1 1 0 6 1 1 0 7 1 1 0 7 1 1 
0 7 1 1 0 6 1 1 0 7 1 1 0 7 1 1 
0 7 1 1 0 6 1 1 0 7 1 1 0 7 1 1 
0 7 1 1 0 6 1 1 0 7 1 1 0 7 1 1 
0 6 1 1 0 7 1 1 0 7 1 1 0 6 1 1 
0 7 1 1 0 6 1 1 0 7 1 1 0 7 1 1 
0 6 1 1 0 7 1 1 0 6 1 1 0 7 1 1 
0 6 1 1 0 6 1 1 0 7 1 1 0 6 1 1 
0 7 1 1 0 6 1 1 0 6 1 1 0 7 1 1 
0 6 1 1 0 6 1 1 0 7 1 1 0 6 1 1 
0 6 1 1 0 6 1 1 0 6 1 1 0 6 1 1 
0 7 1 1 0 6 1 1 0 6 1 1 0 6 1 1 
0 6 1 1 0 6 1 1 0 6 1 1 0 6 1 1 
0 5 1 1 0 6 1 1 0 6 1 1 0 6 1 1 
0 6 1 1 0 5 1 1 0 6 1 1 0 6 1 1 
0 5 1 1 0 6 1 1 0 6 1 1 0 5 1 1 
0 6 1 1 0 5 1 1 0 6 1 1 0 5 1 1 
0 5 1 1 0 6 1 1 0 5 1 1 0 5 1 1 
0 5 1 1 0 6 1 1 0 5 1 1 0 5 1 1 
0 5 1 1 0 5 1 1 0 5 1 1 0 5 1 1 
0 5 1 1 0 5 1 1 0 5 1 1 0 4 1 1 
0 5 1 1 0 5 1 1 0 4 1 1 0 5 1 1 
0 5 1 1 0 4 1 1 0 5 1 1 0 4 1 1 
0 4 1 1 0 5 2776 992 300 MP stroke
1 1 0 4 1 1 0 4 1 1 0 5 1 1 0 4 
1 1 0 4 1 1 0 4 1 1 0 4 1 1 0 4 
1 1 0 4 1 1 0 4 1 1 0 4 1 1 0 3 
1 1 0 4 1 1 0 4 1 1 0 3 1 1 0 4 
1 1 0 3 1 1 0 4 1 1 0 3 1 1 0 4 
1 1 0 3 1 1 0 3 1 1 0 4 1 1 0 3 
1 1 0 3 1 1 0 3 1 1 0 3 1 1 0 3 
1 1 0 3 1 1 0 2 1 1 0 3 1 1 0 3 
1 1 0 3 1 1 0 2 1 1 0 3 1 1 0 2 
1 1 0 3 1 1 0 2 1 1 0 2 1 1 0 3 
1 1 0 2 1 1 0 2 1 1 0 2 1 1 0 2 
1 1 0 2 1 1 0 2 1 1 0 2 1 1 0 3 
2 2 0 2 1 1 0 3 2 2 0 3 2 2 0 3 
2 2 0 2 2 2 0 3 2 2 0 2 2 2 0 1 
2 2 0 2 2 2 0 1 2 2 0 1 2 2 0 1 
2 2 1 1 1 1 1 1 1 1 1 1 1 1 1 1 
1 1 1 1 1 0 1 1 1 1 1 0 1 1 1 0 
1 0 1 0 1 1 1 0 1 0 1 0 1 0 1 0 
1 -1 1 0 1 0 1 -1 1 0 1 -1 1 0 1 -1 
1 -1 1 0 1 -1 1 -1 1 -1 1 -1 1 -1 0 -1 
2 -2 1 -1 0 -1 2 -2 0 -1 2 -2 1 -1 0 -2 
2 -2 1 -1 0 -2 2 -2 0 -2 2 -2 0 -2 2 -2 
0 -2 1 -1 0 -2 2 -2 0 -3 2 -2 0 -3 2 -2 
0 -2 1 -1 0 -3 2 -2 0 -2 1 -1 0 -2 1 -1 
0 -2 1 -1 0 -2 1 -1 0 -2 1 -1 0 -2 1 -1 
0 -2 1 -1 0 -3 1 -1 0 -2 1 -1 0 -2 1 -1 
0 -3 1 -1 0 -2 1 -1 0 -3 1 -1 0 -2 1 -1 
0 -3 1 -1 0 -3 1 -1 0 -2 1 -1 0 -3 1 -1 
0 -3 1 -1 0 -3 1 -1 0 -3 1 -1 0 -3 1 -1 
0 -3 1 -1 0 -3 1 -1 0 -3 1 -1 0 -3 1 -1 
0 -4 1 -1 0 -3 1 -1 0 -3 1 -1 0 -4 1 -1 
0 -3 1 -1 0 -4 1 -1 0 -3 1 -1 0 -4 1 -1 
0 -4 1 -1 0 -4 1 -1 0 -3 1 -1 0 -4 1 -1 
0 -4 1 -1 0 -4 1 -1 0 -4 1 -1 0 -4 1 -1 
0 -4 1 -1 0 -4 1 -1 0 -4 1 -1 0 -5 1 -1 
0 -4 1 -1 0 -4 1 -1 0 -5 1 -1 0 -4 1 -1 
0 -5 1 -1 0 -4 1 -1 0 -5 1 -1 0 -4 1 -1 
0 -5 1 -1 0 -4 2583 1036 300 MP stroke
1 -1 0 -5 1 -1 0 -5 1 -1 0 -5 1 -1 0 -5 
1 -1 0 -4 1 -1 0 -5 1 -1 0 -5 1 -1 0 -5 
1 -1 0 -5 1 -1 0 -6 1 -1 0 -5 1 -1 0 -5 
1 -1 0 -5 1 -1 0 -5 1 -1 0 -6 1 -1 0 -5 
1 -1 0 -5 1 -1 0 -6 1 -1 0 -5 1 -1 0 -5 
1 -1 0 -6 1 -1 0 -5 1 -1 0 -6 1 -1 0 -6 
1 -1 0 -5 1 -1 0 -6 1 -1 0 -6 1 -1 0 -5 
1 -1 0 -6 1 -1 0 -6 1 -1 0 -6 1 -1 0 -5 
1 -1 0 -6 1 -1 0 -6 1 -1 0 -6 1 -1 0 -6 
1 -1 0 -6 1 -1 0 -6 1 -1 0 -6 1 -1 0 -6 
1 -1 0 -6 1 -1 0 -6 1 -1 0 -7 1 -1 0 -6 
1 -1 0 -6 1 -1 0 -6 1 -1 0 -6 1 -1 0 -7 
1 -1 0 -6 1 -1 0 -6 1 -1 0 -7 1 -1 0 -6 
1 -1 0 -6 1 -1 0 -7 1 -1 0 -6 1 -1 0 -7 
1 -1 0 -6 1 -1 0 -6 1 -1 0 -7 1 -1 0 -6 
1 -1 0 -7 1 -1 0 -7 1 -1 0 -6 1 -1 0 -7 
1 -1 0 -6 1 -1 0 -7 1 -1 0 -6 1 -1 0 -7 
1 -1 0 -7 1 -1 0 -6 1 -1 0 -7 1 -1 0 -7 
1 -1 0 -6 1 -1 0 -7 1 -1 0 -7 1 -1 0 -7 
1 -1 0 -6 1 -1 0 -7 1 -1 0 -7 1 -1 0 -7 
1 -1 0 -6 1 -1 0 -7 1 -1 0 -7 1 -1 0 -7 
1 -1 0 -7 1 -1 0 -6 1 -1 0 -7 1 -1 0 -7 
1 -1 0 -7 1 -1 0 -7 1 -1 0 -7 1 -1 0 -6 
1 -1 0 -7 1 -1 0 -7 1 -1 0 -7 1 -1 0 -7 
1 -1 0 -7 1 -1 0 -7 1 -1 0 -6 1 -1 0 -7 
1 -1 0 -7 1 -1 0 -7 1 -1 0 -7 1 -1 0 -7 
1 -1 0 -7 1 -1 0 -7 1 -1 0 -6 1 -1 0 -7 
1 -1 0 -7 1 -1 0 -7 1 -1 0 -7 1 -1 0 -7 
1 -1 0 -7 1 -1 0 -7 1 -1 0 -6 1 -1 0 -7 
1 -1 0 -7 1 -1 0 -7 1 -1 0 -7 1 -1 0 -6 
1 -1 0 -7 1 -1 0 -7 1 -1 0 -7 1 -1 0 -7 
1 -1 0 -6 1 -1 0 -7 1 -1 0 -7 1 -1 0 -7 
1 -1 0 -7 1 -1 0 -6 1 -1 0 -7 1 -1 0 -7 
1 -1 0 -6 1 -1 0 -7 1 -1 0 -7 1 -1 0 -6 
1 -1 0 -7 1 -1 0 -7 1 -1 0 -6 1 -1 0 -7 
1 -1 0 -7 1 -1 0 -6 1 -1 0 -7 1 -1 0 -6 
1 -1 0 -7 1 -1 0 -7 1 -1 0 -6 1 -1 0 -7 
1 -1 0 -6 1 -1 2433 2131 300 MP stroke
0 -7 1 -1 0 -6 1 -1 0 -6 1 -1 0 -7 1 -1 
0 -6 1 -1 0 -7 1 -1 0 -6 1 -1 0 -6 1 -1 
0 -7 1 -1 0 -6 1 -1 0 -6 1 -1 0 -7 1 -1 
0 -6 1 -1 0 -6 1 -1 0 -7 1 -1 0 -6 1 -1 
0 -6 1 -1 0 -6 1 -1 0 -6 1 -1 0 -6 1 -1 
0 -7 1 -1 0 -6 1 -1 0 -6 1 -1 0 -6 1 -1 
0 -6 1 -1 0 -6 1 -1 0 -6 1 -1 0 -6 1 -1 
0 -6 1 -1 0 -6 1 -1 0 -6 1 -1 0 -5 1 -1 
0 -6 1 -1 0 -6 1 -1 0 -6 1 -1 0 -6 1 -1 
0 -6 1 -1 0 -5 1 -1 0 -6 1 -1 0 -6 1 -1 
0 -5 1 -1 0 -6 1 -1 0 -6 1 -1 0 -5 1 -1 
0 -6 1 -1 0 -5 1 -1 0 -6 1 -1 0 -5 1 -1 
0 -6 1 -1 0 -5 1 -1 0 -6 1 -1 0 -5 1 -1 
0 -6 1 -1 0 -5 1 -1 0 -5 1 -1 0 -6 1 -1 
0 -5 1 -1 0 -5 1 -1 0 -5 1 -1 0 -5 1 -1 
0 -6 1 -1 0 -5 1 -1 0 -5 1 -1 0 -5 1 -1 
0 -5 1 -1 0 -5 1 -1 0 -5 1 -1 0 -5 1 -1 
0 -5 1 -1 0 -5 1 -1 0 -5 1 -1 0 -5 1 -1 
0 -5 1 -1 0 -4 1 -1 0 -5 1 -1 0 -5 1 -1 
0 -5 1 -1 0 -4 1 -1 0 -5 1 -1 0 -5 1 -1 
0 -4 1 -1 0 -5 1 -1 0 -4 1 -1 0 -5 1 -1 
0 -4 1 -1 0 -5 1 -1 0 -4 1 -1 0 -5 1 -1 
0 -4 1 -1 0 -5 1 -1 0 -4 1 -1 0 -4 1 -1 
0 -4 1 -1 0 -5 1 -1 0 -4 1 -1 0 -4 1 -1 
0 -4 1 -1 0 -4 1 -1 0 -5 1 -1 0 -4 1 -1 
0 -4 1 -1 0 -4 1 -1 0 -4 1 -1 0 -4 1 -1 
0 -4 1 -1 0 -3 1 -1 0 -4 1 -1 0 -4 1 -1 
0 -4 1 -1 0 -4 1 -1 0 -4 1 -1 0 -3 1 -1 
0 -4 1 -1 0 -4 1 -1 0 -3 1 -1 0 -4 1 -1 
0 -4 1 -1 0 -3 1 -1 0 -4 1 -1 0 -3 1 -1 
0 -4 1 -1 0 -3 1 -1 0 -4 1 -1 0 -3 1 -1 
0 -3 1 -1 0 -4 1 -1 0 -3 1 -1 0 -3 1 -1 
0 -4 1 -1 0 -3 1 -1 0 -3 1 -1 0 -3 1 -1 
0 -3 1 -1 0 -3 1 -1 0 -3 1 -1 0 -4 1 -1 
0 -3 1 -1 0 -3 1 -1 0 -3 1 -1 0 -3 1 -1 
0 -2 1 -1 0 -3 1 -1 0 -3 1 -1 0 -3 1 -1 
0 -3 1 -1 0 -3 1 -1 0 -2 1 -1 0 -3 1 -1 
0 -3 1 -1 0 -3 2284 2987 300 MP stroke
1 -1 0 -2 1 -1 0 -3 1 -1 0 -2 1 -1 0 -3 
1 -1 0 -3 1 -1 0 -2 1 -1 0 -3 1 -1 0 -2 
1 -1 0 -3 1 -1 0 -2 1 -1 0 -2 1 -1 0 -3 
1 -1 0 -2 1 -1 0 -2 1 -1 0 -3 1 -1 0 -2 
1 -1 0 -2 1 -1 0 -2 1 -1 0 -3 1 -1 0 -2 
1 -1 0 -2 1 -1 0 -2 1 -1 0 -2 1 -1 0 -2 
1 -1 0 -2 1 -1 0 -2 1 -1 0 -2 1 -1 0 -2 
1 -1 0 -2 1 -1 0 -2 1 -1 0 -2 1 -1 0 -2 
1 -1 0 -2 1 -1 0 -3 2 -2 0 -2 1 -1 0 -2 
1 -1 0 -3 2 -2 0 -2 1 -1 0 -3 2 -2 0 -2 
1 -1 0 -3 2 -2 0 -3 2 -2 0 -3 2 -2 0 -3 
2 -2 0 -3 2 -2 0 -2 1 -1 0 -2 2 -2 0 -2 
1 -1 0 -2 2 -2 0 -2 1 -1 0 -2 2 -2 0 -2 
2 -2 0 -2 1 -1 0 -2 2 -2 0 -2 2 -2 0 -2 
2 -2 0 -2 2 -2 0 -2 2 -2 0 -2 2 -2 0 -2 
2 -2 0 -2 2 -2 1 -1 0 -2 2 -2 0 -2 2 -2 
0 -1 2 -2 0 -2 2 -2 1 -1 0 -2 2 -2 1 -1 
0 -2 2 -2 0 -1 2 -2 0 -1 2 -2 0 -1 2 -2 
0 -1 2 -2 0 -1 2 -2 0 -1 2 -2 1 -1 0 -1 
2 -2 0 -1 2 -2 1 -1 1 -1 0 -1 2 -2 1 -1 
0 -1 2 -2 1 -1 1 -1 1 -1 0 -1 2 -2 1 -1 
1 -1 1 -1 1 -1 0 -1 2 -2 1 -1 1 -1 1 -1 
1 -1 1 -1 1 -1 1 -1 1 -1 1 -1 1 -1 1 -1 
1 -1 1 -1 1 -1 1 -1 1 -1 1 -1 1 -1 1 -1 
1 0 1 -1 1 -1 1 -1 1 -1 1 -1 1 -1 1 0 
1 -1 1 -1 1 -1 1 -1 1 0 1 -1 1 -1 1 -1 
1 0 1 -1 1 -1 1 0 1 -1 1 -1 1 -1 1 0 
1 -1 1 -1 1 0 1 -1 1 0 1 -1 1 -1 1 0 
1 -1 1 -1 1 0 1 -1 1 0 1 -1 1 0 1 -1 
1 -1 1 0 1 -1 1 0 1 -1 1 0 1 -1 1 0 
1 -1 1 0 1 -1 1 0 1 -1 1 0 1 -1 1 0 
1 0 1 -1 1 0 1 -1 1 0 1 -1 1 0 1 0 
1 -1 1 0 1 -1 1 0 1 0 1 -1 1 0 1 0 
1 -1 1 0 1 -1 1 0 1 0 1 -1 1 0 1 0 
1 -1 1 0 1 0 1 0 1 -1 1 0 1 0 1 -1 
1 0 1 0 1 -1 1 0 1 0 1 0 1 -1 1 0 
1 0 1 0 1 -1 1 0 1 0 1 0 1 -1 1 0 
1 0 1 0 1 -1 2026 3352 300 MP stroke
1 0 1 0 1 0 1 0 1 -1 1 0 1 0 1 0 
1 0 1 -1 1 0 1 0 1 0 1 0 1 -1 1 0 
1 0 1 0 1 0 1 0 1 -1 1 0 1 0 1 0 
1 0 1 0 1 -1 1 0 1 0 1 0 1 0 1 0 
1 0 1 -1 1 0 1 0 1 0 1 0 1 0 1 0 
1 0 1 -1 1 0 1 0 1 0 1 0 1 0 1 0 
1 0 1 0 1 -1 1 0 1 0 1 0 1 0 1 0 
1 0 1 0 1 0 1 0 1 0 1 -1 1 0 1 0 
1 0 1 0 1 0 1 0 1 0 1 0 1 0 1 0 
1 0 1 0 1 -1 1 0 1 0 1 0 1 0 1 0 
1 0 1 0 1 0 1 0 1 0 1 0 1 0 1 0 
1 0 1 0 1 -1 1 0 1 0 1 0 1 0 1 0 
1 0 1 0 1 0 1 0 1 0 1 0 1 0 1 0 
1 0 1 0 1 0 1 0 1 0 1 0 1 0 1 0 
1 -1 1 0 1 0 1 0 1 0 1 0 1 0 1 0 
1 0 1 0 1 0 1 0 1 0 1 0 1 0 1 0 
1 0 1 0 1 0 1 0 1 0 1 0 1 0 1 0 
1 0 1 0 1 0 1 0 1 0 1 0 1 0 1 0 
1 0 1 0 1 0 1 0 1 -1 1 0 1 0 1 0 
1 0 1 0 1 0 1 0 1 0 1 0 1 0 1 0 
1 0 1 0 1 0 1 0 1 0 1 0 1 0 1 0 
1 0 1 0 1 0 1 0 1 0 1 0 1 0 1 0 
1 0 1 0 1 0 1 0 1 0 1 0 1 0 1 0 
1 0 1 0 1 0 1 0 1 0 1 0 1 0 1 0 
1 0 1 0 1 0 1 0 1 0 1 0 1 0 1 0 
1 0 1 0 1 0 1 0 1 0 1 0 1 0 1 0 
1 0 1 0 1 0 1 0 1 0 1 0 1 0 1 0 
1 0 1 0 1 0 1 0 1 0 1 0 1 0 1 0 
1 0 1 0 1 0 1 0 1 0 1 0 1 0 1 0 
1 0 1 0 1 0 1 0 1 0 1 0 1 0 1 0 
1 0 1 0 1 0 1 0 1 0 1 0 1 0 1 0 
1 0 1 0 1 0 1 0 1 0 1 0 1 0 1 0 
1 0 1 0 1 0 1 0 1 0 1 0 1 0 1 0 
1 0 1 0 1 0 1 0 1 0 1 0 1 0 1 0 
1 0 1 0 1 0 1 0 1 0 1 0 1 0 1 0 
1 0 1 0 1 0 1 0 1 0 1 0 1 0 1 0 
1 0 1 0 1 0 1 0 1 0 1 0 1 0 1 0 
1 0 1 0 1 0 1727 3365 300 MP stroke
1 0 1 0 1 0 1 0 1 0 1 0 1 0 1 0 
1 0 1 0 1 0 1 0 1 0 1 0 1 0 1 0 
1 0 1 0 1 0 1 0 1 0 1 0 1 0 1 0 
1 0 1 0 1 0 1 0 1 0 1 0 1 0 1 0 
1 0 1 0 1 0 1 0 1 0 1 0 1 0 1 0 
1 0 1 0 1 0 1 0 1 0 1 0 1 0 1 0 
1 0 1 0 1 0 1 0 1 0 1 0 1 0 1 0 
1 0 1 0 1 0 1 0 1 0 1 0 1 0 1 0 
1 0 1 0 1 0 1 0 1 0 1 0 1 0 1 0 
1 0 1 0 1 0 1 0 1 0 1 0 1 0 1 0 
1 0 1 0 1 0 1 0 1 0 1 0 1 0 1 0 
1 0 1 0 1 0 1 0 1 0 1 0 1 0 1 0 
1 0 1 0 1 0 1 0 1 0 1 0 1 0 1 0 
1 0 1 0 1 0 1 0 1 0 1 0 1 0 1 0 
1 0 1 0 1 0 1 0 1 0 1 0 1 0 1 0 
1 0 1 0 1 0 1 0 1 0 1 0 1 0 1 0 
1 0 1 0 1 0 1596 3365 132 MP stroke
/c10 { 1.000000 0.000000 0.000000 sr} bdef
c10
1 0 1 0 1 0 1 0 1 0 1 0 1 0 1 0 
1 0 1 0 1 0 1 0 1 0 1 0 1 0 1 0 
1 0 1 0 1 0 1 0 1 0 1 0 1 0 1 0 
1 0 1 0 1 0 1 0 1 0 1 0 1 0 1 0 
1 0 1 0 1 0 1 0 1 0 1 0 1 0 1 0 
1 0 1 0 1 0 1 0 1 0 1 0 1 0 1 0 
1 0 1 0 1 0 1 0 1 0 1 0 1 0 1 0 
1 0 1 0 1 0 1 0 1 0 1 0 1 0 1 0 
1 0 1 0 1 0 1 0 1 0 1 0 1 0 1 0 
1 0 1 0 1 0 1 0 1 0 1 0 1 0 1 0 
1 0 1 0 1 0 1 0 1 0 1 0 1 0 1 0 
1 0 1 0 1 0 1 0 1 0 1 0 1 0 1 0 
1 0 1 0 1 0 1 0 1 0 1 0 1 0 1 0 
1 0 1 0 1 0 1 0 1 0 1 0 1 0 1 0 
1 0 1 0 1 0 1 0 1 0 1 0 1 0 1 0 
1 0 1 0 1 0 1 0 1 0 1 0 1 0 1 0 
1 0 1 0 1 0 1 0 1 0 1 0 1 0 1 0 
1 0 1 0 1 0 1 0 1 0 1 0 1 0 1 0 
1 0 1 0 1 0 1 0 1 0 1 0 1 0 1 0 
1 0 1 0 1 0 1 0 1 0 1 0 1 0 1 0 
1 0 1 0 1 0 1 0 1 0 1 0 1 0 1 0 
1 0 1 0 1 0 1 0 1 0 1 0 1 0 1 0 
1 0 1 0 1 0 1 0 1 0 1 0 1 0 1 0 
1 0 1 0 1 0 1 0 1 0 1 0 1 0 1 0 
1 0 1 0 1 0 1 0 1 0 1 0 1 0 1 0 
1 0 1 0 1 0 1 0 1 0 1 0 1 0 1 0 
1 0 1 0 1 0 1 0 1 0 1 0 1 0 1 0 
1 0 1 0 1 0 1 0 1 0 1 0 1 0 1 0 
1 0 1 0 1 0 1 0 1 0 1 0 1 0 1 0 
1 0 1 0 1 0 1 0 1 0 1 0 1 0 1 0 
1 0 1 0 1 0 1 0 1 0 1 0 1 0 1 0 
1 0 1 0 1 0 1 0 1 0 1 0 1 0 1 0 
1 0 1 0 1 0 1 0 1 0 1 0 1 0 1 0 
1 0 1 0 1 0 1 0 1 0 1 0 1 0 1 0 
1 0 1 0 1 0 1 0 1 0 1 0 1 0 1 0 
1 0 1 0 1 0 1 0 1 0 1 0 1 0 1 0 
1 0 1 0 1 0 1 0 1 0 1 0 1 0 1 0 
1 0 1 0 1 0 3235 3365 300 MP stroke
1 0 1 0 1 0 1 0 1 0 1 0 1 0 1 0 
1 0 1 0 1 0 1 0 1 0 1 0 1 0 1 0 
1 0 1 0 1 0 1 0 1 0 1 0 1 0 1 0 
1 0 1 0 1 0 1 0 1 0 1 0 1 0 1 0 
1 0 1 0 1 0 1 0 1 0 1 0 1 0 1 0 
1 0 1 0 1 0 1 0 1 0 1 0 1 0 1 0 
1 0 1 0 1 0 1 0 1 0 1 0 1 0 1 0 
1 0 1 0 1 0 1 0 1 0 1 0 1 0 1 0 
1 0 1 0 1 0 1 0 1 0 1 0 1 0 1 0 
1 0 1 0 1 0 1 0 1 0 1 0 1 0 1 0 
1 0 1 0 1 0 1 0 1 0 1 0 1 0 1 0 
1 0 1 0 1 0 1 0 1 0 1 0 1 0 1 0 
1 0 1 0 1 0 1 0 1 0 1 0 1 0 1 0 
1 0 1 0 1 0 1 0 1 0 1 0 1 0 1 0 
1 0 1 0 1 0 1 0 1 0 1 0 1 0 1 0 
1 0 1 0 1 0 1 0 1 0 1 0 1 0 1 0 
1 0 1 0 1 0 1 0 1 0 1 0 1 0 1 0 
1 0 1 1 1 0 1 0 1 0 1 0 1 0 1 0 
1 0 1 0 1 0 1 0 1 0 1 0 1 0 1 0 
1 0 1 0 1 0 1 0 1 0 1 0 1 0 1 0 
1 0 1 0 1 0 1 0 1 0 1 0 1 0 1 0 
1 0 1 0 1 1 1 0 1 0 1 0 1 0 1 0 
1 0 1 0 1 0 1 0 1 0 1 0 1 0 1 0 
1 0 1 0 1 0 1 0 1 0 1 0 1 1 1 0 
1 0 1 0 1 0 1 0 1 0 1 0 1 0 1 0 
1 0 1 0 1 0 1 0 1 0 1 1 1 0 1 0 
1 0 1 0 1 0 1 0 1 0 1 0 1 0 1 0 
1 1 1 0 1 0 1 0 1 0 1 0 1 0 1 0 
1 0 1 0 1 1 1 0 1 0 1 0 1 0 1 0 
1 0 1 0 1 1 1 0 1 0 1 0 1 0 1 0 
1 0 1 1 1 0 1 0 1 0 1 0 1 0 1 1 
1 0 1 0 1 0 1 0 1 0 1 1 1 0 1 0 
1 0 1 0 1 1 1 0 1 0 1 0 1 0 1 1 
1 0 1 0 1 0 1 0 1 1 1 0 1 0 1 0 
1 1 1 0 1 0 1 0 1 1 1 0 1 0 1 1 
1 0 1 0 1 0 1 1 1 0 1 0 1 1 1 0 
1 0 1 1 1 0 1 0 1 1 1 0 1 0 1 1 
1 0 1 0 1 1 2936 3343 300 MP stroke
1 0 1 0 1 1 1 0 1 1 1 0 1 0 1 1 
1 0 1 1 1 0 1 1 1 0 1 1 1 0 1 1 
1 0 1 0 1 1 1 0 1 1 1 1 1 0 1 1 
1 0 1 1 1 0 1 1 1 0 1 1 1 0 1 1 
1 1 1 0 1 1 1 1 1 0 1 1 1 1 1 0 
1 1 1 1 1 0 1 1 1 1 1 0 1 1 1 1 
1 1 1 0 1 1 1 1 1 1 1 1 1 0 1 1 
1 1 1 1 1 1 1 1 1 0 1 1 1 1 1 1 
1 1 1 1 1 1 1 1 1 1 1 1 1 1 1 1 
1 1 1 1 1 1 1 1 1 1 0 1 2 2 1 1 
1 1 1 1 1 1 0 1 2 2 1 1 1 1 0 1 
2 2 1 1 1 1 0 1 2 2 1 1 0 1 2 2 
0 1 2 2 1 1 0 1 2 2 0 1 2 2 1 1 
0 2 2 2 0 1 2 2 1 1 0 2 2 2 1 1 
0 2 2 2 0 1 2 2 0 2 2 2 1 1 0 2 
2 2 0 2 2 2 0 2 2 2 0 2 2 2 1 1 
0 2 1 1 0 2 2 2 0 2 2 2 0 2 2 2 
0 2 2 2 0 3 2 2 0 2 2 2 0 2 1 1 
0 2 2 2 0 3 2 2 0 3 2 2 0 3 2 2 
0 3 2 2 0 3 2 2 0 2 1 1 0 3 2 2 
0 2 1 1 0 2 1 1 0 3 2 2 0 2 1 1 
0 2 1 1 0 2 1 1 0 2 1 1 0 2 1 1 
0 2 1 1 0 2 1 1 0 2 1 1 0 2 1 1 
0 2 1 1 0 2 1 1 0 2 1 1 0 2 1 1 
0 2 1 1 0 3 1 1 0 2 1 1 0 2 1 1 
0 3 1 1 0 2 1 1 0 2 1 1 0 3 1 1 
0 2 1 1 0 3 1 1 0 2 1 1 0 3 1 1 
0 2 1 1 0 3 1 1 0 2 1 1 0 3 1 1 
0 3 1 1 0 2 1 1 0 3 1 1 0 3 1 1 
0 3 1 1 0 3 1 1 0 3 1 1 0 2 1 1 
0 3 1 1 0 3 1 1 0 3 1 1 0 4 1 1 
0 3 1 1 0 3 1 1 0 3 1 1 0 3 1 1 
0 3 1 1 0 4 1 1 0 3 1 1 0 3 1 1 
0 4 1 1 0 3 1 1 0 3 1 1 0 4 1 1 
0 3 1 1 0 4 1 1 0 3 1 1 0 4 1 1 
0 4 1 1 0 3 1 1 0 4 1 1 0 4 1 1 
0 4 1 1 0 3 1 1 0 4 1 1 0 4 1 1 
0 4 1 1 0 4 2709 2878 300 MP stroke
1 1 0 4 1 1 0 4 1 1 0 4 1 1 0 4 
1 1 0 5 1 1 0 4 1 1 0 4 1 1 0 4 
1 1 0 5 1 1 0 4 1 1 0 4 1 1 0 5 
1 1 0 4 1 1 0 5 1 1 0 4 1 1 0 5 
1 1 0 4 1 1 0 5 1 1 0 5 1 1 0 4 
1 1 0 5 1 1 0 5 1 1 0 5 1 1 0 5 
1 1 0 5 1 1 0 4 1 1 0 5 1 1 0 5 
1 1 0 6 1 1 0 5 1 1 0 5 1 1 0 5 
1 1 0 5 1 1 0 5 1 1 0 6 1 1 0 5 
1 1 0 5 1 1 0 6 1 1 0 5 1 1 0 6 
1 1 0 5 1 1 0 6 1 1 0 5 1 1 0 6 
1 1 0 6 1 1 0 5 1 1 0 6 1 1 0 6 
1 1 0 6 1 1 0 5 1 1 0 6 1 1 0 6 
1 1 0 6 1 1 0 6 1 1 0 6 1 1 0 6 
1 1 0 6 1 1 0 7 1 1 0 6 1 1 0 6 
1 1 0 6 1 1 0 6 1 1 0 7 1 1 0 6 
1 1 0 7 1 1 0 6 1 1 0 6 1 1 0 7 
1 1 0 6 1 1 0 7 1 1 0 7 1 1 0 6 
1 1 0 7 1 1 0 7 1 1 0 6 1 1 0 7 
1 1 0 7 1 1 0 7 1 1 0 7 1 1 0 7 
1 1 0 6 1 1 0 7 1 1 0 7 1 1 0 8 
1 1 0 7 1 1 0 7 1 1 0 7 1 1 0 7 
1 1 0 7 1 1 0 7 1 1 0 8 1 1 0 7 
1 1 0 7 1 1 0 8 1 1 0 7 1 1 0 7 
1 1 0 8 1 1 0 7 1 1 0 8 1 1 0 7 
1 1 0 8 1 1 0 7 1 1 0 8 1 1 0 8 
1 1 0 7 1 1 0 8 1 1 0 8 1 1 0 7 
1 1 0 8 1 1 0 8 1 1 0 8 1 1 0 8 
1 1 0 7 1 1 0 8 1 1 0 8 1 1 0 8 
1 1 0 8 1 1 0 8 1 1 0 8 1 1 0 8 
1 1 0 8 1 1 0 8 1 1 0 8 1 1 0 8 
1 1 0 8 1 1 0 8 1 1 0 9 1 1 0 8 
1 1 0 8 1 1 0 8 1 1 0 8 1 1 0 9 
1 1 0 8 1 1 0 8 1 1 0 8 1 1 0 9 
1 1 0 8 1 1 0 8 1 1 0 9 1 1 0 8 
1 1 0 8 1 1 0 9 1 1 0 8 1 1 0 8 
1 1 0 9 1 1 0 8 1 1 0 9 1 1 0 8 
1 1 0 9 1 1 2559 1749 300 MP stroke
0 8 1 1 0 8 1 1 0 9 1 1 0 8 1 1 
0 9 1 1 0 8 1 1 0 9 1 1 0 8 1 1 
0 9 1 1 0 8 1 1 0 9 1 1 0 8 1 1 
0 9 1 1 0 8 1 1 0 9 1 1 0 8 1 1 
0 9 1 1 0 8 1 1 0 9 1 1 0 8 1 1 
0 9 1 1 0 8 1 1 0 9 1 1 0 8 1 1 
0 9 1 1 0 8 1 1 0 9 1 1 0 8 1 1 
0 9 1 1 0 8 1 1 0 8 1 1 0 9 1 1 
0 8 1 1 0 9 1 1 0 8 1 1 0 8 1 1 
0 9 1 1 0 8 1 1 0 8 1 1 0 9 1 1 
0 8 1 1 0 8 1 1 0 9 1 1 0 8 1 1 
0 8 1 1 0 8 1 1 0 9 1 1 0 8 1 1 
0 8 1 1 0 8 1 1 0 8 1 1 0 8 1 1 
0 8 1 1 0 8 1 1 0 8 1 1 0 8 1 1 
0 8 1 1 0 8 1 1 0 8 1 1 0 8 1 1 
0 8 1 1 0 8 1 1 0 8 1 1 0 8 1 1 
0 7 1 1 0 8 1 1 0 8 1 1 0 7 1 1 
0 8 1 1 0 8 1 1 0 7 1 1 0 8 1 1 
0 7 1 1 0 8 1 1 0 7 1 1 0 7 1 1 
0 8 1 1 0 7 1 1 0 7 1 1 0 8 1 1 
0 7 1 1 0 7 1 1 0 7 1 1 0 7 1 1 
0 7 1 1 0 7 1 1 0 7 1 1 0 7 1 1 
0 7 1 1 0 7 1 1 0 6 1 1 0 7 1 1 
0 7 1 1 0 6 1 1 0 7 1 1 0 6 1 1 
0 7 1 1 0 6 1 1 0 7 1 1 0 6 1 1 
0 6 1 1 0 6 1 1 0 7 1 1 0 6 1 1 
0 6 1 1 0 6 1 1 0 6 1 1 0 6 1 1 
0 5 1 1 0 6 1 1 0 6 1 1 0 5 1 1 
0 6 1 1 0 6 1 1 0 5 1 1 0 5 1 1 
0 6 1 1 0 5 1 1 0 5 1 1 0 6 1 1 
0 5 1 1 0 5 1 1 0 5 1 1 0 5 1 1 
0 4 1 1 0 5 1 1 0 5 1 1 0 5 1 1 
0 4 1 1 0 5 1 1 0 4 1 1 0 4 1 1 
0 5 1 1 0 4 1 1 0 4 1 1 0 4 1 1 
0 4 1 1 0 4 1 1 0 4 1 1 0 4 1 1 
0 4 1 1 0 3 1 1 0 4 1 1 0 3 1 1 
0 4 1 1 0 3 1 1 0 4 1 1 0 3 1 1 
0 3 1 1 0 3 2410 575 300 MP stroke
1 1 0 3 1 1 0 3 1 1 0 3 1 1 0 2 
1 1 0 3 1 1 0 3 1 1 0 2 1 1 0 3 
1 1 0 2 1 1 0 2 1 1 0 3 1 1 0 2 
1 1 0 2 1 1 0 2 1 1 0 2 1 1 0 3 
2 2 0 3 2 2 0 3 2 2 0 3 2 2 0 2 
2 2 0 2 2 2 0 2 2 2 0 1 2 2 0 1 
2 2 1 1 0 1 2 2 1 1 1 1 1 1 1 0 
1 1 1 1 1 0 1 1 1 0 1 1 1 0 1 0 
1 0 1 0 1 0 1 0 1 -1 1 0 1 0 1 -1 
1 0 1 -1 1 -1 1 -1 1 -1 1 -1 1 -1 1 -1 
0 -1 2 -2 0 -1 2 -2 1 -1 0 -2 2 -2 0 -2 
2 -2 0 -2 2 -2 0 -2 2 -2 0 -3 2 -2 0 -3 
2 -2 0 -2 1 -1 0 -2 1 -1 0 -2 1 -1 0 -2 
1 -1 0 -2 1 -1 0 -2 1 -1 0 -2 1 -1 0 -2 
1 -1 0 -2 1 -1 0 -3 1 -1 0 -2 1 -1 0 -3 
1 -1 0 -3 1 -1 0 -2 1 -1 0 -3 1 -1 0 -3 
1 -1 0 -3 1 -1 0 -3 1 -1 0 -3 1 -1 0 -3 
1 -1 0 -4 1 -1 0 -3 1 -1 0 -3 1 -1 0 -4 
1 -1 0 -3 1 -1 0 -4 1 -1 0 -4 1 -1 0 -3 
1 -1 0 -4 1 -1 0 -4 1 -1 0 -4 1 -1 0 -4 
1 -1 0 -4 1 -1 0 -5 1 -1 0 -4 1 -1 0 -4 
1 -1 0 -5 1 -1 0 -4 1 -1 0 -5 1 -1 0 -4 
1 -1 0 -5 1 -1 0 -5 1 -1 0 -4 1 -1 0 -5 
1 -1 0 -5 1 -1 0 -5 1 -1 0 -5 1 -1 0 -5 
1 -1 0 -6 1 -1 0 -5 1 -1 0 -5 1 -1 0 -6 
1 -1 0 -5 1 -1 0 -5 1 -1 0 -6 1 -1 0 -6 
1 -1 0 -5 1 -1 0 -6 1 -1 0 -6 1 -1 0 -6 
1 -1 0 -6 1 -1 0 -6 1 -1 0 -6 1 -1 0 -6 
1 -1 0 -6 1 -1 0 -6 1 -1 0 -6 1 -1 0 -6 
1 -1 0 -7 1 -1 0 -6 1 -1 0 -7 1 -1 0 -6 
1 -1 0 -7 1 -1 0 -6 1 -1 0 -7 1 -1 0 -7 
1 -1 0 -6 1 -1 0 -7 1 -1 0 -7 1 -1 0 -7 
1 -1 0 -7 1 -1 0 -7 1 -1 0 -7 1 -1 0 -7 
1 -1 0 -7 1 -1 0 -7 1 -1 0 -7 1 -1 0 -7 
1 -1 0 -8 1 -1 0 -7 1 -1 0 -7 1 -1 0 -8 
1 -1 0 -7 1 -1 0 -7 1 -1 0 -8 1 -1 0 -7 
1 -1 0 -8 1 -1 0 -8 1 -1 0 -7 1 -1 0 -8 
1 -1 0 -7 1 -1 2227 1131 300 MP stroke
0 -8 1 -1 0 -8 1 -1 0 -8 1 -1 0 -7 1 -1 
0 -8 1 -1 0 -8 1 -1 0 -8 1 -1 0 -8 1 -1 
0 -8 1 -1 0 -8 1 -1 0 -8 1 -1 0 -8 1 -1 
0 -8 1 -1 0 -8 1 -1 0 -8 1 -1 0 -8 1 -1 
0 -8 1 -1 0 -9 1 -1 0 -8 1 -1 0 -8 1 -1 
0 -8 1 -1 0 -8 1 -1 0 -9 1 -1 0 -8 1 -1 
0 -8 1 -1 0 -8 1 -1 0 -9 1 -1 0 -8 1 -1 
0 -8 1 -1 0 -9 1 -1 0 -8 1 -1 0 -8 1 -1 
0 -9 1 -1 0 -8 1 -1 0 -9 1 -1 0 -8 1 -1 
0 -9 1 -1 0 -8 1 -1 0 -8 1 -1 0 -9 1 -1 
0 -8 1 -1 0 -9 1 -1 0 -8 1 -1 0 -9 1 -1 
0 -8 1 -1 0 -9 1 -1 0 -8 1 -1 0 -9 1 -1 
0 -8 1 -1 0 -9 1 -1 0 -8 1 -1 0 -9 1 -1 
0 -8 1 -1 0 -9 1 -1 0 -8 1 -1 0 -9 1 -1 
0 -8 1 -1 0 -9 1 -1 0 -8 1 -1 0 -9 1 -1 
0 -8 1 -1 0 -9 1 -1 0 -8 1 -1 0 -9 1 -1 
0 -8 1 -1 0 -8 1 -1 0 -9 1 -1 0 -8 1 -1 
0 -9 1 -1 0 -8 1 -1 0 -9 1 -1 0 -8 1 -1 
0 -8 1 -1 0 -9 1 -1 0 -8 1 -1 0 -9 1 -1 
0 -8 1 -1 0 -8 1 -1 0 -8 1 -1 0 -9 1 -1 
0 -8 1 -1 0 -8 1 -1 0 -9 1 -1 0 -8 1 -1 
0 -8 1 -1 0 -8 1 -1 0 -8 1 -1 0 -9 1 -1 
0 -8 1 -1 0 -8 1 -1 0 -8 1 -1 0 -8 1 -1 
0 -8 1 -1 0 -8 1 -1 0 -8 1 -1 0 -8 1 -1 
0 -8 1 -1 0 -8 1 -1 0 -8 1 -1 0 -8 1 -1 
0 -8 1 -1 0 -8 1 -1 0 -8 1 -1 0 -8 1 -1 
0 -8 1 -1 0 -7 1 -1 0 -8 1 -1 0 -8 1 -1 
0 -8 1 -1 0 -7 1 -1 0 -8 1 -1 0 -8 1 -1 
0 -7 1 -1 0 -8 1 -1 0 -7 1 -1 0 -8 1 -1 
0 -7 1 -1 0 -8 1 -1 0 -7 1 -1 0 -8 1 -1 
0 -7 1 -1 0 -7 1 -1 0 -8 1 -1 0 -7 1 -1 
0 -7 1 -1 0 -8 1 -1 0 -7 1 -1 0 -7 1 -1 
0 -7 1 -1 0 -7 1 -1 0 -7 1 -1 0 -7 1 -1 
0 -7 1 -1 0 -7 1 -1 0 -7 1 -1 0 -7 1 -1 
0 -7 1 -1 0 -7 1 -1 0 -7 1 -1 0 -7 1 -1 
0 -6 1 -1 0 -7 1 -1 0 -7 1 -1 0 -6 1 -1 
0 -7 1 -1 0 -7 1 -1 0 -6 1 -1 0 -7 1 -1 
0 -6 1 -1 0 -7 2078 2469 300 MP stroke
1 -1 0 -6 1 -1 0 -6 1 -1 0 -7 1 -1 0 -6 
1 -1 0 -6 1 -1 0 -7 1 -1 0 -6 1 -1 0 -6 
1 -1 0 -6 1 -1 0 -6 1 -1 0 -6 1 -1 0 -6 
1 -1 0 -6 1 -1 0 -6 1 -1 0 -6 1 -1 0 -6 
1 -1 0 -6 1 -1 0 -5 1 -1 0 -6 1 -1 0 -6 
1 -1 0 -6 1 -1 0 -5 1 -1 0 -6 1 -1 0 -5 
1 -1 0 -6 1 -1 0 -5 1 -1 0 -6 1 -1 0 -5 
1 -1 0 -6 1 -1 0 -5 1 -1 0 -5 1 -1 0 -6 
1 -1 0 -5 1 -1 0 -5 1 -1 0 -5 1 -1 0 -5 
1 -1 0 -5 1 -1 0 -5 1 -1 0 -5 1 -1 0 -5 
1 -1 0 -5 1 -1 0 -5 1 -1 0 -5 1 -1 0 -5 
1 -1 0 -5 1 -1 0 -4 1 -1 0 -5 1 -1 0 -5 
1 -1 0 -4 1 -1 0 -5 1 -1 0 -4 1 -1 0 -5 
1 -1 0 -4 1 -1 0 -5 1 -1 0 -4 1 -1 0 -5 
1 -1 0 -4 1 -1 0 -4 1 -1 0 -5 1 -1 0 -4 
1 -1 0 -4 1 -1 0 -4 1 -1 0 -4 1 -1 0 -4 
1 -1 0 -4 1 -1 0 -4 1 -1 0 -4 1 -1 0 -4 
1 -1 0 -4 1 -1 0 -4 1 -1 0 -4 1 -1 0 -3 
1 -1 0 -4 1 -1 0 -4 1 -1 0 -4 1 -1 0 -3 
1 -1 0 -4 1 -1 0 -3 1 -1 0 -4 1 -1 0 -3 
1 -1 0 -4 1 -1 0 -3 1 -1 0 -4 1 -1 0 -3 
1 -1 0 -3 1 -1 0 -3 1 -1 0 -4 1 -1 0 -3 
1 -1 0 -3 1 -1 0 -3 1 -1 0 -3 1 -1 0 -3 
1 -1 0 -3 1 -1 0 -3 1 -1 0 -3 1 -1 0 -3 
1 -1 0 -3 1 -1 0 -3 1 -1 0 -3 1 -1 0 -3 
1 -1 0 -3 1 -1 0 -2 1 -1 0 -3 1 -1 0 -3 
1 -1 0 -2 1 -1 0 -3 1 -1 0 -3 1 -1 0 -2 
1 -1 0 -3 1 -1 0 -2 1 -1 0 -3 1 -1 0 -2 
1 -1 0 -2 1 -1 0 -3 1 -1 0 -2 1 -1 0 -2 
1 -1 0 -3 1 -1 0 -2 1 -1 0 -2 1 -1 0 -2 
1 -1 0 -2 1 -1 0 -3 1 -1 0 -2 1 -1 0 -2 
1 -1 0 -2 1 -1 0 -2 1 -1 0 -2 1 -1 0 -2 
1 -1 0 -2 1 -1 0 -2 1 -1 0 -1 1 -1 0 -2 
1 -1 0 -2 1 -1 0 -2 1 -1 0 -3 2 -2 0 -2 
1 -1 0 -3 2 -2 0 -2 1 -1 0 -3 2 -2 0 -3 
2 -2 0 -3 2 -2 0 -2 1 -1 0 -2 2 -2 0 -2 
1 -1 0 -2 2 -2 0 -3 2 -2 0 -2 2 -2 0 -3 
2 -2 0 -2 2 -2 1917 3202 300 MP stroke
0 -2 2 -2 0 -2 2 -2 0 -2 2 -2 0 -2 2 -2 
0 -2 2 -2 0 -2 2 -2 0 -2 2 -2 1 -1 0 -2 
2 -2 0 -2 2 -2 1 -1 0 -2 2 -2 0 -1 2 -2 
1 -1 0 -2 2 -2 0 -1 2 -2 0 -1 2 -2 0 -1 
2 -2 0 -1 2 -2 1 -1 0 -1 2 -2 0 -1 2 -2 
1 -1 0 -1 2 -2 1 -1 1 -1 0 -1 2 -2 1 -1 
1 -1 1 -1 0 -1 2 -2 1 -1 1 -1 1 -1 1 -1 
1 -1 1 -1 1 -1 1 -1 1 -1 1 -1 1 -1 1 -1 
1 -1 1 -1 1 -1 1 -1 1 -1 1 -1 1 -1 1 -1 
1 -1 1 -1 1 -1 1 -1 1 0 1 -1 1 -1 1 -1 
1 -1 1 0 1 -1 1 -1 1 -1 1 -1 1 0 1 -1 
1 -1 1 0 1 -1 1 -1 1 0 1 -1 1 -1 1 0 
1 -1 1 -1 1 0 1 -1 1 -1 1 0 1 -1 1 0 
1 -1 1 -1 1 0 1 -1 1 0 1 -1 1 0 1 -1 
1 0 1 -1 1 0 1 -1 1 0 1 -1 1 0 1 -1 
1 0 1 -1 1 0 1 0 1 -1 1 0 1 -1 1 0 
1 -1 1 0 1 0 1 -1 1 0 1 0 1 -1 1 0 
1 -1 1 0 1 0 1 -1 1 0 1 0 1 -1 1 0 
1 0 1 -1 1 0 1 0 1 0 1 -1 1 0 1 0 
1 -1 1 0 1 0 1 0 1 -1 1 0 1 0 1 0 
1 -1 1 0 1 0 1 0 1 -1 1 0 1 0 1 0 
1 -1 1 0 1 0 1 0 1 0 1 -1 1 0 1 0 
1 0 1 0 1 -1 1 0 1 0 1 0 1 0 1 0 
1 -1 1 0 1 0 1 0 1 0 1 0 1 0 1 -1 
1 0 1 0 1 0 1 0 1 0 1 0 1 -1 1 0 
1 0 1 0 1 0 1 0 1 0 1 0 1 -1 1 0 
1 0 1 0 1 0 1 0 1 0 1 0 1 0 1 -1 
1 0 1 0 1 0 1 0 1 0 1 0 1 0 1 0 
1 0 1 0 1 0 1 -1 1 0 1 0 1687 3362 231 MP stroke
gr

c10
0 sg
2221 3654 mt 
(Decision value) s
 373 2598 mt  -90 rotate
(Relative number of examples) s
90 rotate
1127  189 mt 
(Universum horizontal classifier Bhattacharyya distances) s
 639 3409 mt 
( ) s
4550  326 mt 
( ) s
1 sg
0 480 977 0 0 -480 3530 824 4 MP
PP
-977 0 0 480 977 0 0 -480 3530 824 5 MP stroke
4 w
DO
SO
6 w
0 sg
3530  344 mt 4507  344 L
3530  824 mt 4507  824 L
4507  824 mt 4507  344 L
3530  824 mt 3530  344 L
3530  824 mt 4507  824 L
3530  824 mt 3530  344 L
3530  344 mt 4507  344 L
3530  824 mt 4507  824 L
4507  824 mt 4507  344 L
3530  824 mt 3530  344 L
4005  479 mt 
(Positive) s
gs 3530 344 978 481 rc
c8
365 0 3603 436 2 MP stroke
gr

c8
0 sg
4005  627 mt 
(Null) s
gs 3530 344 978 481 rc
c9
365 0 3603 584 2 MP stroke
gr

c9
0 sg
4005  775 mt 
(Negative) s
gs 3530 344 978 481 rc
c10
365 0 3603 731 2 MP stroke
gr

c10

end %%Color Dict

eplot
%%EndObject

epage
end

showpage

%%Trailer
%%EOF
