%!PS-Adobe-3.0 EPSF-3.0
%%Creator: MATLAB, The MathWorks, Inc. Version 8.1.0.604 (R2013a). Operating System: Microsoft Windows 7.
%%Title: C:\Users\Jules\Desktop\codereport\bdistMKHor.eps
%%CreationDate: 01/25/2015  20:49:19
%%DocumentNeededFonts: Helvetica
%%DocumentProcessColors: Cyan Magenta Yellow Black
%%LanguageLevel: 2
%%Pages: 1
%%BoundingBox:   107   256   504   534
%%EndComments

%%BeginProlog
% MathWorks dictionary
/MathWorks 160 dict begin
% definition operators
/bdef {bind def} bind def
/ldef {load def} bind def
/xdef {exch def} bdef
/xstore {exch store} bdef
% operator abbreviations
/c  /clip ldef
/cc /concat ldef
/cp /closepath ldef
/gr /grestore ldef
/gs /gsave ldef
/mt /moveto ldef
/np /newpath ldef
/cm /currentmatrix ldef
/sm /setmatrix ldef
/rm /rmoveto ldef
/rl /rlineto ldef
/s {show newpath} bdef
/sc {setcmykcolor} bdef
/sr /setrgbcolor ldef
/sg /setgray ldef
/w /setlinewidth ldef
/j /setlinejoin ldef
/cap /setlinecap ldef
/rc {rectclip} bdef
/rf {rectfill} bdef
% page state control
/pgsv () def
/bpage {/pgsv save def} bdef
/epage {pgsv restore} bdef
/bplot /gsave ldef
/eplot {stroke grestore} bdef
% orientation switch
/portraitMode 0 def /landscapeMode 1 def /rotateMode 2 def
% coordinate system mappings
/dpi2point 0 def
% font control
/FontSize 0 def
/FMS {/FontSize xstore findfont [FontSize 0 0 FontSize neg 0 0]
  makefont setfont} bdef
/ISOLatin1Encoding where {pop /WindowsLatin1Encoding 256 array bdef
ISOLatin1Encoding WindowsLatin1Encoding copy pop
/.notdef/.notdef/quotesinglbase/florin/quotedblbase/ellipsis/dagger
/daggerdbl/circumflex/perthousand/Scaron/guilsinglleft/OE/.notdef/.notdef
/.notdef/.notdef/quoteleft/quoteright/quotedblleft/quotedblright/bullet
/endash/emdash/tilde/trademark/scaron/guilsinglright/oe/.notdef/.notdef
/Ydieresis WindowsLatin1Encoding 128 32 getinterval astore pop}
{/WindowsLatin1Encoding StandardEncoding bdef} ifelse
/reencode {exch dup where {pop load} {pop StandardEncoding} ifelse
  exch dup 3 1 roll findfont dup length dict begin
  { 1 index /FID ne {def}{pop pop} ifelse } forall
  /Encoding exch def currentdict end definefont pop} bdef
/isroman {findfont /CharStrings get /Agrave known} bdef
/FMSR {3 1 roll 1 index dup isroman {reencode} {pop pop} ifelse
  exch FMS} bdef
/csm {1 dpi2point div -1 dpi2point div scale neg translate
 dup landscapeMode eq {pop -90 rotate}
  {rotateMode eq {90 rotate} if} ifelse} bdef
% line types: solid, dotted, dashed, dotdash
/SO { [] 0 setdash } bdef
/DO { [.5 dpi2point mul 4 dpi2point mul] 0 setdash } bdef
/DA { [6 dpi2point mul] 0 setdash } bdef
/DD { [.5 dpi2point mul 4 dpi2point mul 6 dpi2point mul 4
  dpi2point mul] 0 setdash } bdef
% macros for lines and objects
/L {lineto stroke} bdef
/MP {3 1 roll moveto 1 sub {rlineto} repeat} bdef
/AP {{rlineto} repeat} bdef
/PDlw -1 def
/W {/PDlw currentlinewidth def setlinewidth} def
/PP {closepath eofill} bdef
/DP {closepath stroke} bdef
/MR {4 -2 roll moveto dup  0 exch rlineto exch 0 rlineto
  neg 0 exch rlineto closepath} bdef
/FR {MR stroke} bdef
/PR {MR fill} bdef
/L1i {{currentfile picstr readhexstring pop} image} bdef
/tMatrix matrix def
/MakeOval {newpath tMatrix currentmatrix pop translate scale
0 0 1 0 360 arc tMatrix setmatrix} bdef
/FO {MakeOval stroke} bdef
/PO {MakeOval fill} bdef
/PD {currentlinewidth 2 div 0 360 arc fill
   PDlw -1 eq not {PDlw w /PDlw -1 def} if} def
/FA {newpath tMatrix currentmatrix pop translate scale
  0 0 1 5 -2 roll arc tMatrix setmatrix stroke} bdef
/PA {newpath tMatrix currentmatrix pop	translate 0 0 moveto scale
  0 0 1 5 -2 roll arc closepath tMatrix setmatrix fill} bdef
/FAn {newpath tMatrix currentmatrix pop translate scale
  0 0 1 5 -2 roll arcn tMatrix setmatrix stroke} bdef
/PAn {newpath tMatrix currentmatrix pop translate 0 0 moveto scale
  0 0 1 5 -2 roll arcn closepath tMatrix setmatrix fill} bdef
/vradius 0 def /hradius 0 def /lry 0 def
/lrx 0 def /uly 0 def /ulx 0 def /rad 0 def
/MRR {/vradius xdef /hradius xdef /lry xdef /lrx xdef /uly xdef
  /ulx xdef newpath tMatrix currentmatrix pop ulx hradius add uly
  vradius add translate hradius vradius scale 0 0 1 180 270 arc 
  tMatrix setmatrix lrx hradius sub uly vradius add translate
  hradius vradius scale 0 0 1 270 360 arc tMatrix setmatrix
  lrx hradius sub lry vradius sub translate hradius vradius scale
  0 0 1 0 90 arc tMatrix setmatrix ulx hradius add lry vradius sub
  translate hradius vradius scale 0 0 1 90 180 arc tMatrix setmatrix
  closepath} bdef
/FRR {MRR stroke } bdef
/PRR {MRR fill } bdef
/MlrRR {/lry xdef /lrx xdef /uly xdef /ulx xdef /rad lry uly sub 2 div def
  newpath tMatrix currentmatrix pop ulx rad add uly rad add translate
  rad rad scale 0 0 1 90 270 arc tMatrix setmatrix lrx rad sub lry rad
  sub translate rad rad scale 0 0 1 270 90 arc tMatrix setmatrix
  closepath} bdef
/FlrRR {MlrRR stroke } bdef
/PlrRR {MlrRR fill } bdef
/MtbRR {/lry xdef /lrx xdef /uly xdef /ulx xdef /rad lrx ulx sub 2 div def
  newpath tMatrix currentmatrix pop ulx rad add uly rad add translate
  rad rad scale 0 0 1 180 360 arc tMatrix setmatrix lrx rad sub lry rad
  sub translate rad rad scale 0 0 1 0 180 arc tMatrix setmatrix
  closepath} bdef
/FtbRR {MtbRR stroke } bdef
/PtbRR {MtbRR fill } bdef
/stri 6 array def /dtri 6 array def
/smat 6 array def /dmat 6 array def
/tmat1 6 array def /tmat2 6 array def /dif 3 array def
/asub {/ind2 exch def /ind1 exch def dup dup
  ind1 get exch ind2 get sub exch } bdef
/tri_to_matrix {
  2 0 asub 3 1 asub 4 0 asub 5 1 asub
  dup 0 get exch 1 get 7 -1 roll astore } bdef
/compute_transform {
  dmat dtri tri_to_matrix tmat1 invertmatrix 
  smat stri tri_to_matrix tmat2 concatmatrix } bdef
/ds {stri astore pop} bdef
/dt {dtri astore pop} bdef
/db {2 copy /cols xdef /rows xdef mul dup 3 mul string
  currentfile 
  3 index 0 eq {/ASCIIHexDecode filter}
  {/ASCII85Decode filter 3 index 2 eq {/RunLengthDecode filter} if }
  ifelse exch readstring pop
  dup 0 3 index getinterval /rbmap xdef
  dup 2 index dup getinterval /gbmap xdef
  1 index dup 2 mul exch getinterval /bbmap xdef pop pop}bdef
/it {gs np dtri aload pop moveto lineto lineto cp c
  cols rows 8 compute_transform 
  rbmap gbmap bbmap true 3 colorimage gr}bdef
/il {newpath moveto lineto stroke}bdef
currentdict end def
%%EndProlog

%%BeginSetup
MathWorks begin

0 cap

end
%%EndSetup

%%Page: 1 1
%%BeginPageSetup
%%PageBoundingBox:   107   256   504   534
MathWorks begin
bpage
%%EndPageSetup

%%BeginObject: obj1
bplot

/dpi2point 12 def
portraitMode 1284 6408 csm

    0     0  4769  3330 rc
86 dict begin %Colortable dictionary
/c0 { 0.000000 0.000000 0.000000 sr} bdef
/c1 { 1.000000 1.000000 1.000000 sr} bdef
/c2 { 0.900000 0.000000 0.000000 sr} bdef
/c3 { 0.000000 0.820000 0.000000 sr} bdef
/c4 { 0.000000 0.000000 0.800000 sr} bdef
/c5 { 0.910000 0.820000 0.320000 sr} bdef
/c6 { 1.000000 0.260000 0.820000 sr} bdef
/c7 { 0.000000 0.820000 0.820000 sr} bdef
c0
1 j
1 sg
   0    0 4770 3331 rf
6 w
0 2714 3696 0 0 -2714 620 2964 4 MP
PP
-3696 0 0 2714 3696 0 0 -2714 620 2964 5 MP stroke
4 w
DO
SO
6 w
0 sg
 620  250 mt 4316  250 L
 620 2964 mt 4316 2964 L
4316 2964 mt 4316  250 L
 620 2964 mt  620  250 L
 620 2964 mt 4316 2964 L
 620 2964 mt  620  250 L
 620 2964 mt  620 2927 L
 620  250 mt  620  286 L
%%IncludeResource: font Helvetica
/Helvetica /WindowsLatin1Encoding 120 FMSR

 517 3109 mt 
(-5) s
2468 2964 mt 2468 2927 L
2468  250 mt 2468  286 L
2435 3109 mt 
(0) s
4316 2964 mt 4316 2927 L
4316  250 mt 4316  286 L
4283 3109 mt 
(5) s
 620 2964 mt  656 2964 L
4316 2964 mt 4279 2964 L
 519 3008 mt 
(0) s
 620 2576 mt  656 2576 L
4316 2576 mt 4279 2576 L
 419 2620 mt 
(0.1) s
 620 2188 mt  656 2188 L
4316 2188 mt 4279 2188 L
 419 2232 mt 
(0.2) s
 620 1800 mt  656 1800 L
4316 1800 mt 4279 1800 L
 419 1844 mt 
(0.3) s
 620 1413 mt  656 1413 L
4316 1413 mt 4279 1413 L
 419 1457 mt 
(0.4) s
 620 1025 mt  656 1025 L
4316 1025 mt 4279 1025 L
 419 1069 mt 
(0.5) s
 620  637 mt  656  637 L
4316  637 mt 4279  637 L
 419  681 mt 
(0.6) s
 620  250 mt  656  250 L
4316  250 mt 4279  250 L
 419  294 mt 
(0.7) s
 620  250 mt 4316  250 L
 620 2964 mt 4316 2964 L
4316 2964 mt 4316  250 L
 620 2964 mt  620  250 L
gs 620 250 3697 2715 rc
/c8 { 0.000000 0.000000 1.000000 sr} bdef
c8
1 0 1 0 1 0 1 0 1 0 1 0 1 0 1 0 
1 0 1 0 1 0 1 0 1 0 1 0 1 0 1 0 
1 0 1 0 1 0 1 0 1 0 1 0 1 0 1 0 
1 0 1 0 1 0 1 0 1 0 1 0 1 0 1 0 
1 0 1 0 1 0 1 0 1 0 1 0 1 0 1 0 
1 0 1 0 1 0 1 0 1 0 1 0 1 0 1 0 
1 0 1 0 1 0 1 0 1 0 1 0 1 0 1 0 
1 0 1 0 1 0 1 0 1 0 1 0 1 0 1 0 
1 0 1 0 1 0 1 0 1 0 1 0 1 0 1 0 
1 0 1 0 1 0 1 0 1 0 1 0 1 0 1 0 
1 0 1 0 1 0 1 0 1 0 1 0 1 0 1 0 
1 0 1 0 1 0 1 0 1 0 1 0 1 0 1 0 
1 0 1 0 1 0 1 0 1 0 1 0 1 0 1 0 
1 0 1 0 1 0 1 0 1 0 1 0 1 0 1 0 
1 0 1 0 1 0 1 0 1 0 1 0 1 0 1 0 
1 0 1 0 1 0 1 0 1 0 1 0 1 0 1 0 
1 0 1 0 1 0 1 0 1 1 1 0 1 0 1 0 
1 0 1 0 1 0 1 0 1 0 1 0 1 0 1 0 
1 0 1 0 1 0 1 0 1 0 1 0 1 0 1 0 
1 0 1 0 1 0 1 0 1 0 1 0 1 0 1 0 
1 0 1 0 1 0 1 0 1 0 1 0 1 0 1 0 
1 0 1 0 1 0 1 1 1 0 1 0 1 0 1 0 
1 0 1 0 1 0 1 0 1 0 1 0 1 0 1 0 
1 0 1 0 1 0 1 0 1 0 1 0 1 0 1 0 
1 0 1 0 1 0 1 0 1 1 1 0 1 0 1 0 
1 0 1 0 1 0 1 0 1 0 1 0 1 0 1 0 
1 0 1 0 1 0 1 0 1 0 1 1 1 0 1 0 
1 0 1 0 1 0 1 0 1 0 1 0 1 0 1 0 
1 0 1 0 1 0 1 1 1 0 1 0 1 0 1 0 
1 0 1 0 1 0 1 0 1 0 1 0 1 1 1 0 
1 0 1 0 1 0 1 0 1 0 1 0 1 0 1 0 
1 1 1 0 1 0 1 0 1 0 1 0 1 0 1 0 
1 0 1 1 1 0 1 0 1 0 1 0 1 0 1 0 
1 0 1 1 1 0 1 0 1 0 1 0 1 0 1 0 
1 1 1 0 1 0 1 0 1 0 1 0 1 1 1 0 
1 0 1 0 1 0 1 0 1 1 1 0 1 0 1 0 
1 0 1 1 1 0 1 0 1 0 1 0 1 1 1 0 
1 0 1 0 1 0 3277 2949 300 MP stroke
1 1 1 0 1 0 1 0 1 0 1 1 1 0 1 0 
1 0 1 1 1 0 1 0 1 0 1 1 1 0 1 0 
1 0 1 1 1 0 1 0 1 1 1 0 1 0 1 0 
1 1 1 0 1 0 1 1 1 0 1 0 1 1 1 0 
1 0 1 1 1 0 1 0 1 1 1 0 1 0 1 1 
1 0 1 0 1 1 1 0 1 0 1 1 1 0 1 1 
1 0 1 0 1 1 1 0 1 1 1 0 1 0 1 1 
1 0 1 1 1 0 1 1 1 0 1 1 1 0 1 0 
1 1 1 0 1 1 1 0 1 1 1 0 1 1 1 0 
1 1 1 1 1 0 1 1 1 0 1 1 1 0 1 1 
1 0 1 1 1 1 1 0 1 1 1 0 1 1 1 1 
1 0 1 1 1 0 1 1 1 1 1 0 1 1 1 1 
1 0 1 1 1 1 1 1 1 0 1 1 1 1 1 0 
1 1 1 1 1 1 1 1 1 0 1 1 1 1 1 1 
1 0 1 1 1 1 1 1 1 1 1 1 1 1 1 0 
1 1 1 1 1 1 1 1 1 1 1 1 1 1 1 1 
1 1 1 1 1 1 1 1 1 1 1 1 1 1 1 1 
1 1 1 1 1 1 1 1 1 1 1 1 1 1 1 1 
0 1 2 2 1 1 1 1 1 1 1 1 0 1 2 2 
1 1 1 1 0 1 2 2 1 1 1 1 0 1 2 2 
1 1 0 1 2 2 1 1 0 1 2 2 1 1 0 1 
2 2 0 1 2 2 0 1 2 2 0 1 2 2 0 1 
2 2 0 1 2 2 0 1 2 2 1 1 0 2 2 2 
1 1 0 2 2 2 1 1 0 2 2 2 0 1 2 2 
0 2 2 2 0 1 2 2 0 2 2 2 0 2 2 2 
0 1 2 2 0 2 2 2 0 2 2 2 0 2 2 2 
0 2 2 2 0 2 2 2 0 2 2 2 0 2 2 2 
0 2 1 1 0 2 2 2 0 2 2 2 0 3 2 2 
0 2 2 2 0 2 1 1 0 2 2 2 0 2 1 1 
0 2 2 2 0 3 2 2 0 3 2 2 0 3 2 2 
0 3 2 2 0 3 2 2 0 3 2 2 0 2 1 1 
0 3 2 2 0 2 1 1 0 2 1 1 0 3 2 2 
0 2 1 1 0 2 1 1 0 3 2 2 0 2 1 1 
0 2 1 1 0 2 1 1 0 2 1 1 0 2 1 1 
0 2 1 1 0 2 1 1 0 2 1 1 0 2 1 1 
0 2 1 1 0 2 1 1 0 2 1 1 0 2 1 1 
0 2 1 1 0 2 1 1 0 3 1 1 0 2 1 1 
0 2 1 1 0 2 3005 2602 300 MP stroke
1 1 0 2 1 1 0 3 1 1 0 2 1 1 0 2 
1 1 0 3 1 1 0 2 1 1 0 2 1 1 0 3 
1 1 0 2 1 1 0 3 1 1 0 2 1 1 0 3 
1 1 0 2 1 1 0 3 1 1 0 2 1 1 0 3 
1 1 0 2 1 1 0 3 1 1 0 3 1 1 0 2 
1 1 0 3 1 1 0 3 1 1 0 3 1 1 0 2 
1 1 0 3 1 1 0 3 1 1 0 3 1 1 0 3 
1 1 0 2 1 1 0 3 1 1 0 3 1 1 0 3 
1 1 0 3 1 1 0 3 1 1 0 3 1 1 0 3 
1 1 0 3 1 1 0 3 1 1 0 3 1 1 0 4 
1 1 0 3 1 1 0 3 1 1 0 3 1 1 0 3 
1 1 0 4 1 1 0 3 1 1 0 3 1 1 0 3 
1 1 0 4 1 1 0 3 1 1 0 4 1 1 0 3 
1 1 0 3 1 1 0 4 1 1 0 3 1 1 0 4 
1 1 0 3 1 1 0 4 1 1 0 3 1 1 0 4 
1 1 0 4 1 1 0 3 1 1 0 4 1 1 0 4 
1 1 0 3 1 1 0 4 1 1 0 4 1 1 0 4 
1 1 0 3 1 1 0 4 1 1 0 4 1 1 0 4 
1 1 0 4 1 1 0 4 1 1 0 4 1 1 0 4 
1 1 0 4 1 1 0 4 1 1 0 4 1 1 0 4 
1 1 0 4 1 1 0 4 1 1 0 4 1 1 0 4 
1 1 0 4 1 1 0 5 1 1 0 4 1 1 0 4 
1 1 0 4 1 1 0 5 1 1 0 4 1 1 0 4 
1 1 0 5 1 1 0 4 1 1 0 4 1 1 0 5 
1 1 0 4 1 1 0 5 1 1 0 4 1 1 0 5 
1 1 0 4 1 1 0 5 1 1 0 4 1 1 0 5 
1 1 0 5 1 1 0 4 1 1 0 5 1 1 0 5 
1 1 0 4 1 1 0 5 1 1 0 5 1 1 0 5 
1 1 0 4 1 1 0 5 1 1 0 5 1 1 0 5 
1 1 0 5 1 1 0 5 1 1 0 5 1 1 0 4 
1 1 0 5 1 1 0 5 1 1 0 5 1 1 0 5 
1 1 0 5 1 1 0 5 1 1 0 5 1 1 0 6 
1 1 0 5 1 1 0 5 1 1 0 5 1 1 0 5 
1 1 0 5 1 1 0 5 1 1 0 6 1 1 0 5 
1 1 0 5 1 1 0 5 1 1 0 6 1 1 0 5 
1 1 0 5 1 1 0 6 1 1 0 5 1 1 0 5 
1 1 0 6 1 1 0 5 1 1 0 6 1 1 0 5 
1 1 0 6 1 1 2855 1868 300 MP stroke
0 5 1 1 0 5 1 1 0 6 1 1 0 6 1 1 
0 5 1 1 0 6 1 1 0 5 1 1 0 6 1 1 
0 5 1 1 0 6 1 1 0 6 1 1 0 5 1 1 
0 6 1 1 0 5 1 1 0 6 1 1 0 6 1 1 
0 6 1 1 0 5 1 1 0 6 1 1 0 6 1 1 
0 5 1 1 0 6 1 1 0 6 1 1 0 6 1 1 
0 6 1 1 0 5 1 1 0 6 1 1 0 6 1 1 
0 6 1 1 0 6 1 1 0 6 1 1 0 5 1 1 
0 6 1 1 0 6 1 1 0 6 1 1 0 6 1 1 
0 6 1 1 0 6 1 1 0 6 1 1 0 6 1 1 
0 6 1 1 0 6 1 1 0 6 1 1 0 5 1 1 
0 6 1 1 0 6 1 1 0 6 1 1 0 6 1 1 
0 6 1 1 0 6 1 1 0 6 1 1 0 6 1 1 
0 6 1 1 0 6 1 1 0 6 1 1 0 7 1 1 
0 6 1 1 0 6 1 1 0 6 1 1 0 6 1 1 
0 6 1 1 0 6 1 1 0 6 1 1 0 6 1 1 
0 6 1 1 0 6 1 1 0 6 1 1 0 6 1 1 
0 6 1 1 0 6 1 1 0 6 1 1 0 6 1 1 
0 6 1 1 0 6 1 1 0 6 1 1 0 6 1 1 
0 6 1 1 0 6 1 1 0 7 1 1 0 6 1 1 
0 6 1 1 0 6 1 1 0 6 1 1 0 6 1 1 
0 6 1 1 0 6 1 1 0 6 1 1 0 6 1 1 
0 6 1 1 0 6 1 1 0 6 1 1 0 6 1 1 
0 6 1 1 0 6 1 1 0 5 1 1 0 6 1 1 
0 6 1 1 0 6 1 1 0 6 1 1 0 6 1 1 
0 6 1 1 0 6 1 1 0 6 1 1 0 6 1 1 
0 5 1 1 0 6 1 1 0 6 1 1 0 6 1 1 
0 6 1 1 0 6 1 1 0 5 1 1 0 6 1 1 
0 6 1 1 0 6 1 1 0 5 1 1 0 6 1 1 
0 6 1 1 0 5 1 1 0 6 1 1 0 6 1 1 
0 5 1 1 0 6 1 1 0 6 1 1 0 5 1 1 
0 6 1 1 0 5 1 1 0 6 1 1 0 5 1 1 
0 6 1 1 0 5 1 1 0 6 1 1 0 5 1 1 
0 6 1 1 0 5 1 1 0 5 1 1 0 6 1 1 
0 5 1 1 0 5 1 1 0 6 1 1 0 5 1 1 
0 5 1 1 0 6 1 1 0 5 1 1 0 5 1 1 
0 5 1 1 0 5 1 1 0 5 1 1 0 5 1 1 
0 5 1 1 0 5 2706 854 300 MP stroke
1 1 0 5 1 1 0 5 1 1 0 5 1 1 0 5 
1 1 0 5 1 1 0 5 1 1 0 5 1 1 0 5 
1 1 0 5 1 1 0 4 1 1 0 5 1 1 0 5 
1 1 0 4 1 1 0 5 1 1 0 5 1 1 0 4 
1 1 0 5 1 1 0 4 1 1 0 5 1 1 0 4 
1 1 0 5 1 1 0 4 1 1 0 4 1 1 0 5 
1 1 0 4 1 1 0 4 1 1 0 5 1 1 0 4 
1 1 0 4 1 1 0 4 1 1 0 4 1 1 0 4 
1 1 0 4 1 1 0 4 1 1 0 4 1 1 0 4 
1 1 0 4 1 1 0 4 1 1 0 4 1 1 0 3 
1 1 0 4 1 1 0 4 1 1 0 3 1 1 0 4 
1 1 0 3 1 1 0 4 1 1 0 4 1 1 0 3 
1 1 0 3 1 1 0 4 1 1 0 3 1 1 0 3 
1 1 0 4 1 1 0 3 1 1 0 3 1 1 0 3 
1 1 0 3 1 1 0 3 1 1 0 3 1 1 0 3 
1 1 0 3 1 1 0 3 1 1 0 3 1 1 0 3 
1 1 0 2 1 1 0 3 1 1 0 3 1 1 0 2 
1 1 0 3 1 1 0 2 1 1 0 3 1 1 0 2 
1 1 0 3 1 1 0 2 1 1 0 2 1 1 0 3 
1 1 0 2 1 1 0 2 1 1 0 2 1 1 0 2 
1 1 0 2 1 1 0 2 1 1 0 2 1 1 0 2 
1 1 0 2 1 1 0 3 2 2 0 2 1 1 0 3 
2 2 0 3 2 2 0 2 1 1 0 2 2 2 0 3 
2 2 0 2 2 2 0 2 2 2 0 2 2 2 0 2 
2 2 0 2 2 2 1 1 0 2 2 2 0 1 2 2 
1 1 0 1 2 2 1 1 0 1 2 2 1 1 1 1 
1 1 1 1 1 1 1 1 1 0 1 1 1 1 1 0 
1 1 1 1 1 0 1 1 1 0 1 0 1 1 1 0 
1 0 1 0 1 0 1 0 1 0 1 0 1 0 1 0 
1 0 1 0 1 -1 1 0 1 -1 1 0 1 -1 1 0 
1 -1 1 -1 1 0 1 -1 1 -1 1 -1 1 -1 1 -1 
1 -1 1 -1 1 -1 0 -1 2 -2 1 -1 0 -1 2 -2 
0 -1 2 -2 1 -1 0 -2 2 -2 1 -1 0 -2 2 -2 
0 -2 2 -2 0 -2 2 -2 0 -2 2 -2 0 -2 2 -2 
0 -2 1 -1 0 -2 2 -2 0 -3 2 -2 0 -3 2 -2 
0 -2 1 -1 0 -3 2 -2 0 -2 1 -1 0 -2 1 -1 
0 -2 1 -1 0 -2 1 -1 0 -2 1 -1 0 -2 1 -1 
0 -2 1 -1 0 -2 2504 483 300 MP stroke
1 -1 0 -2 1 -1 0 -2 1 -1 0 -2 1 -1 0 -3 
1 -1 0 -2 1 -1 0 -2 1 -1 0 -3 1 -1 0 -2 
1 -1 0 -3 1 -1 0 -2 1 -1 0 -3 1 -1 0 -2 
1 -1 0 -3 1 -1 0 -3 1 -1 0 -3 1 -1 0 -2 
1 -1 0 -3 1 -1 0 -3 1 -1 0 -3 1 -1 0 -3 
1 -1 0 -3 1 -1 0 -3 1 -1 0 -3 1 -1 0 -4 
1 -1 0 -3 1 -1 0 -3 1 -1 0 -3 1 -1 0 -4 
1 -1 0 -3 1 -1 0 -3 1 -1 0 -4 1 -1 0 -3 
1 -1 0 -4 1 -1 0 -3 1 -1 0 -4 1 -1 0 -4 
1 -1 0 -3 1 -1 0 -4 1 -1 0 -4 1 -1 0 -3 
1 -1 0 -4 1 -1 0 -4 1 -1 0 -4 1 -1 0 -4 
1 -1 0 -4 1 -1 0 -4 1 -1 0 -4 1 -1 0 -4 
1 -1 0 -4 1 -1 0 -4 1 -1 0 -4 1 -1 0 -5 
1 -1 0 -4 1 -1 0 -4 1 -1 0 -4 1 -1 0 -5 
1 -1 0 -4 1 -1 0 -5 1 -1 0 -4 1 -1 0 -5 
1 -1 0 -4 1 -1 0 -5 1 -1 0 -4 1 -1 0 -5 
1 -1 0 -4 1 -1 0 -5 1 -1 0 -5 1 -1 0 -4 
1 -1 0 -5 1 -1 0 -5 1 -1 0 -5 1 -1 0 -5 
1 -1 0 -4 1 -1 0 -5 1 -1 0 -5 1 -1 0 -5 
1 -1 0 -5 1 -1 0 -5 1 -1 0 -5 1 -1 0 -5 
1 -1 0 -5 1 -1 0 -5 1 -1 0 -6 1 -1 0 -5 
1 -1 0 -5 1 -1 0 -5 1 -1 0 -5 1 -1 0 -6 
1 -1 0 -5 1 -1 0 -5 1 -1 0 -5 1 -1 0 -6 
1 -1 0 -5 1 -1 0 -5 1 -1 0 -6 1 -1 0 -5 
1 -1 0 -6 1 -1 0 -5 1 -1 0 -6 1 -1 0 -5 
1 -1 0 -6 1 -1 0 -5 1 -1 0 -6 1 -1 0 -5 
1 -1 0 -6 1 -1 0 -5 1 -1 0 -6 1 -1 0 -6 
1 -1 0 -5 1 -1 0 -6 1 -1 0 -6 1 -1 0 -5 
1 -1 0 -6 1 -1 0 -6 1 -1 0 -5 1 -1 0 -6 
1 -1 0 -6 1 -1 0 -6 1 -1 0 -6 1 -1 0 -5 
1 -1 0 -6 1 -1 0 -6 1 -1 0 -6 1 -1 0 -6 
1 -1 0 -6 1 -1 0 -5 1 -1 0 -6 1 -1 0 -6 
1 -1 0 -6 1 -1 0 -6 1 -1 0 -6 1 -1 0 -6 
1 -1 0 -6 1 -1 0 -6 1 -1 0 -6 1 -1 0 -6 
1 -1 0 -6 1 -1 0 -6 1 -1 0 -6 1 -1 0 -6 
1 -1 0 -6 1 -1 0 -6 1 -1 0 -6 1 -1 0 -6 
1 -1 0 -6 1 -1 0 -6 1 -1 0 -6 1 -1 0 -6 
1 -1 0 -6 1 -1 2354 1323 300 MP stroke
0 -6 1 -1 0 -6 1 -1 0 -6 1 -1 0 -6 1 -1 
0 -6 1 -1 0 -6 1 -1 0 -6 1 -1 0 -6 1 -1 
0 -6 1 -1 0 -6 1 -1 0 -6 1 -1 0 -6 1 -1 
0 -6 1 -1 0 -6 1 -1 0 -6 1 -1 0 -6 1 -1 
0 -7 1 -1 0 -6 1 -1 0 -6 1 -1 0 -6 1 -1 
0 -6 1 -1 0 -6 1 -1 0 -6 1 -1 0 -6 1 -1 
0 -6 1 -1 0 -6 1 -1 0 -6 1 -1 0 -6 1 -1 
0 -6 1 -1 0 -6 1 -1 0 -6 1 -1 0 -6 1 -1 
0 -6 1 -1 0 -6 1 -1 0 -6 1 -1 0 -6 1 -1 
0 -6 1 -1 0 -6 1 -1 0 -6 1 -1 0 -6 1 -1 
0 -5 1 -1 0 -6 1 -1 0 -6 1 -1 0 -6 1 -1 
0 -6 1 -1 0 -6 1 -1 0 -6 1 -1 0 -6 1 -1 
0 -6 1 -1 0 -5 1 -1 0 -6 1 -1 0 -6 1 -1 
0 -6 1 -1 0 -6 1 -1 0 -6 1 -1 0 -5 1 -1 
0 -6 1 -1 0 -6 1 -1 0 -6 1 -1 0 -5 1 -1 
0 -6 1 -1 0 -6 1 -1 0 -6 1 -1 0 -5 1 -1 
0 -6 1 -1 0 -6 1 -1 0 -5 1 -1 0 -6 1 -1 
0 -6 1 -1 0 -5 1 -1 0 -6 1 -1 0 -5 1 -1 
0 -6 1 -1 0 -5 1 -1 0 -6 1 -1 0 -5 1 -1 
0 -6 1 -1 0 -5 1 -1 0 -6 1 -1 0 -5 1 -1 
0 -6 1 -1 0 -5 1 -1 0 -6 1 -1 0 -5 1 -1 
0 -5 1 -1 0 -6 1 -1 0 -5 1 -1 0 -6 1 -1 
0 -5 1 -1 0 -5 1 -1 0 -5 1 -1 0 -6 1 -1 
0 -5 1 -1 0 -5 1 -1 0 -5 1 -1 0 -5 1 -1 
0 -6 1 -1 0 -5 1 -1 0 -5 1 -1 0 -5 1 -1 
0 -5 1 -1 0 -5 1 -1 0 -5 1 -1 0 -5 1 -1 
0 -5 1 -1 0 -5 1 -1 0 -5 1 -1 0 -5 1 -1 
0 -5 1 -1 0 -5 1 -1 0 -5 1 -1 0 -5 1 -1 
0 -5 1 -1 0 -5 1 -1 0 -4 1 -1 0 -5 1 -1 
0 -5 1 -1 0 -5 1 -1 0 -4 1 -1 0 -5 1 -1 
0 -5 1 -1 0 -4 1 -1 0 -5 1 -1 0 -5 1 -1 
0 -4 1 -1 0 -5 1 -1 0 -5 1 -1 0 -4 1 -1 
0 -5 1 -1 0 -4 1 -1 0 -5 1 -1 0 -4 1 -1 
0 -4 1 -1 0 -5 1 -1 0 -4 1 -1 0 -5 1 -1 
0 -4 1 -1 0 -4 1 -1 0 -5 1 -1 0 -4 1 -1 
0 -4 1 -1 0 -4 1 -1 0 -4 1 -1 0 -5 1 -1 
0 -4 1 -1 0 -4 1 -1 0 -4 1 -1 0 -4 1 -1 
0 -4 1 -1 0 -4 2205 2276 300 MP stroke
1 -1 0 -4 1 -1 0 -4 1 -1 0 -4 1 -1 0 -4 
1 -1 0 -4 1 -1 0 -4 1 -1 0 -4 1 -1 0 -4 
1 -1 0 -4 1 -1 0 -3 1 -1 0 -4 1 -1 0 -4 
1 -1 0 -4 1 -1 0 -4 1 -1 0 -3 1 -1 0 -4 
1 -1 0 -4 1 -1 0 -3 1 -1 0 -4 1 -1 0 -3 
1 -1 0 -4 1 -1 0 -3 1 -1 0 -4 1 -1 0 -3 
1 -1 0 -4 1 -1 0 -3 1 -1 0 -4 1 -1 0 -3 
1 -1 0 -4 1 -1 0 -3 1 -1 0 -3 1 -1 0 -4 
1 -1 0 -3 1 -1 0 -3 1 -1 0 -3 1 -1 0 -3 
1 -1 0 -4 1 -1 0 -3 1 -1 0 -3 1 -1 0 -3 
1 -1 0 -3 1 -1 0 -3 1 -1 0 -3 1 -1 0 -3 
1 -1 0 -3 1 -1 0 -3 1 -1 0 -3 1 -1 0 -3 
1 -1 0 -3 1 -1 0 -3 1 -1 0 -3 1 -1 0 -3 
1 -1 0 -2 1 -1 0 -3 1 -1 0 -3 1 -1 0 -3 
1 -1 0 -2 1 -1 0 -3 1 -1 0 -3 1 -1 0 -3 
1 -1 0 -2 1 -1 0 -3 1 -1 0 -2 1 -1 0 -3 
1 -1 0 -2 1 -1 0 -3 1 -1 0 -2 1 -1 0 -3 
1 -1 0 -2 1 -1 0 -3 1 -1 0 -2 1 -1 0 -3 
1 -1 0 -2 1 -1 0 -2 1 -1 0 -3 1 -1 0 -2 
1 -1 0 -2 1 -1 0 -3 1 -1 0 -2 1 -1 0 -2 
1 -1 0 -2 1 -1 0 -2 1 -1 0 -2 1 -1 0 -3 
1 -1 0 -2 1 -1 0 -2 1 -1 0 -2 1 -1 0 -2 
1 -1 0 -2 1 -1 0 -2 1 -1 0 -2 1 -1 0 -2 
1 -1 0 -2 1 -1 0 -2 1 -1 0 -2 1 -1 0 -3 
2 -2 0 -2 1 -1 0 -2 1 -1 0 -2 1 -1 0 -3 
2 -2 0 -2 1 -1 0 -2 1 -1 0 -3 2 -2 0 -2 
1 -1 0 -3 2 -2 0 -3 2 -2 0 -3 2 -2 0 -3 
2 -2 0 -3 2 -2 0 -3 2 -2 0 -2 1 -1 0 -2 
2 -2 0 -3 2 -2 0 -3 2 -2 0 -2 2 -2 0 -2 
1 -1 0 -2 2 -2 0 -2 2 -2 0 -2 1 -1 0 -2 
2 -2 0 -2 2 -2 0 -2 2 -2 0 -2 2 -2 0 -2 
2 -2 0 -2 2 -2 0 -2 2 -2 0 -2 2 -2 0 -2 
2 -2 1 -1 0 -2 2 -2 0 -2 2 -2 0 -1 2 -2 
0 -2 2 -2 1 -1 0 -2 2 -2 1 -1 0 -2 2 -2 
1 -1 0 -2 2 -2 0 -1 2 -2 0 -1 2 -2 0 -1 
2 -2 0 -1 2 -2 0 -1 2 -2 0 -1 2 -2 1 -1 
0 -1 2 -2 0 -1 2 -2 1 -1 0 -1 2 -2 1 -1 
1 -1 0 -1 2 -2 2010 2851 300 MP stroke
1 -1 0 -1 2 -2 1 -1 1 -1 1 -1 0 -1 2 -2 
1 -1 1 -1 1 -1 1 -1 1 -1 0 -1 2 -2 1 -1 
1 -1 1 -1 1 -1 1 -1 1 -1 1 -1 1 -1 1 -1 
1 -1 1 -1 1 -1 1 -1 1 -1 1 -1 1 -1 1 -1 
1 -1 1 -1 1 0 1 -1 1 -1 1 -1 1 -1 1 -1 
1 -1 1 -1 1 0 1 -1 1 -1 1 -1 1 -1 1 0 
1 -1 1 -1 1 -1 1 0 1 -1 1 -1 1 -1 1 0 
1 -1 1 -1 1 -1 1 0 1 -1 1 -1 1 0 1 -1 
1 -1 1 0 1 -1 1 -1 1 0 1 -1 1 0 1 -1 
1 -1 1 0 1 -1 1 0 1 -1 1 -1 1 0 1 -1 
1 0 1 -1 1 0 1 -1 1 0 1 -1 1 0 1 -1 
1 0 1 -1 1 0 1 -1 1 0 1 -1 1 0 1 -1 
1 0 1 -1 1 0 1 -1 1 0 1 0 1 -1 1 0 
1 -1 1 0 1 0 1 -1 1 0 1 -1 1 0 1 0 
1 -1 1 0 1 -1 1 0 1 0 1 -1 1 0 1 0 
1 -1 1 0 1 0 1 -1 1 0 1 0 1 -1 1 0 
1 0 1 -1 1 0 1 0 1 0 1 -1 1 0 1 0 
1 -1 1 0 1 0 1 0 1 -1 1 0 1 0 1 -1 
1 0 1 0 1 0 1 -1 1 0 1 0 1 0 1 0 
1 -1 1 0 1 0 1 0 1 -1 1 0 1 0 1 0 
1 0 1 -1 1 0 1 0 1 0 1 0 1 -1 1 0 
1 0 1 0 1 0 1 -1 1 0 1 0 1 0 1 0 
1 0 1 -1 1 0 1 0 1 0 1 0 1 0 1 0 
1 -1 1 0 1 0 1 0 1 0 1 0 1 0 1 -1 
1 0 1 0 1 0 1 0 1 0 1 0 1 -1 1 0 
1 0 1 0 1 0 1 0 1 0 1 0 1 0 1 -1 
1 0 1 0 1 0 1 0 1 0 1 0 1 0 1 0 
1 0 1 -1 1 0 1 0 1 0 1 0 1 0 1 0 
1 0 1 0 1 0 1 0 1 -1 1 0 1 0 1 0 
1 0 1 0 1 0 1 0 1 0 1 0 1 0 1 0 
1 0 1 0 1 -1 1 0 1 0 1 0 1 0 1 0 
1 0 1 0 1 0 1 0 1 0 1 0 1 0 1 0 
1 0 1 0 1 0 1 0 1 -1 1 0 1 0 1 0 
1 0 1 0 1 0 1 0 1 0 1 0 1 0 1 0 
1 0 1 0 1 0 1 0 1 0 1 0 1 0 1 0 
1 0 1 0 1 0 1 0 1 -1 1 0 1 0 1 0 
1 0 1 0 1 0 1 0 1 0 1 0 1 0 1 0 
1 0 1 0 1 0 1711 2962 300 MP stroke
1 0 1 0 1 0 1 0 1 0 1 0 1 0 1 0 
1 0 1 0 1 0 1 0 1 0 1 0 1 0 1 0 
1 0 1 0 1 0 1 0 1 0 1 0 1 0 1 0 
1 0 1 -1 1 0 1 0 1 0 1 0 1 0 1 0 
1 0 1 0 1 0 1 0 1 0 1 0 1 0 1 0 
1 0 1 0 1 0 1 0 1 0 1 0 1 0 1 0 
1 0 1 0 1 0 1 0 1 0 1 0 1 0 1 0 
1 0 1 0 1 0 1 0 1 0 1 0 1 0 1 0 
1 0 1 0 1 0 1 0 1 0 1 0 1 0 1 0 
1 0 1 0 1 0 1 0 1 0 1 0 1 0 1 0 
1 0 1 0 1 0 1 0 1 0 1 0 1 0 1 0 
1 0 1 0 1 0 1 0 1 0 1 0 1 0 1 0 
1 0 1 0 1 0 1 0 1 0 1 0 1 0 1 0 
1 0 1 0 1 0 1 0 1 0 1 0 1 0 1 0 
1 0 1 0 1 0 1 0 1 0 1 0 1 0 1 0 
1 0 1 0 1 0 1 0 1 0 1 0 1 0 1 0 
1 0 1 0 1 0 1 0 1 0 1 0 1 0 1 0 
1 0 1 0 1 0 1 0 1 0 1 0 1 0 1 0 
1 0 1 0 1 0 1 0 1 0 1 0 1 0 1 0 
1 0 1 0 1 0 1 0 1 0 1 0 1 0 1 0 
1 0 1 0 1 0 1 0 1 0 1 0 1 0 1 0 
1 0 1 0 1 0 1 0 1 0 1 0 1 0 1 0 
1 0 1 0 1 0 1 0 1 0 1 0 1 0 1 0 
1 0 1 0 1 0 1 0 1 0 1 0 1 0 1 0 
1 0 1 0 1 0 1 0 1 0 1 0 1 0 1 0 
1 0 1 0 1 0 1 0 1 0 1 0 1 0 1 0 
1 0 1 0 1 0 1 0 1 0 1 0 1 0 1 0 
1 0 1 0 1 0 1 0 1 0 1 0 1 0 1 0 
1 0 1 0 1 0 1 0 1 0 1 0 1 0 1 0 
1 0 1 0 1 0 1 0 1 0 1 0 1 0 1 0 
1 0 1 0 1 0 1 0 1 0 1 0 1 0 1 0 
1 0 1 0 1 0 1 0 1 0 1 0 1 0 1 0 
1 0 1 0 1 0 1 0 1 0 1 0 1 0 1 0 
1 0 1 0 1 0 1 0 1 0 1 0 1 0 1 0 
1 0 1 0 1 0 1 0 1 0 1 0 1 0 1 0 
1 0 1 0 1 0 1 0 1 0 1 0 1 0 1 0 
1 0 1 0 1 0 1 0 1 0 1 0 1 0 1 0 
1 0 1 0 1 0 1412 2963 300 MP stroke
1 0 1 0 1 0 1 0 1 0 1 0 1 0 1 0 
1 0 1 0 1 0 1 0 1 0 1 0 1 0 1 0 
1 0 1 0 1 0 1 0 1 0 1 0 1 0 1 0 
1 0 1 0 1 0 1 0 1 0 1 0 1 0 1 0 
1 0 1 0 1 0 1 0 1 0 1 0 1 0 1 0 
1 0 1 0 1 0 1 0 1 0 1 0 1 0 1 0 
1 0 1 0 1 0 1 0 1 0 1359 2963 54 MP stroke
/c9 { 0.000000 1.000000 0.000000 sr} bdef
c9
1 0 1 0 1 0 1 0 1 0 1 0 1 0 1 0 
1 0 1 0 1 0 1 0 1 0 1 0 1 0 1 0 
1 0 1 0 1 0 1 0 1 0 1 0 1 0 1 0 
1 0 1 0 1 0 1 0 1 0 1 0 1 0 1 0 
1 0 1 0 1 0 1 0 1 0 1 0 1 0 1 0 
1 0 1 0 1 0 1 0 1 0 1 0 1 0 1 0 
1 0 1 0 1 0 1 0 1 0 1 0 1 0 1 0 
1 0 1 0 1 0 1 0 1 0 1 0 1 0 1 0 
1 0 1 0 1 0 1 0 1 0 1 0 1 0 1 0 
1 0 1 0 1 0 1 0 1 0 1 0 1 0 1 0 
1 0 1 0 1 0 1 0 1 0 1 0 1 0 1 0 
1 0 1 0 1 0 1 0 1 0 1 0 1 0 1 0 
1 0 1 0 1 0 1 0 1 0 1 0 1 0 1 0 
1 0 1 0 1 0 1 0 1 0 1 0 1 0 1 0 
1 0 1 0 1 0 1 0 1 0 1 0 1 0 1 0 
1 0 1 0 1 0 1 0 1 0 1 0 1 0 1 0 
1 0 1 0 1 0 1 0 1 0 1 0 1 0 1 0 
1 0 1 0 1 0 1 0 1 0 1 0 1 0 1 0 
1 0 1 0 1 0 1 0 1 0 1 0 1 0 1 0 
1 0 1 0 1 0 1 0 1 0 1 0 1 0 1 0 
1 0 1 0 1 0 1 0 1 0 1 0 1 0 1 0 
1 0 1 0 1 0 1 0 1 0 1 0 1 0 1 0 
1 0 1 0 1 0 1 0 1 0 1 0 1 0 1 0 
1 0 1 0 1 0 1 0 1 0 1 0 1 0 1 0 
1 0 1 0 1 0 1 0 1 0 1 0 1 0 1 0 
1 0 1 0 1 0 1 0 1 0 1 0 1 0 1 0 
1 0 1 0 1 0 1 0 1 0 1 0 1 0 1 0 
1 0 1 0 1 0 1 0 1 0 1 0 1 0 1 0 
1 0 1 0 1 0 1 0 1 0 1 0 1 0 1 0 
1 0 1 0 1 0 1 0 1 0 1 0 1 0 1 0 
1 0 1 0 1 0 1 0 1 0 1 0 1 0 1 0 
1 0 1 0 1 0 1 0 1 0 1 0 1 0 1 0 
1 0 1 0 1 0 1 0 1 0 1 0 1 0 1 0 
1 0 1 0 1 0 1 0 1 0 1 0 1 0 1 0 
1 0 1 0 1 0 1 0 1 0 1 0 1 0 1 0 
1 0 1 0 1 0 1 0 1 0 1 0 1 0 1 0 
1 0 1 0 1 0 1 0 1 0 1 0 1 0 1 0 
1 0 1 0 1 0 3740 2963 300 MP stroke
1 0 1 0 1 0 1 0 1 0 1 0 1 0 1 0 
1 0 1 0 1 0 1 0 1 0 1 0 1 0 1 0 
1 0 1 0 1 0 1 0 1 0 1 0 1 0 1 0 
1 0 1 0 1 0 1 0 1 0 1 0 1 0 1 0 
1 0 1 0 1 0 1 0 1 0 1 0 1 0 1 0 
1 0 1 0 1 0 1 0 1 0 1 0 1 0 1 0 
1 0 1 0 1 0 1 0 1 0 1 0 1 0 1 0 
1 0 1 0 1 0 1 0 1 0 1 1 1 0 1 0 
1 0 1 0 1 0 1 0 1 0 1 0 1 0 1 0 
1 0 1 0 1 0 1 0 1 0 1 0 1 0 1 0 
1 0 1 0 1 0 1 0 1 0 1 0 1 0 1 0 
1 0 1 0 1 0 1 0 1 0 1 0 1 0 1 0 
1 0 1 0 1 0 1 0 1 0 1 0 1 0 1 0 
1 0 1 0 1 0 1 0 1 0 1 0 1 0 1 0 
1 0 1 0 1 0 1 0 1 0 1 0 1 0 1 1 
1 0 1 0 1 0 1 0 1 0 1 0 1 0 1 0 
1 0 1 0 1 0 1 0 1 0 1 0 1 0 1 0 
1 0 1 0 1 0 1 0 1 0 1 0 1 0 1 0 
1 0 1 0 1 0 1 0 1 0 1 0 1 0 1 0 
1 0 1 0 1 1 1 0 1 0 1 0 1 0 1 0 
1 0 1 0 1 0 1 0 1 0 1 0 1 0 1 0 
1 0 1 0 1 0 1 0 1 0 1 0 1 0 1 0 
1 0 1 0 1 0 1 1 1 0 1 0 1 0 1 0 
1 0 1 0 1 0 1 0 1 0 1 0 1 0 1 0 
1 0 1 0 1 0 1 0 1 0 1 0 1 0 1 1 
1 0 1 0 1 0 1 0 1 0 1 0 1 0 1 0 
1 0 1 0 1 0 1 0 1 0 1 0 1 0 1 0 
1 1 1 0 1 0 1 0 1 0 1 0 1 0 1 0 
1 0 1 0 1 0 1 0 1 0 1 0 1 0 1 1 
1 0 1 0 1 0 1 0 1 0 1 0 1 0 1 0 
1 0 1 0 1 0 1 1 1 0 1 0 1 0 1 0 
1 0 1 0 1 0 1 0 1 0 1 0 1 0 1 1 
1 0 1 0 1 0 1 0 1 0 1 0 1 0 1 0 
1 0 1 1 1 0 1 0 1 0 1 0 1 0 1 0 
1 0 1 0 1 1 1 0 1 0 1 0 1 0 1 0 
1 0 1 0 1 0 1 1 1 0 1 0 1 0 1 0 
1 0 1 0 1 0 1 1 1 0 1 0 1 0 1 0 
1 0 1 0 1 1 3441 2949 300 MP stroke
1 0 1 0 1 0 1 0 1 0 1 0 1 1 1 0 
1 0 1 0 1 0 1 0 1 0 1 1 1 0 1 0 
1 0 1 0 1 0 1 1 1 0 1 0 1 0 1 0 
1 0 1 1 1 0 1 0 1 0 1 0 1 1 1 0 
1 0 1 0 1 0 1 0 1 1 1 0 1 0 1 0 
1 0 1 1 1 0 1 0 1 0 1 0 1 1 1 0 
1 0 1 0 1 0 1 1 1 0 1 0 1 0 1 1 
1 0 1 0 1 0 1 1 1 0 1 0 1 0 1 0 
1 1 1 0 1 0 1 0 1 1 1 0 1 0 1 0 
1 1 1 0 1 0 1 0 1 1 1 0 1 0 1 1 
1 0 1 0 1 0 1 1 1 0 1 0 1 1 1 0 
1 0 1 0 1 1 1 0 1 0 1 1 1 0 1 0 
1 1 1 0 1 0 1 1 1 0 1 0 1 0 1 1 
1 0 1 0 1 1 1 0 1 1 1 0 1 0 1 1 
1 0 1 0 1 1 1 0 1 0 1 1 1 0 1 0 
1 1 1 0 1 1 1 0 1 0 1 1 1 0 1 1 
1 0 1 0 1 1 1 0 1 1 1 0 1 0 1 1 
1 0 1 1 1 0 1 1 1 0 1 0 1 1 1 0 
1 1 1 0 1 1 1 0 1 1 1 0 1 0 1 1 
1 0 1 1 1 0 1 1 1 0 1 1 1 0 1 1 
1 0 1 1 1 0 1 1 1 0 1 1 1 0 1 1 
1 1 1 0 1 1 1 0 1 1 1 0 1 1 1 0 
1 1 1 0 1 1 1 1 1 0 1 1 1 0 1 1 
1 1 1 0 1 1 1 0 1 1 1 1 1 0 1 1 
1 0 1 1 1 1 1 0 1 1 1 1 1 0 1 1 
1 1 1 0 1 1 1 1 1 0 1 1 1 1 1 0 
1 1 1 1 1 0 1 1 1 1 1 1 1 0 1 1 
1 1 1 1 1 0 1 1 1 1 1 1 1 0 1 1 
1 1 1 1 1 0 1 1 1 1 1 1 1 1 1 0 
1 1 1 1 1 1 1 1 1 1 1 0 1 1 1 1 
1 1 1 1 1 1 1 1 1 0 1 1 1 1 1 1 
1 1 1 1 1 1 1 1 1 1 1 0 1 1 1 1 
1 1 1 1 1 1 1 1 1 1 1 1 1 1 1 1 
1 1 1 1 1 1 1 1 1 1 1 1 1 1 1 1 
1 1 1 1 1 1 1 1 1 1 1 1 0 1 2 2 
1 1 1 1 1 1 1 1 1 1 1 1 1 1 1 1 
0 1 2 2 1 1 1 1 1 1 1 1 0 1 2 2 
1 1 1 1 1 1 3142 2790 300 MP stroke
0 1 2 2 1 1 1 1 1 1 0 1 2 2 1 1 
1 1 0 1 2 2 1 1 0 1 2 2 1 1 1 1 
0 1 2 2 1 1 0 1 2 2 1 1 0 1 2 2 
0 1 2 2 1 1 0 1 2 2 1 1 0 1 2 2 
0 1 2 2 0 1 2 2 1 1 0 1 2 2 0 1 
2 2 0 1 2 2 0 1 2 2 0 1 2 2 1 1 
0 2 2 2 0 1 2 2 0 1 2 2 1 1 0 2 
2 2 0 1 2 2 1 1 0 2 2 2 1 1 0 2 
2 2 1 1 0 2 2 2 1 1 0 2 2 2 0 1 
2 2 0 2 2 2 0 1 2 2 0 2 2 2 0 1 
2 2 0 2 2 2 0 1 2 2 0 2 2 2 0 2 
2 2 0 1 2 2 0 2 2 2 0 2 2 2 0 2 
2 2 0 2 2 2 1 1 0 2 2 2 0 2 2 2 
0 2 2 2 0 2 2 2 0 2 2 2 0 2 2 2 
0 2 2 2 0 2 2 2 0 2 1 1 0 2 2 2 
0 2 2 2 0 2 2 2 0 2 2 2 0 3 2 2 
0 2 2 2 0 2 2 2 0 2 1 1 0 2 2 2 
0 2 2 2 0 3 2 2 0 2 2 2 0 3 2 2 
0 2 2 2 0 2 1 1 0 2 2 2 0 2 1 1 
0 2 2 2 0 2 1 1 0 2 2 2 0 3 2 2 
0 2 1 1 0 2 2 2 0 3 2 2 0 3 2 2 
0 2 1 1 0 2 2 2 0 3 2 2 0 3 2 2 
0 3 2 2 0 3 2 2 0 2 1 1 0 3 2 2 
0 3 2 2 0 3 2 2 0 2 1 1 0 3 2 2 
0 3 2 2 0 2 1 1 0 3 2 2 0 2 1 1 
0 3 2 2 0 2 1 1 0 3 2 2 0 2 1 1 
0 2 1 1 0 3 2 2 0 2 1 1 0 3 2 2 
0 2 1 1 0 2 1 1 0 2 1 1 0 3 2 2 
0 2 1 1 0 2 1 1 0 2 1 1 0 3 2 2 
0 2 1 1 0 2 1 1 0 2 1 1 0 2 1 1 
0 3 2 2 0 2 1 1 0 2 1 1 0 2 1 1 
0 2 1 1 0 2 1 1 0 2 1 1 0 2 1 1 
0 2 1 1 0 2 1 1 0 3 2 2 0 2 1 1 
0 2 1 1 0 2 1 1 0 2 1 1 0 2 1 1 
0 2 1 1 0 2 1 1 0 2 1 1 0 2 1 1 
0 2 1 1 0 2 1 1 0 2 1 1 0 2 1 1 
0 2 1 1 0 2 1 1 0 3 1 1 0 2 1 1 
0 2 1 1 0 2 2896 2264 300 MP stroke
1 1 0 2 1 1 0 2 1 1 0 2 1 1 0 2 
1 1 0 2 1 1 0 2 1 1 0 2 1 1 0 3 
1 1 0 2 1 1 0 2 1 1 0 2 1 1 0 2 
1 1 0 2 1 1 0 2 1 1 0 3 1 1 0 2 
1 1 0 2 1 1 0 2 1 1 0 2 1 1 0 3 
1 1 0 2 1 1 0 2 1 1 0 2 1 1 0 2 
1 1 0 3 1 1 0 2 1 1 0 2 1 1 0 2 
1 1 0 3 1 1 0 2 1 1 0 2 1 1 0 2 
1 1 0 3 1 1 0 2 1 1 0 2 1 1 0 2 
1 1 0 3 1 1 0 2 1 1 0 2 1 1 0 3 
1 1 0 2 1 1 0 2 1 1 0 3 1 1 0 2 
1 1 0 2 1 1 0 3 1 1 0 2 1 1 0 2 
1 1 0 3 1 1 0 2 1 1 0 2 1 1 0 3 
1 1 0 2 1 1 0 2 1 1 0 3 1 1 0 2 
1 1 0 3 1 1 0 2 1 1 0 2 1 1 0 3 
1 1 0 2 1 1 0 2 1 1 0 3 1 1 0 2 
1 1 0 3 1 1 0 2 1 1 0 2 1 1 0 3 
1 1 0 2 1 1 0 3 1 1 0 2 1 1 0 3 
1 1 0 2 1 1 0 2 1 1 0 3 1 1 0 2 
1 1 0 3 1 1 0 2 1 1 0 3 1 1 0 2 
1 1 0 3 1 1 0 2 1 1 0 3 1 1 0 2 
1 1 0 2 1 1 0 3 1 1 0 2 1 1 0 3 
1 1 0 2 1 1 0 3 1 1 0 2 1 1 0 3 
1 1 0 2 1 1 0 3 1 1 0 2 1 1 0 3 
1 1 0 2 1 1 0 3 1 1 0 2 1 1 0 3 
1 1 0 2 1 1 0 3 1 1 0 2 1 1 0 3 
1 1 0 2 1 1 0 3 1 1 0 2 1 1 0 3 
1 1 0 2 1 1 0 3 1 1 0 2 1 1 0 3 
1 1 0 2 1 1 0 3 1 1 0 2 1 1 0 3 
1 1 0 2 1 1 0 3 1 1 0 2 1 1 0 3 
1 1 0 2 1 1 0 3 1 1 0 2 1 1 0 3 
1 1 0 2 1 1 0 3 1 1 0 2 1 1 0 3 
1 1 0 2 1 1 0 3 1 1 0 2 1 1 0 3 
1 1 0 2 1 1 0 3 1 1 0 2 1 1 0 3 
1 1 0 2 1 1 0 3 1 1 0 2 1 1 0 3 
1 1 0 2 1 1 0 3 1 1 0 2 1 1 0 3 
1 1 0 2 1 1 0 3 1 1 0 2 1 1 0 3 
1 1 0 2 1 1 2746 1759 300 MP stroke
0 3 1 1 0 2 1 1 0 3 1 1 0 2 1 1 
0 3 1 1 0 2 1 1 0 3 1 1 0 2 1 1 
0 3 1 1 0 2 1 1 0 2 1 1 0 3 1 1 
0 2 1 1 0 3 1 1 0 2 1 1 0 3 1 1 
0 2 1 1 0 3 1 1 0 2 1 1 0 2 1 1 
0 3 1 1 0 2 1 1 0 3 1 1 0 2 1 1 
0 2 1 1 0 3 1 1 0 2 1 1 0 3 1 1 
0 2 1 1 0 2 1 1 0 3 1 1 0 2 1 1 
0 3 1 1 0 2 1 1 0 2 1 1 0 3 1 1 
0 2 1 1 0 2 1 1 0 3 1 1 0 2 1 1 
0 2 1 1 0 3 1 1 0 2 1 1 0 2 1 1 
0 3 1 1 0 2 1 1 0 2 1 1 0 2 1 1 
0 3 1 1 0 2 1 1 0 2 1 1 0 3 1 1 
0 2 1 1 0 2 1 1 0 2 1 1 0 3 1 1 
0 2 1 1 0 2 1 1 0 2 1 1 0 2 1 1 
0 3 1 1 0 2 1 1 0 2 1 1 0 2 1 1 
0 2 1 1 0 3 1 1 0 2 1 1 0 2 1 1 
0 2 1 1 0 2 1 1 0 2 1 1 0 2 1 1 
0 2 1 1 0 3 1 1 0 2 1 1 0 2 1 1 
0 2 1 1 0 2 1 1 0 2 1 1 0 2 1 1 
0 2 1 1 0 2 1 1 0 2 1 1 0 2 1 1 
0 2 1 1 0 2 1 1 0 2 1 1 0 2 1 1 
0 2 1 1 0 2 1 1 0 2 1 1 0 2 1 1 
0 2 1 1 0 2 1 1 0 2 1 1 0 2 1 1 
0 2 1 1 0 3 2 2 0 2 1 1 0 2 1 1 
0 2 1 1 0 2 1 1 0 2 1 1 0 3 2 2 
0 2 1 1 0 2 1 1 0 3 2 2 0 2 1 1 
0 2 1 1 0 3 2 2 0 2 1 1 0 2 1 1 
0 3 2 2 0 2 1 1 0 3 2 2 0 3 2 2 
0 2 1 1 0 3 2 2 0 3 2 2 0 3 2 2 
0 3 2 2 0 3 2 2 0 3 2 2 0 3 2 2 
0 3 2 2 0 2 1 1 0 2 2 2 0 2 1 1 
0 2 2 2 0 2 1 1 0 2 2 2 0 2 1 1 
0 2 2 2 0 2 2 2 0 2 1 1 0 2 2 2 
0 2 2 2 0 3 2 2 0 2 2 2 0 2 2 2 
0 2 2 2 0 2 2 2 0 2 2 2 0 2 2 2 
0 2 2 2 0 2 2 2 0 1 2 2 0 2 2 2 
0 2 2 2 0 1 2563 1237 300 MP stroke
2 2 0 2 2 2 1 1 0 2 2 2 1 1 0 2 
2 2 0 1 2 2 1 1 0 2 2 2 0 1 2 2 
0 1 2 2 0 1 2 2 1 1 0 1 2 2 0 1 
2 2 1 1 0 1 2 2 1 1 0 1 2 2 1 1 
1 1 1 1 0 1 2 2 1 1 1 1 1 1 1 1 
1 1 1 1 1 1 1 1 1 1 1 1 1 1 1 1 
1 1 1 1 1 1 1 1 1 1 1 1 1 1 1 1 
1 0 1 1 1 1 1 1 1 1 1 0 1 1 1 1 
1 0 1 1 1 1 1 0 1 1 1 0 1 1 1 1 
1 0 1 1 1 0 1 1 1 0 1 0 1 1 1 0 
1 1 1 0 1 0 1 1 1 0 1 0 1 1 1 0 
1 0 1 0 1 0 1 1 1 0 1 0 1 0 1 0 
1 0 1 0 1 0 1 0 1 0 1 0 1 0 1 0 
1 0 1 0 1 0 1 0 1 0 1 0 1 0 1 -1 
1 0 1 0 1 0 1 -1 1 0 1 0 1 -1 1 0 
1 0 1 -1 1 0 1 0 1 -1 1 0 1 -1 1 0 
1 -1 1 0 1 -1 1 0 1 -1 1 0 1 -1 1 -1 
1 0 1 -1 1 -1 1 0 1 -1 1 -1 1 -1 1 0 
1 -1 1 -1 1 -1 1 -1 1 0 1 -1 1 -1 1 -1 
1 -1 1 -1 1 -1 1 -1 1 -1 1 -1 1 -1 1 -1 
1 -1 1 -1 1 -1 0 -1 2 -2 1 -1 1 -1 1 -1 
0 -1 2 -2 1 -1 1 -1 0 -1 2 -2 1 -1 0 -1 
2 -2 1 -1 0 -1 2 -2 0 -1 2 -2 0 -1 2 -2 
0 -1 2 -2 0 -1 2 -2 0 -1 2 -2 0 -1 2 -2 
1 -1 0 -2 2 -2 1 -1 0 -2 2 -2 0 -1 2 -2 
0 -2 2 -2 0 -1 2 -2 0 -2 2 -2 0 -2 2 -2 
1 -1 0 -2 2 -2 0 -2 2 -2 0 -2 2 -2 0 -2 
2 -2 0 -2 2 -2 0 -2 2 -2 0 -2 2 -2 0 -2 
2 -2 0 -2 2 -2 0 -2 1 -1 0 -2 2 -2 0 -2 
2 -2 0 -3 2 -2 0 -2 2 -2 0 -3 2 -2 0 -2 
2 -2 0 -2 1 -1 0 -2 2 -2 0 -3 2 -2 0 -2 
1 -1 0 -2 2 -2 0 -3 2 -2 0 -3 2 -2 0 -3 
2 -2 0 -3 2 -2 0 -3 2 -2 0 -3 2 -2 0 -2 
1 -1 0 -3 2 -2 0 -3 2 -2 0 -2 1 -1 0 -3 
2 -2 0 -2 1 -1 0 -3 2 -2 0 -2 1 -1 0 -2 
1 -1 0 -3 2 -2 0 -2 1 -1 0 -2 1 -1 0 -3 
2 -2 0 -2 1 -1 0 -2 1 -1 0 -2 1 -1 0 -3 
2 -2 0 -2 1 -1 2277 1430 300 MP stroke
0 -2 1 -1 0 -2 1 -1 0 -2 1 -1 0 -2 1 -1 
0 -2 1 -1 0 -3 2 -2 0 -2 1 -1 0 -2 1 -1 
0 -2 1 -1 0 -2 1 -1 0 -2 1 -1 0 -2 1 -1 
0 -2 1 -1 0 -2 1 -1 0 -2 1 -1 0 -2 1 -1 
0 -2 1 -1 0 -2 1 -1 0 -2 1 -1 0 -2 1 -1 
0 -2 1 -1 0 -2 1 -1 0 -2 1 -1 0 -3 1 -1 
0 -2 1 -1 0 -2 1 -1 0 -2 1 -1 0 -2 1 -1 
0 -2 1 -1 0 -2 1 -1 0 -2 1 -1 0 -2 1 -1 
0 -3 1 -1 0 -2 1 -1 0 -2 1 -1 0 -2 1 -1 
0 -2 1 -1 0 -3 1 -1 0 -2 1 -1 0 -2 1 -1 
0 -2 1 -1 0 -2 1 -1 0 -3 1 -1 0 -2 1 -1 
0 -2 1 -1 0 -2 1 -1 0 -3 1 -1 0 -2 1 -1 
0 -2 1 -1 0 -2 1 -1 0 -3 1 -1 0 -2 1 -1 
0 -2 1 -1 0 -2 1 -1 0 -3 1 -1 0 -2 1 -1 
0 -2 1 -1 0 -3 1 -1 0 -2 1 -1 0 -2 1 -1 
0 -3 1 -1 0 -2 1 -1 0 -2 1 -1 0 -3 1 -1 
0 -2 1 -1 0 -2 1 -1 0 -3 1 -1 0 -2 1 -1 
0 -2 1 -1 0 -3 1 -1 0 -2 1 -1 0 -3 1 -1 
0 -2 1 -1 0 -2 1 -1 0 -3 1 -1 0 -2 1 -1 
0 -3 1 -1 0 -2 1 -1 0 -2 1 -1 0 -3 1 -1 
0 -2 1 -1 0 -3 1 -1 0 -2 1 -1 0 -2 1 -1 
0 -3 1 -1 0 -2 1 -1 0 -3 1 -1 0 -2 1 -1 
0 -3 1 -1 0 -2 1 -1 0 -3 1 -1 0 -2 1 -1 
0 -3 1 -1 0 -2 1 -1 0 -2 1 -1 0 -3 1 -1 
0 -2 1 -1 0 -3 1 -1 0 -2 1 -1 0 -3 1 -1 
0 -2 1 -1 0 -3 1 -1 0 -2 1 -1 0 -3 1 -1 
0 -2 1 -1 0 -3 1 -1 0 -2 1 -1 0 -3 1 -1 
0 -2 1 -1 0 -3 1 -1 0 -2 1 -1 0 -3 1 -1 
0 -2 1 -1 0 -3 1 -1 0 -2 1 -1 0 -3 1 -1 
0 -2 1 -1 0 -3 1 -1 0 -2 1 -1 0 -3 1 -1 
0 -2 1 -1 0 -3 1 -1 0 -2 1 -1 0 -3 1 -1 
0 -2 1 -1 0 -3 1 -1 0 -2 1 -1 0 -3 1 -1 
0 -2 1 -1 0 -3 1 -1 0 -2 1 -1 0 -3 1 -1 
0 -2 1 -1 0 -3 1 -1 0 -2 1 -1 0 -3 1 -1 
0 -2 1 -1 0 -3 1 -1 0 -2 1 -1 0 -3 1 -1 
0 -2 1 -1 0 -3 1 -1 0 -2 1 -1 0 -3 1 -1 
0 -2 1 -1 0 -3 1 -1 0 -2 1 -1 0 -3 1 -1 
0 -2 1 -1 0 -3 2127 1931 300 MP stroke
1 -1 0 -2 1 -1 0 -3 1 -1 0 -2 1 -1 0 -3 
1 -1 0 -2 1 -1 0 -3 1 -1 0 -2 1 -1 0 -3 
1 -1 0 -2 1 -1 0 -3 1 -1 0 -2 1 -1 0 -3 
1 -1 0 -2 1 -1 0 -3 1 -1 0 -2 1 -1 0 -3 
1 -1 0 -2 1 -1 0 -3 1 -1 0 -2 1 -1 0 -2 
1 -1 0 -3 1 -1 0 -2 1 -1 0 -3 1 -1 0 -2 
1 -1 0 -3 1 -1 0 -2 1 -1 0 -3 1 -1 0 -2 
1 -1 0 -2 1 -1 0 -3 1 -1 0 -2 1 -1 0 -3 
1 -1 0 -2 1 -1 0 -3 1 -1 0 -2 1 -1 0 -2 
1 -1 0 -3 1 -1 0 -2 1 -1 0 -3 1 -1 0 -2 
1 -1 0 -2 1 -1 0 -3 1 -1 0 -2 1 -1 0 -2 
1 -1 0 -3 1 -1 0 -2 1 -1 0 -3 1 -1 0 -2 
1 -1 0 -2 1 -1 0 -3 1 -1 0 -2 1 -1 0 -2 
1 -1 0 -3 1 -1 0 -2 1 -1 0 -2 1 -1 0 -3 
1 -1 0 -2 1 -1 0 -2 1 -1 0 -3 1 -1 0 -2 
1 -1 0 -2 1 -1 0 -2 1 -1 0 -3 1 -1 0 -2 
1 -1 0 -2 1 -1 0 -3 1 -1 0 -2 1 -1 0 -2 
1 -1 0 -2 1 -1 0 -3 1 -1 0 -2 1 -1 0 -2 
1 -1 0 -2 1 -1 0 -3 1 -1 0 -2 1 -1 0 -2 
1 -1 0 -2 1 -1 0 -3 1 -1 0 -2 1 -1 0 -2 
1 -1 0 -2 1 -1 0 -2 1 -1 0 -2 1 -1 0 -3 
1 -1 0 -2 1 -1 0 -2 1 -1 0 -2 1 -1 0 -2 
1 -1 0 -2 1 -1 0 -3 1 -1 0 -2 1 -1 0 -2 
1 -1 0 -2 1 -1 0 -2 1 -1 0 -2 1 -1 0 -2 
1 -1 0 -2 1 -1 0 -3 1 -1 0 -2 1 -1 0 -2 
1 -1 0 -2 1 -1 0 -2 1 -1 0 -2 1 -1 0 -2 
1 -1 0 -2 1 -1 0 -2 1 -1 0 -2 1 -1 0 -2 
1 -1 0 -2 1 -1 0 -2 1 -1 0 -2 1 -1 0 -2 
1 -1 0 -2 1 -1 0 -2 1 -1 0 -2 1 -1 0 -2 
1 -1 0 -2 1 -1 0 -2 1 -1 0 -2 1 -1 0 -2 
1 -1 0 -2 1 -1 0 -2 1 -1 0 -2 1 -1 0 -3 
2 -2 0 -2 1 -1 0 -2 1 -1 0 -2 1 -1 0 -2 
1 -1 0 -2 1 -1 0 -2 1 -1 0 -3 2 -2 0 -2 
1 -1 0 -2 1 -1 0 -2 1 -1 0 -2 1 -1 0 -3 
2 -2 0 -2 1 -1 0 -2 1 -1 0 -2 1 -1 0 -3 
2 -2 0 -2 1 -1 0 -2 1 -1 0 -3 2 -2 0 -2 
1 -1 0 -3 2 -2 0 -2 1 -1 0 -2 1 -1 0 -3 
2 -2 0 -2 1 -1 1970 2426 300 MP stroke
0 -3 2 -2 0 -2 1 -1 0 -3 2 -2 0 -3 2 -2 
0 -2 1 -1 0 -3 2 -2 0 -3 2 -2 0 -2 1 -1 
0 -3 2 -2 0 -3 2 -2 0 -3 2 -2 0 -3 2 -2 
0 -3 2 -2 0 -3 2 -2 0 -3 2 -2 0 -2 1 -1 
0 -2 2 -2 0 -3 2 -2 0 -3 2 -2 0 -2 1 -1 
0 -2 2 -2 0 -2 1 -1 0 -2 2 -2 0 -2 1 -1 
0 -2 2 -2 0 -2 1 -1 0 -2 2 -2 0 -3 2 -2 
0 -2 2 -2 0 -3 2 -2 0 -2 2 -2 0 -2 1 -1 
0 -2 2 -2 0 -2 2 -2 0 -2 1 -1 0 -2 2 -2 
0 -2 2 -2 0 -2 1 -1 0 -1 1 -1 0 -2 2 -2 
0 -2 2 -2 0 -2 2 -2 0 -2 2 -2 0 -3 2 -2 
0 -2 2 -2 0 -2 2 -2 0 -2 2 -2 0 -2 2 -2 
0 -2 2 -2 0 -2 2 -2 0 -2 2 -2 0 -1 2 -2 
0 -2 2 -2 0 -2 2 -2 0 -2 2 -2 0 -2 2 -2 
0 -1 2 -2 0 -2 2 -2 0 -2 2 -2 1 -1 0 -2 
2 -2 0 -2 2 -2 0 -1 2 -2 0 -2 2 -2 1 -1 
0 -2 2 -2 0 -1 2 -2 0 -2 2 -2 1 -1 0 -2 
2 -2 1 -1 0 -2 2 -2 0 -1 2 -2 1 -1 0 -2 
2 -2 0 -1 2 -2 1 -1 0 -2 2 -2 0 -1 2 -2 
0 -1 2 -2 0 -1 2 -2 0 -1 2 -2 0 -1 2 -2 
0 -1 2 -2 0 -1 2 -2 0 -1 2 -2 0 -1 2 -2 
1 -1 0 -1 2 -2 0 -1 2 -2 1 -1 0 -1 2 -2 
0 -1 2 -2 1 -1 0 -1 2 -2 1 -1 0 -1 2 -2 
1 -1 1 -1 0 -1 2 -2 1 -1 0 -1 2 -2 1 -1 
1 -1 0 -1 2 -2 1 -1 1 -1 0 -1 2 -2 1 -1 
1 -1 1 -1 0 -1 2 -2 1 -1 1 -1 1 -1 1 -1 
0 -1 2 -2 1 -1 1 -1 1 -1 1 -1 1 -1 0 -1 
2 -2 1 -1 1 -1 1 -1 1 -1 1 -1 1 -1 1 -1 
1 -1 1 -1 1 -1 1 -1 1 -1 1 -1 1 -1 1 -1 
1 -1 1 -1 1 -1 1 -1 1 -1 1 -1 1 -1 1 -1 
1 -1 1 -1 1 -1 1 -1 1 -1 1 -1 1 -1 1 -1 
1 -1 1 -1 1 -1 1 -1 1 0 1 -1 1 -1 1 -1 
1 -1 1 -1 1 -1 1 -1 1 0 1 -1 1 -1 1 -1 
1 -1 1 -1 1 -1 1 0 1 -1 1 -1 1 -1 1 -1 
1 0 1 -1 1 -1 1 -1 1 0 1 -1 1 -1 1 -1 
1 -1 1 0 1 -1 1 -1 1 -1 1 0 1 -1 1 -1 
1 0 1 -1 1 -1 1 -1 1 0 1 -1 1 -1 1 0 
1 -1 1 -1 1 0 1683 2878 300 MP stroke
1 -1 1 -1 1 0 1 -1 1 -1 1 0 1 -1 1 -1 
1 0 1 -1 1 0 1 -1 1 -1 1 0 1 -1 1 -1 
1 0 1 -1 1 0 1 -1 1 0 1 -1 1 -1 1 0 
1 -1 1 0 1 -1 1 0 1 -1 1 -1 1 0 1 -1 
1 0 1 -1 1 0 1 -1 1 0 1 -1 1 0 1 -1 
1 0 1 -1 1 0 1 -1 1 0 1 -1 1 0 1 -1 
1 0 1 -1 1 0 1 -1 1 0 1 -1 1 0 1 -1 
1 0 1 0 1 -1 1 0 1 -1 1 0 1 -1 1 0 
1 -1 1 0 1 0 1 -1 1 0 1 -1 1 0 1 0 
1 -1 1 0 1 -1 1 0 1 0 1 -1 1 0 1 -1 
1 0 1 0 1 -1 1 0 1 0 1 -1 1 0 1 -1 
1 0 1 0 1 -1 1 0 1 0 1 -1 1 0 1 0 
1 -1 1 0 1 0 1 -1 1 0 1 0 1 -1 1 0 
1 0 1 -1 1 0 1 0 1 -1 1 0 1 0 1 0 
1 -1 1 0 1 0 1 -1 1 0 1 0 1 0 1 -1 
1 0 1 0 1 -1 1 0 1 0 1 0 1 -1 1 0 
1 0 1 0 1 -1 1 0 1 0 1 0 1 -1 1 0 
1 0 1 0 1 -1 1 0 1 0 1 0 1 -1 1 0 
1 0 1 0 1 -1 1 0 1 0 1 0 1 0 1 -1 
1 0 1 0 1 0 1 0 1 -1 1 0 1 0 1 0 
1 0 1 -1 1 0 1 0 1 0 1 0 1 -1 1 0 
1 0 1 0 1 0 1 -1 1 0 1 0 1 0 1 0 
1 0 1 -1 1 0 1 0 1 0 1 0 1 0 1 -1 
1 0 1 0 1 0 1 0 1 0 1 -1 1 0 1 0 
1 0 1 0 1 0 1 -1 1 0 1 0 1 0 1 0 
1 0 1 0 1 -1 1 0 1 0 1 0 1 0 1 0 
1 0 1 0 1 -1 1 0 1 0 1 0 1 0 1 0 
1 0 1 0 1 -1 1 0 1 0 1 0 1 0 1 0 
1 0 1 0 1 -1 1 0 1 0 1 0 1 0 1 0 
1 0 1 0 1 0 1 0 1 -1 1 0 1 0 1 0 
1 0 1 0 1 0 1 0 1 0 1 0 1 -1 1 0 
1 0 1 0 1 0 1 0 1 0 1 0 1 0 1 0 
1 0 1 -1 1 0 1 0 1 0 1 0 1 0 1 0 
1 0 1 0 1 0 1 0 1 0 1 0 1 -1 1 0 
1 0 1 0 1 0 1 0 1 0 1 0 1 0 1 0 
1 0 1 0 1 0 1 0 1 -1 1 0 1 0 1 0 
1 0 1 0 1 0 1 0 1 0 1 0 1 0 1 0 
1 0 1 0 1 0 1384 2958 300 MP stroke
1 0 1 0 1 -1 1 0 1 0 1 0 1 0 1 0 
1 0 1 0 1 0 1 0 1 0 1 0 1 0 1 0 
1 0 1 0 1 0 1 0 1 0 1 0 1 -1 1 0 
1 0 1 0 1 0 1 0 1 0 1 0 1 0 1 0 
1 0 1 0 1 0 1 0 1 0 1 0 1 0 1 0 
1 0 1 0 1 0 1 0 1 0 1 0 1 0 1 0 
1 -1 1 0 1 0 1 0 1 0 1 0 1 0 1 0 
1 0 1 0 1 0 1 0 1 0 1 0 1 0 1 0 
1 0 1 0 1 0 1 0 1 0 1 0 1 0 1 0 
1 0 1 0 1 0 1 0 1 0 1 0 1 0 1 0 
1 0 1 0 1 0 1 -1 1 0 1 0 1 0 1 0 
1 0 1 0 1 0 1 0 1 0 1 0 1 0 1 0 
1 0 1 0 1 0 1 0 1 0 1 0 1 0 1 0 
1 0 1 0 1 0 1 0 1 0 1 0 1 0 1 0 
1 0 1 0 1 0 1 0 1 0 1 0 1 0 1 0 
1 0 1 0 1 0 1 0 1 0 1 0 1 0 1 0 
1 0 1 0 1 0 1 0 1 0 1 0 1 0 1 0 
1 0 1 0 1 0 1 0 1 0 1 -1 1 0 1 0 
1 0 1 0 1 0 1 0 1 0 1 0 1 0 1 0 
1 0 1 0 1 0 1 0 1 0 1 0 1 0 1 0 
1 0 1 0 1 0 1 0 1 0 1 0 1 0 1 0 
1 0 1 0 1 0 1 0 1 0 1 0 1 0 1 0 
1 0 1 0 1 0 1 0 1 0 1 0 1 0 1 0 
1 0 1 0 1 0 1 0 1 0 1 0 1 0 1 0 
1 0 1 0 1 0 1 0 1 0 1 0 1 0 1 0 
1 0 1 0 1 0 1 0 1 0 1 0 1 0 1 0 
1 0 1 0 1 0 1 0 1 0 1 0 1 0 1 0 
1 0 1 0 1 0 1 0 1 0 1 0 1 0 1 0 
1 0 1 0 1 0 1 0 1 0 1 0 1 0 1 0 
1 0 1 0 1 0 1 0 1 0 1 0 1 0 1 0 
1 0 1 0 1 0 1 0 1 0 1 0 1 0 1 0 
1 0 1 0 1 0 1 0 1 0 1 0 1 0 1 0 
1 0 1 0 1 0 1 0 1 0 1 0 1 0 1 0 
1 0 1 0 1 0 1 0 1 0 1 0 1 0 1 0 
1 0 1 0 1 0 1 0 1 0 1 0 1 0 1 0 
1 0 1 0 1 0 1 0 1 0 1 0 1 0 1 0 
1 0 1 0 1 0 1 0 1 0 1 0 1 0 1 0 
1 0 1 0 1 0 1085 2963 300 MP stroke
1 0 1 0 1 0 1 0 1 0 1 0 1 0 1 0 
1 0 1 0 1 0 1 0 1 0 1 0 1 0 1 0 
1 0 1 0 1 0 1 0 1 0 1 0 1 0 1 0 
1 0 1 0 1 0 1 0 1 0 1 0 1 0 1 0 
1 0 1 0 1 0 1 0 1 0 1 0 1 0 1 0 
1 0 1 0 1 0 1 0 1 0 1 0 1 0 1 0 
1 0 1 0 1 0 1 0 1 0 1 0 1 0 1 0 
1 0 1 0 1 0 1 0 1 0 1 0 1 0 1 0 
1 0 1 0 1 0 1 0 1 0 1 0 1 0 1 0 
1 0 1 0 1 0 1 0 1 0 1 0 1 0 1 0 
1 0 1 0 1 0 1 0 1 0 1 0 1 0 1 0 
1 0 1 0 1 0 1 0 1 0 1 0 1 0 1 0 
1 0 1 0 1 0 1 0 1 0 1 0 1 0 1 0 
1 0 1 0 1 0 1 0 1 0 1 0 1 0 1 0 
1 0 1 0 1 0 1 0 1 0 1 0 1 0 1 0 
1 0 1 0 1 0 1 0 1 0 1 0 1 0 1 0 
1 0 1 0 1 0 1 0 1 0 1 0 1 0 1 0 
1 0 1 0 1 0 1 0 1 0 1 0 1 0 1 0 
1 0 1 0 1 0 1 0 1 0 1 0 1 0 1 0 
1 0 1 0 1 0 1 0 1 0 1 0 1 0 1 0 
1 0 1 0 1 0 1 0 1 0 1 0 1 0 1 0 
1 0 1 0 1 0 1 0 1 0 1 0 1 0 1 0 
1 0 1 0 1 0 1 0 1 0 1 0 1 0 1 0 
1 0 1 0 1 0 1 0 1 0 896 2963 190 MP stroke
/c10 { 1.000000 0.000000 0.000000 sr} bdef
c10
1 0 1 0 1 0 1 0 1 0 1 0 1 0 1 0 
1 0 1 0 1 0 1 0 1 0 1 0 1 0 1 0 
1 0 1 0 1 0 1 0 1 0 1 0 1 0 1 0 
1 0 1 0 1 0 1 0 1 0 1 0 1 0 1 0 
1 0 1 0 1 0 1 0 1 0 1 0 1 0 1 0 
1 0 1 0 1 0 1 0 1 0 1 0 1 0 1 0 
1 0 1 0 1 0 1 0 1 0 1 0 1 0 1 0 
1 0 1 0 1 0 1 0 1 0 1 0 1 0 1 0 
1 0 1 0 1 0 1 0 1 0 1 0 1 0 1 0 
1 0 1 0 1 0 1 0 1 0 1 0 1 0 1 0 
1 0 1 0 1 0 1 0 1 0 1 0 1 0 1 0 
1 0 1 0 1 0 1 0 1 0 1 0 1 0 1 0 
1 0 1 0 1 0 1 0 1 0 1 0 1 0 1 0 
1 0 1 0 1 0 1 0 1 0 1 0 1 0 1 0 
1 0 1 0 1 0 1 0 1 0 1 0 1 0 1 0 
1 0 1 0 1 0 1 0 1 0 1 0 1 0 1 0 
1 0 1 0 1 0 1 0 1 0 1 0 1 0 1 0 
1 0 1 0 1 0 1 0 1 0 1 0 1 0 1 0 
1 0 1 0 1 0 1 0 1 0 1 0 1 0 1 0 
1 0 1 0 1 0 1 0 1 0 1 0 1 0 1 0 
1 0 1 0 1 0 1 0 1 0 1 0 1 0 1 0 
1 0 1 0 1 0 1 0 1 0 1 0 1 0 1 0 
1 0 1 0 1 0 1 0 1 0 1 0 1 0 1 0 
1 0 1 0 1 0 1 0 1 0 1 0 1 0 1 0 
1 0 1 0 1 0 1 0 1 0 1 0 1 0 1 0 
1 0 1 0 1 0 1 0 1 0 1 0 1 0 1 0 
1 0 1 0 1 0 1 0 1 0 1 0 1 0 1 0 
1 0 1 0 1 0 1 0 1 0 1 0 1 0 1 0 
1 0 1 0 1 0 1 0 1 0 1 0 1 0 1 0 
1 0 1 0 1 0 1 0 1 0 1 0 1 0 1 0 
1 0 1 0 1 0 1 0 1 0 1 0 1 0 1 0 
1 0 1 0 1 0 1 0 1 0 1 0 1 0 1 0 
1 0 1 0 1 0 1 0 1 0 1 0 1 0 1 0 
1 0 1 0 1 0 1 0 1 0 1 0 1 0 1 0 
1 0 1 0 1 0 1 0 1 0 1 0 1 0 1 0 
1 0 1 0 1 0 1 0 1 0 1 0 1 0 1 0 
1 0 1 0 1 0 1 0 1 0 1 0 1 0 1 0 
1 0 1 0 1 0 3459 2963 300 MP stroke
1 0 1 0 1 0 1 0 1 0 1 0 1 0 1 0 
1 0 1 0 1 0 1 0 1 0 1 0 1 0 1 0 
1 0 1 0 1 0 1 0 1 0 1 0 1 0 1 0 
1 0 1 0 1 0 1 0 1 0 1 0 1 0 1 0 
1 0 1 0 1 0 1 0 1 0 1 0 1 0 1 0 
1 0 1 0 1 0 1 0 1 0 1 0 1 0 1 0 
1 0 1 0 1 0 1 0 1 0 1 0 1 0 1 0 
1 0 1 0 1 0 1 0 1 0 1 0 1 0 1 0 
1 0 1 0 1 0 1 0 1 0 1 0 1 0 1 0 
1 0 1 0 1 0 1 0 1 0 1 0 1 0 1 0 
1 0 1 0 1 0 1 0 1 0 1 0 1 0 1 0 
1 0 1 0 1 0 1 0 1 0 1 0 1 0 1 0 
1 0 1 0 1 0 1 0 1 0 1 0 1 0 1 0 
1 0 1 0 1 0 1 0 1 0 1 0 1 0 1 0 
1 0 1 0 1 0 1 0 1 0 1 0 1 0 1 0 
1 0 1 0 1 0 1 0 1 0 1 0 1 0 1 0 
1 0 1 0 1 0 1 0 1 0 1 0 1 0 1 0 
1 0 1 0 1 0 1 0 1 0 1 0 1 0 1 0 
1 0 1 0 1 0 1 0 1 0 1 0 1 0 1 0 
1 0 1 0 1 0 1 0 1 0 1 0 1 0 1 0 
1 0 1 0 1 0 1 0 1 0 1 1 1 0 1 0 
1 0 1 0 1 0 1 0 1 0 1 0 1 0 1 0 
1 0 1 0 1 0 1 0 1 0 1 0 1 0 1 0 
1 0 1 0 1 0 1 0 1 0 1 0 1 0 1 0 
1 0 1 0 1 0 1 0 1 0 1 0 1 0 1 0 
1 0 1 0 1 0 1 0 1 0 1 0 1 0 1 0 
1 0 1 0 1 0 1 0 1 1 1 0 1 0 1 0 
1 0 1 0 1 0 1 0 1 0 1 0 1 0 1 0 
1 0 1 0 1 0 1 0 1 0 1 0 1 0 1 0 
1 0 1 0 1 0 1 0 1 0 1 0 1 0 1 0 
1 1 1 0 1 0 1 0 1 0 1 0 1 0 1 0 
1 0 1 0 1 0 1 0 1 0 1 0 1 0 1 0 
1 0 1 0 1 0 1 0 1 0 1 1 1 0 1 0 
1 0 1 0 1 0 1 0 1 0 1 0 1 0 1 0 
1 0 1 0 1 0 1 0 1 0 1 1 1 0 1 0 
1 0 1 0 1 0 1 0 1 0 1 0 1 0 1 0 
1 0 1 0 1 0 1 1 1 0 1 0 1 0 1 0 
1 0 1 0 1 0 3160 2957 300 MP stroke
1 0 1 0 1 0 1 0 1 1 1 0 1 0 1 0 
1 0 1 0 1 0 1 0 1 0 1 0 1 1 1 0 
1 0 1 0 1 0 1 0 1 0 1 0 1 0 1 1 
1 0 1 0 1 0 1 0 1 0 1 0 1 0 1 1 
1 0 1 0 1 0 1 0 1 0 1 0 1 0 1 1 
1 0 1 0 1 0 1 0 1 0 1 0 1 1 1 0 
1 0 1 0 1 0 1 0 1 1 1 0 1 0 1 0 
1 0 1 0 1 1 1 0 1 0 1 0 1 0 1 0 
1 1 1 0 1 0 1 0 1 0 1 1 1 0 1 0 
1 0 1 0 1 1 1 0 1 0 1 0 1 0 1 1 
1 0 1 0 1 0 1 1 1 0 1 0 1 0 1 1 
1 0 1 0 1 0 1 1 1 0 1 0 1 0 1 1 
1 0 1 0 1 0 1 1 1 0 1 0 1 0 1 1 
1 0 1 0 1 1 1 0 1 0 1 0 1 1 1 0 
1 0 1 1 1 0 1 0 1 1 1 0 1 0 1 1 
1 0 1 0 1 1 1 0 1 0 1 1 1 0 1 0 
1 1 1 0 1 0 1 1 1 0 1 1 1 0 1 0 
1 1 1 0 1 1 1 0 1 0 1 1 1 0 1 1 
1 0 1 0 1 1 1 0 1 1 1 0 1 1 1 0 
1 1 1 0 1 0 1 1 1 0 1 1 1 0 1 1 
1 0 1 1 1 0 1 1 1 0 1 1 1 0 1 1 
1 0 1 1 1 1 1 0 1 1 1 0 1 1 1 0 
1 1 1 0 1 1 1 1 1 0 1 1 1 0 1 1 
1 1 1 0 1 1 1 1 1 0 1 1 1 0 1 1 
1 1 1 0 1 1 1 1 1 0 1 1 1 1 1 1 
1 0 1 1 1 1 1 0 1 1 1 1 1 1 1 0 
1 1 1 1 1 1 1 0 1 1 1 1 1 1 1 1 
1 0 1 1 1 1 1 1 1 1 1 1 1 0 1 1 
1 1 1 1 1 1 1 1 1 1 1 1 1 1 1 0 
1 1 1 1 1 1 1 1 1 1 1 1 1 1 1 1 
1 1 1 1 1 1 1 1 1 1 1 1 1 1 1 1 
1 1 1 1 1 1 0 1 2 2 1 1 1 1 1 1 
1 1 1 1 1 1 0 1 2 2 1 1 1 1 1 1 
0 1 2 2 1 1 1 1 1 1 0 1 2 2 1 1 
1 1 0 1 2 2 1 1 0 1 2 2 1 1 0 1 
2 2 1 1 0 1 2 2 0 1 2 2 1 1 0 1 
2 2 0 1 2 2 0 1 2 2 0 1 2 2 0 1 
2 2 0 1 2 2 2861 2787 300 MP stroke
0 1 2 2 0 1 2 2 1 1 0 2 2 2 1 1 
0 2 2 2 1 1 0 2 2 2 1 1 0 2 2 2 
0 1 2 2 0 2 2 2 1 1 0 2 2 2 0 2 
2 2 1 1 0 2 2 2 0 2 2 2 0 2 2 2 
1 1 0 2 2 2 0 2 2 2 0 2 2 2 0 2 
2 2 0 2 2 2 0 2 2 2 0 2 2 2 0 2 
1 1 0 2 2 2 0 2 2 2 0 2 2 2 0 3 
2 2 0 2 2 2 0 3 2 2 0 2 2 2 0 2 
1 1 0 2 2 2 0 2 1 1 0 2 2 2 0 2 
1 1 0 2 2 2 0 3 2 2 0 3 2 2 0 3 
2 2 0 3 2 2 0 3 2 2 0 3 2 2 0 2 
1 1 0 3 2 2 0 3 2 2 0 2 1 1 0 3 
2 2 0 2 1 1 0 2 1 1 0 3 2 2 0 2 
1 1 0 2 1 1 0 3 2 2 0 2 1 1 0 2 
1 1 0 2 1 1 0 2 1 1 0 2 1 1 0 3 
2 2 0 2 1 1 0 2 1 1 0 2 1 1 0 2 
1 1 0 2 1 1 0 2 1 1 0 2 1 1 0 2 
1 1 0 2 1 1 0 2 1 1 0 2 1 1 0 2 
1 1 0 2 1 1 0 3 1 1 0 2 1 1 0 2 
1 1 0 2 1 1 0 2 1 1 0 2 1 1 0 3 
1 1 0 2 1 1 0 2 1 1 0 2 1 1 0 2 
1 1 0 3 1 1 0 2 1 1 0 2 1 1 0 3 
1 1 0 2 1 1 0 2 1 1 0 3 1 1 0 2 
1 1 0 2 1 1 0 3 1 1 0 2 1 1 0 3 
1 1 0 2 1 1 0 3 1 1 0 2 1 1 0 3 
1 1 0 2 1 1 0 3 1 1 0 2 1 1 0 3 
1 1 0 2 1 1 0 3 1 1 0 2 1 1 0 3 
1 1 0 3 1 1 0 2 1 1 0 3 1 1 0 3 
1 1 0 2 1 1 0 3 1 1 0 3 1 1 0 2 
1 1 0 3 1 1 0 3 1 1 0 3 1 1 0 2 
1 1 0 3 1 1 0 3 1 1 0 3 1 1 0 3 
1 1 0 3 1 1 0 2 1 1 0 3 1 1 0 3 
1 1 0 3 1 1 0 3 1 1 0 3 1 1 0 3 
1 1 0 3 1 1 0 3 1 1 0 3 1 1 0 3 
1 1 0 3 1 1 0 3 1 1 0 3 1 1 0 3 
1 1 0 3 1 1 0 3 1 1 0 3 1 1 0 4 
1 1 0 3 1 1 0 3 1 1 0 3 1 1 0 3 
1 1 0 3 1 1 2666 2239 300 MP stroke
0 4 1 1 0 3 1 1 0 3 1 1 0 3 1 1 
0 4 1 1 0 3 1 1 0 3 1 1 0 3 1 1 
0 4 1 1 0 3 1 1 0 3 1 1 0 4 1 1 
0 3 1 1 0 3 1 1 0 4 1 1 0 3 1 1 
0 4 1 1 0 3 1 1 0 4 1 1 0 3 1 1 
0 3 1 1 0 4 1 1 0 3 1 1 0 4 1 1 
0 3 1 1 0 4 1 1 0 3 1 1 0 4 1 1 
0 4 1 1 0 3 1 1 0 4 1 1 0 3 1 1 
0 4 1 1 0 4 1 1 0 3 1 1 0 4 1 1 
0 3 1 1 0 4 1 1 0 4 1 1 0 3 1 1 
0 4 1 1 0 4 1 1 0 4 1 1 0 3 1 1 
0 4 1 1 0 4 1 1 0 4 1 1 0 3 1 1 
0 4 1 1 0 4 1 1 0 4 1 1 0 3 1 1 
0 4 1 1 0 4 1 1 0 4 1 1 0 4 1 1 
0 4 1 1 0 4 1 1 0 3 1 1 0 4 1 1 
0 4 1 1 0 4 1 1 0 4 1 1 0 4 1 1 
0 4 1 1 0 4 1 1 0 4 1 1 0 4 1 1 
0 4 1 1 0 4 1 1 0 3 1 1 0 4 1 1 
0 4 1 1 0 4 1 1 0 4 1 1 0 4 1 1 
0 4 1 1 0 5 1 1 0 4 1 1 0 4 1 1 
0 4 1 1 0 4 1 1 0 4 1 1 0 4 1 1 
0 4 1 1 0 4 1 1 0 4 1 1 0 4 1 1 
0 4 1 1 0 4 1 1 0 4 1 1 0 5 1 1 
0 4 1 1 0 4 1 1 0 4 1 1 0 4 1 1 
0 4 1 1 0 4 1 1 0 4 1 1 0 5 1 1 
0 4 1 1 0 4 1 1 0 4 1 1 0 4 1 1 
0 4 1 1 0 5 1 1 0 4 1 1 0 4 1 1 
0 4 1 1 0 4 1 1 0 4 1 1 0 5 1 1 
0 4 1 1 0 4 1 1 0 4 1 1 0 4 1 1 
0 5 1 1 0 4 1 1 0 4 1 1 0 4 1 1 
0 4 1 1 0 5 1 1 0 4 1 1 0 4 1 1 
0 4 1 1 0 4 1 1 0 5 1 1 0 4 1 1 
0 4 1 1 0 4 1 1 0 4 1 1 0 5 1 1 
0 4 1 1 0 4 1 1 0 4 1 1 0 4 1 1 
0 5 1 1 0 4 1 1 0 4 1 1 0 4 1 1 
0 4 1 1 0 5 1 1 0 4 1 1 0 4 1 1 
0 4 1 1 0 4 1 1 0 5 1 1 0 4 1 1 
0 4 1 1 0 4 2517 1505 300 MP stroke
1 1 0 4 1 1 0 4 1 1 0 4 1 1 0 5 
1 1 0 4 1 1 0 4 1 1 0 4 1 1 0 4 
1 1 0 4 1 1 0 4 1 1 0 5 1 1 0 4 
1 1 0 4 1 1 0 4 1 1 0 4 1 1 0 4 
1 1 0 4 1 1 0 4 1 1 0 4 1 1 0 4 
1 1 0 4 1 1 0 4 1 1 0 5 1 1 0 4 
1 1 0 4 1 1 0 4 1 1 0 4 1 1 0 4 
1 1 0 4 1 1 0 4 1 1 0 4 1 1 0 4 
1 1 0 3 1 1 0 4 1 1 0 4 1 1 0 4 
1 1 0 4 1 1 0 4 1 1 0 4 1 1 0 4 
1 1 0 4 1 1 0 4 1 1 0 4 1 1 0 3 
1 1 0 4 1 1 0 4 1 1 0 4 1 1 0 4 
1 1 0 3 1 1 0 4 1 1 0 4 1 1 0 4 
1 1 0 3 1 1 0 4 1 1 0 4 1 1 0 4 
1 1 0 3 1 1 0 4 1 1 0 4 1 1 0 3 
1 1 0 4 1 1 0 3 1 1 0 4 1 1 0 4 
1 1 0 3 1 1 0 4 1 1 0 3 1 1 0 4 
1 1 0 3 1 1 0 4 1 1 0 3 1 1 0 4 
1 1 0 3 1 1 0 4 1 1 0 3 1 1 0 3 
1 1 0 4 1 1 0 3 1 1 0 4 1 1 0 3 
1 1 0 3 1 1 0 3 1 1 0 4 1 1 0 3 
1 1 0 3 1 1 0 3 1 1 0 4 1 1 0 3 
1 1 0 3 1 1 0 3 1 1 0 3 1 1 0 3 
1 1 0 3 1 1 0 4 1 1 0 3 1 1 0 3 
1 1 0 3 1 1 0 3 1 1 0 3 1 1 0 2 
1 1 0 3 1 1 0 3 1 1 0 3 1 1 0 3 
1 1 0 3 1 1 0 3 1 1 0 2 1 1 0 3 
1 1 0 3 1 1 0 3 1 1 0 2 1 1 0 3 
1 1 0 3 1 1 0 2 1 1 0 3 1 1 0 3 
1 1 0 2 1 1 0 3 1 1 0 2 1 1 0 3 
1 1 0 2 1 1 0 3 1 1 0 2 1 1 0 2 
1 1 0 3 1 1 0 2 1 1 0 2 1 1 0 3 
1 1 0 2 1 1 0 2 1 1 0 3 1 1 0 2 
1 1 0 2 1 1 0 2 1 1 0 2 1 1 0 2 
1 1 0 2 1 1 0 2 1 1 0 2 1 1 0 2 
1 1 0 2 1 1 0 2 1 1 0 2 1 1 0 2 
1 1 0 2 1 1 0 3 2 2 0 2 1 1 0 2 
1 1 0 3 2 2 2365 865 300 MP stroke
0 2 1 1 0 3 2 2 0 3 2 2 0 3 2 2 
0 3 2 2 0 2 1 1 0 2 2 2 0 3 2 2 
0 2 2 2 0 2 1 1 0 2 2 2 0 2 2 2 
0 2 2 2 0 2 2 2 0 2 2 2 0 2 2 2 
0 1 2 2 0 2 2 2 0 1 2 2 1 1 0 2 
2 2 0 1 2 2 1 1 0 1 2 2 0 1 2 2 
1 1 1 1 1 1 0 1 2 2 1 1 1 1 1 1 
1 1 1 1 1 1 1 1 1 1 1 1 1 0 1 1 
1 1 1 1 1 0 1 1 1 1 1 0 1 1 1 1 
1 0 1 1 1 0 1 0 1 1 1 0 1 0 1 1 
1 0 1 0 1 0 1 0 1 1 1 0 1 0 1 0 
1 0 1 0 1 -1 1 0 1 0 1 0 1 0 1 0 
1 -1 1 0 1 0 1 -1 1 0 1 -1 1 0 1 -1 
1 0 1 -1 1 -1 1 0 1 -1 1 -1 1 0 1 -1 
1 -1 1 -1 1 -1 1 -1 1 -1 1 -1 1 -1 1 -1 
1 -1 1 -1 1 -1 1 -1 0 -1 2 -2 1 -1 1 -1 
0 -1 2 -2 0 -1 2 -2 0 -1 2 -2 0 -1 2 -2 
1 -1 0 -2 2 -2 0 -1 2 -2 0 -2 2 -2 1 -1 
0 -2 2 -2 0 -2 2 -2 0 -2 2 -2 0 -2 2 -2 
0 -2 2 -2 0 -2 2 -2 0 -3 2 -2 0 -2 2 -2 
0 -3 2 -2 0 -2 1 -1 0 -2 2 -2 0 -3 2 -2 
0 -3 2 -2 0 -2 1 -1 0 -3 2 -2 0 -2 1 -1 
0 -3 2 -2 0 -2 1 -1 0 -2 1 -1 0 -2 1 -1 
0 -3 2 -2 0 -2 1 -1 0 -2 1 -1 0 -2 1 -1 
0 -2 1 -1 0 -2 1 -1 0 -2 1 -1 0 -2 1 -1 
0 -2 1 -1 0 -2 1 -1 0 -3 1 -1 0 -2 1 -1 
0 -2 1 -1 0 -2 1 -1 0 -2 1 -1 0 -3 1 -1 
0 -2 1 -1 0 -2 1 -1 0 -3 1 -1 0 -2 1 -1 
0 -2 1 -1 0 -3 1 -1 0 -2 1 -1 0 -3 1 -1 
0 -2 1 -1 0 -3 1 -1 0 -2 1 -1 0 -3 1 -1 
0 -2 1 -1 0 -3 1 -1 0 -2 1 -1 0 -3 1 -1 
0 -3 1 -1 0 -2 1 -1 0 -3 1 -1 0 -3 1 -1 
0 -3 1 -1 0 -2 1 -1 0 -3 1 -1 0 -3 1 -1 
0 -3 1 -1 0 -3 1 -1 0 -3 1 -1 0 -3 1 -1 
0 -3 1 -1 0 -2 1 -1 0 -3 1 -1 0 -3 1 -1 
0 -3 1 -1 0 -4 1 -1 0 -3 1 -1 0 -3 1 -1 
0 -3 1 -1 0 -3 1 -1 0 -3 1 -1 0 -3 1 -1 
0 -3 1 -1 0 -3 2132 1088 300 MP stroke
1 -1 0 -4 1 -1 0 -3 1 -1 0 -3 1 -1 0 -3 
1 -1 0 -4 1 -1 0 -3 1 -1 0 -3 1 -1 0 -4 
1 -1 0 -3 1 -1 0 -3 1 -1 0 -4 1 -1 0 -3 
1 -1 0 -4 1 -1 0 -3 1 -1 0 -3 1 -1 0 -4 
1 -1 0 -3 1 -1 0 -4 1 -1 0 -3 1 -1 0 -4 
1 -1 0 -4 1 -1 0 -3 1 -1 0 -4 1 -1 0 -3 
1 -1 0 -4 1 -1 0 -3 1 -1 0 -4 1 -1 0 -4 
1 -1 0 -3 1 -1 0 -4 1 -1 0 -4 1 -1 0 -4 
1 -1 0 -3 1 -1 0 -4 1 -1 0 -4 1 -1 0 -3 
1 -1 0 -4 1 -1 0 -4 1 -1 0 -4 1 -1 0 -4 
1 -1 0 -3 1 -1 0 -4 1 -1 0 -4 1 -1 0 -4 
1 -1 0 -4 1 -1 0 -4 1 -1 0 -4 1 -1 0 -3 
1 -1 0 -4 1 -1 0 -4 1 -1 0 -4 1 -1 0 -4 
1 -1 0 -4 1 -1 0 -4 1 -1 0 -4 1 -1 0 -4 
1 -1 0 -4 1 -1 0 -4 1 -1 0 -4 1 -1 0 -4 
1 -1 0 -4 1 -1 0 -4 1 -1 0 -4 1 -1 0 -4 
1 -1 0 -4 1 -1 0 -4 1 -1 0 -4 1 -1 0 -4 
1 -1 0 -4 1 -1 0 -4 1 -1 0 -4 1 -1 0 -5 
1 -1 0 -4 1 -1 0 -4 1 -1 0 -4 1 -1 0 -4 
1 -1 0 -4 1 -1 0 -4 1 -1 0 -4 1 -1 0 -5 
1 -1 0 -4 1 -1 0 -4 1 -1 0 -4 1 -1 0 -4 
1 -1 0 -4 1 -1 0 -4 1 -1 0 -5 1 -1 0 -4 
1 -1 0 -4 1 -1 0 -4 1 -1 0 -4 1 -1 0 -4 
1 -1 0 -5 1 -1 0 -4 1 -1 0 -4 1 -1 0 -4 
1 -1 0 -4 1 -1 0 -5 1 -1 0 -4 1 -1 0 -4 
1 -1 0 -4 1 -1 0 -4 1 -1 0 -5 1 -1 0 -4 
1 -1 0 -4 1 -1 0 -4 1 -1 0 -4 1 -1 0 -5 
1 -1 0 -4 1 -1 0 -4 1 -1 0 -4 1 -1 0 -4 
1 -1 0 -5 1 -1 0 -4 1 -1 0 -4 1 -1 0 -4 
1 -1 0 -4 1 -1 0 -5 1 -1 0 -4 1 -1 0 -4 
1 -1 0 -4 1 -1 0 -4 1 -1 0 -5 1 -1 0 -4 
1 -1 0 -4 1 -1 0 -4 1 -1 0 -4 1 -1 0 -5 
1 -1 0 -4 1 -1 0 -4 1 -1 0 -4 1 -1 0 -4 
1 -1 0 -4 1 -1 0 -5 1 -1 0 -4 1 -1 0 -4 
1 -1 0 -4 1 -1 0 -4 1 -1 0 -4 1 -1 0 -4 
1 -1 0 -5 1 -1 0 -4 1 -1 0 -4 1 -1 0 -4 
1 -1 0 -4 1 -1 0 -4 1 -1 0 -4 1 -1 0 -4 
1 -1 0 -4 1 -1 1982 1827 300 MP stroke
0 -5 1 -1 0 -4 1 -1 0 -4 1 -1 0 -4 1 -1 
0 -4 1 -1 0 -4 1 -1 0 -4 1 -1 0 -4 1 -1 
0 -4 1 -1 0 -4 1 -1 0 -4 1 -1 0 -4 1 -1 
0 -4 1 -1 0 -4 1 -1 0 -4 1 -1 0 -4 1 -1 
0 -4 1 -1 0 -4 1 -1 0 -4 1 -1 0 -4 1 -1 
0 -4 1 -1 0 -4 1 -1 0 -4 1 -1 0 -4 1 -1 
0 -4 1 -1 0 -3 1 -1 0 -4 1 -1 0 -4 1 -1 
0 -4 1 -1 0 -4 1 -1 0 -4 1 -1 0 -4 1 -1 
0 -4 1 -1 0 -3 1 -1 0 -4 1 -1 0 -4 1 -1 
0 -4 1 -1 0 -4 1 -1 0 -3 1 -1 0 -4 1 -1 
0 -4 1 -1 0 -4 1 -1 0 -3 1 -1 0 -4 1 -1 
0 -4 1 -1 0 -4 1 -1 0 -3 1 -1 0 -4 1 -1 
0 -4 1 -1 0 -3 1 -1 0 -4 1 -1 0 -4 1 -1 
0 -3 1 -1 0 -4 1 -1 0 -3 1 -1 0 -4 1 -1 
0 -4 1 -1 0 -3 1 -1 0 -4 1 -1 0 -3 1 -1 
0 -4 1 -1 0 -3 1 -1 0 -4 1 -1 0 -3 1 -1 
0 -4 1 -1 0 -3 1 -1 0 -4 1 -1 0 -3 1 -1 
0 -4 1 -1 0 -3 1 -1 0 -4 1 -1 0 -3 1 -1 
0 -3 1 -1 0 -4 1 -1 0 -3 1 -1 0 -3 1 -1 
0 -4 1 -1 0 -3 1 -1 0 -3 1 -1 0 -4 1 -1 
0 -3 1 -1 0 -3 1 -1 0 -4 1 -1 0 -3 1 -1 
0 -3 1 -1 0 -3 1 -1 0 -4 1 -1 0 -3 1 -1 
0 -3 1 -1 0 -3 1 -1 0 -3 1 -1 0 -3 1 -1 
0 -4 1 -1 0 -3 1 -1 0 -3 1 -1 0 -3 1 -1 
0 -3 1 -1 0 -3 1 -1 0 -3 1 -1 0 -3 1 -1 
0 -3 1 -1 0 -3 1 -1 0 -3 1 -1 0 -3 1 -1 
0 -3 1 -1 0 -3 1 -1 0 -3 1 -1 0 -3 1 -1 
0 -3 1 -1 0 -3 1 -1 0 -2 1 -1 0 -3 1 -1 
0 -3 1 -1 0 -3 1 -1 0 -3 1 -1 0 -3 1 -1 
0 -2 1 -1 0 -3 1 -1 0 -3 1 -1 0 -3 1 -1 
0 -2 1 -1 0 -3 1 -1 0 -3 1 -1 0 -3 1 -1 
0 -2 1 -1 0 -3 1 -1 0 -3 1 -1 0 -2 1 -1 
0 -3 1 -1 0 -2 1 -1 0 -3 1 -1 0 -3 1 -1 
0 -2 1 -1 0 -3 1 -1 0 -2 1 -1 0 -3 1 -1 
0 -2 1 -1 0 -3 1 -1 0 -2 1 -1 0 -3 1 -1 
0 -2 1 -1 0 -3 1 -1 0 -2 1 -1 0 -2 1 -1 
0 -3 1 -1 0 -2 1 -1 0 -2 1 -1 0 -3 1 -1 
0 -2 1 -1 0 -2 1833 2472 300 MP stroke
1 -1 0 -3 1 -1 0 -2 1 -1 0 -2 1 -1 0 -2 
1 -1 0 -3 1 -1 0 -2 1 -1 0 -2 1 -1 0 -2 
1 -1 0 -2 1 -1 0 -3 1 -1 0 -2 1 -1 0 -2 
1 -1 0 -2 1 -1 0 -2 1 -1 0 -2 1 -1 0 -2 
1 -1 0 -2 1 -1 0 -2 1 -1 0 -2 1 -1 0 -2 
1 -1 0 -2 1 -1 0 -2 1 -1 0 -2 1 -1 0 -2 
1 -1 0 -2 1 -1 0 -2 1 -1 0 -2 1 -1 0 -2 
1 -1 0 -2 1 -1 0 -2 1 -1 0 -3 2 -2 0 -2 
1 -1 0 -2 1 -1 0 -2 1 -1 0 -3 2 -2 0 -2 
1 -1 0 -2 1 -1 0 -3 2 -2 0 -2 1 -1 0 -3 
2 -2 0 -2 1 -1 0 -3 2 -2 0 -3 2 -2 0 -3 
2 -2 0 -2 1 -1 0 -3 2 -2 0 -3 2 -2 0 -2 
1 -1 0 -2 2 -2 0 -3 2 -2 0 -3 2 -2 0 -2 
1 -1 0 -2 2 -2 0 -2 1 -1 0 -2 2 -2 0 -3 
2 -2 0 -2 2 -2 0 -2 1 -1 0 -2 2 -2 0 -2 
2 -2 0 -2 1 -1 0 -2 2 -2 0 -2 2 -2 0 -2 
2 -2 0 -2 1 -1 0 -2 2 -2 0 -2 2 -2 0 -2 
2 -2 0 -2 2 -2 0 -2 2 -2 0 -2 2 -2 0 -2 
2 -2 1 -1 0 -2 2 -2 0 -2 2 -2 0 -2 2 -2 
1 -1 0 -2 2 -2 0 -2 2 -2 0 -1 2 -2 0 -2 
2 -2 1 -1 0 -2 2 -2 1 -1 0 -2 2 -2 1 -1 
0 -2 2 -2 0 -1 2 -2 1 -1 0 -2 2 -2 0 -1 
2 -2 0 -1 2 -2 0 -1 2 -2 0 -1 2 -2 0 -1 
2 -2 1 -1 0 -1 2 -2 0 -1 2 -2 0 -1 2 -2 
1 -1 0 -1 2 -2 1 -1 0 -1 2 -2 1 -1 0 -1 
2 -2 1 -1 1 -1 0 -1 2 -2 1 -1 1 -1 0 -1 
2 -2 1 -1 1 -1 1 -1 0 -1 2 -2 1 -1 1 -1 
1 -1 1 -1 0 -1 2 -2 1 -1 1 -1 1 -1 1 -1 
1 -1 1 -1 1 -1 1 -1 1 -1 1 -1 1 -1 1 -1 
1 -1 1 -1 1 -1 1 -1 1 -1 1 -1 1 -1 1 -1 
1 -1 1 -1 1 -1 1 -1 1 -1 1 -1 1 -1 1 -1 
1 -1 1 -1 1 0 1 -1 1 -1 1 -1 1 -1 1 -1 
1 -1 1 0 1 -1 1 -1 1 -1 1 -1 1 0 1 -1 
1 -1 1 -1 1 -1 1 0 1 -1 1 -1 1 -1 1 0 
1 -1 1 -1 1 0 1 -1 1 -1 1 -1 1 0 1 -1 
1 -1 1 0 1 -1 1 -1 1 0 1 -1 1 -1 1 0 
1 -1 1 0 1 -1 1 -1 1 0 1 -1 1 -1 1 0 
1 -1 1 0 1 -1 1578 2909 300 MP stroke
1 0 1 -1 1 -1 1 0 1 -1 1 0 1 -1 1 0 
1 -1 1 0 1 -1 1 0 1 -1 1 0 1 -1 1 0 
1 -1 1 0 1 -1 1 0 1 -1 1 0 1 -1 1 0 
1 -1 1 0 1 -1 1 0 1 -1 1 0 1 0 1 -1 
1 0 1 -1 1 0 1 0 1 -1 1 0 1 -1 1 0 
1 0 1 -1 1 0 1 -1 1 0 1 0 1 -1 1 0 
1 0 1 -1 1 0 1 -1 1 0 1 0 1 -1 1 0 
1 0 1 -1 1 0 1 0 1 -1 1 0 1 0 1 -1 
1 0 1 0 1 0 1 -1 1 0 1 0 1 -1 1 0 
1 0 1 0 1 -1 1 0 1 0 1 -1 1 0 1 0 
1 0 1 -1 1 0 1 0 1 0 1 -1 1 0 1 0 
1 0 1 -1 1 0 1 0 1 0 1 -1 1 0 1 0 
1 0 1 0 1 -1 1 0 1 0 1 0 1 0 1 -1 
1 0 1 0 1 0 1 0 1 -1 1 0 1 0 1 0 
1 0 1 -1 1 0 1 0 1 0 1 0 1 0 1 -1 
1 0 1 0 1 0 1 0 1 0 1 -1 1 0 1 0 
1 0 1 0 1 0 1 -1 1 0 1 0 1 0 1 0 
1 0 1 0 1 -1 1 0 1 0 1 0 1 0 1 0 
1 0 1 -1 1 0 1 0 1 0 1 0 1 0 1 0 
1 0 1 0 1 -1 1 0 1 0 1 0 1 0 1 0 
1 0 1 0 1 0 1 -1 1 0 1 0 1 0 1 0 
1 0 1 0 1 0 1 0 1 0 1 -1 1 0 1 0 
1 0 1 0 1 0 1 0 1 0 1 0 1 0 1 0 
1 0 1 -1 1 0 1 0 1 0 1 0 1 0 1 0 
1 0 1 0 1 0 1 0 1 0 1 0 1 -1 1 0 
1 0 1 0 1 0 1 0 1 0 1 0 1 0 1 0 
1 0 1 0 1 0 1 0 1 0 1 0 1 0 1 -1 
1 0 1 0 1 0 1 0 1 0 1 0 1 0 1 0 
1 0 1 0 1 0 1 0 1 0 1 0 1 0 1 0 
1 0 1 0 1 0 1 -1 1 0 1 0 1 0 1 0 
1 0 1 0 1 0 1 0 1 0 1 0 1 0 1 0 
1 0 1 0 1 0 1 0 1 0 1 0 1 0 1 0 
1 0 1 0 1 0 1 0 1 0 1 0 1 0 1 0 
1 -1 1 0 1 0 1 0 1 0 1 0 1 0 1 0 
1 0 1 0 1 0 1 0 1 0 1 0 1 0 1 0 
1 0 1 0 1 0 1 0 1 0 1 0 1 0 1 0 
1 0 1 0 1 0 1 0 1 0 1 0 1 0 1 0 
1 0 1 0 1 0 1279 2962 300 MP stroke
1 0 1 0 1 0 1 0 1 0 1 0 1 0 1 0 
1 0 1 0 1 0 1 -1 1 0 1 0 1 0 1 0 
1 0 1 0 1 0 1 0 1 0 1 0 1 0 1 0 
1 0 1 0 1 0 1 0 1 0 1 0 1 0 1 0 
1 0 1 0 1 0 1 0 1 0 1 0 1 0 1 0 
1 0 1 0 1 0 1 0 1 0 1 0 1 0 1 0 
1 0 1 0 1 0 1 0 1 0 1 0 1 0 1 0 
1 0 1 0 1 0 1 0 1 0 1 0 1 0 1 0 
1 0 1 0 1 0 1 0 1 0 1 0 1 0 1 0 
1 0 1 0 1 0 1 0 1 0 1 0 1 0 1 0 
1 0 1 0 1 0 1 0 1 0 1 0 1 0 1 0 
1 0 1 0 1 0 1 0 1 0 1 0 1 0 1 0 
1 0 1 0 1 0 1 0 1 0 1 0 1177 2963 103 MP stroke
gr

c10
0 sg
%%IncludeResource: font Helvetica
/Helvetica /WindowsLatin1Encoding 144 FMSR

2001 3270 mt 
(Decision value) s
 332 2536 mt  -90 rotate
(Relative number of examples) s
90 rotate
%%IncludeResource: font Helvetica
/Helvetica /WindowsLatin1Encoding 120 FMSR

 603 3007 mt 
( ) s
4300  292 mt 
( ) s
1 sg
0 564 981 0 0 -564 3276 874 4 MP
PP
-981 0 0 564 981 0 0 -564 3276 874 5 MP stroke
4 w
DO
SO
6 w
0 sg
3276  310 mt 4257  310 L
3276  874 mt 4257  874 L
4257  874 mt 4257  310 L
3276  874 mt 3276  310 L
3276  874 mt 4257  874 L
3276  874 mt 3276  310 L
3276  310 mt 4257  310 L
3276  874 mt 4257  874 L
4257  874 mt 4257  310 L
3276  874 mt 3276  310 L
%%IncludeResource: font Helvetica
/Helvetica /WindowsLatin1Encoding 144 FMSR

3736  468 mt 
(Right) s
gs 3276 310 982 565 rc
c8
354 0 3346 417 2 MP stroke
gr

c8
0 sg
3736  644 mt 
(Vertical) s
gs 3276 310 982 565 rc
c9
354 0 3346 592 2 MP stroke
gr

c9
0 sg
3736  819 mt 
(Left) s
gs 3276 310 982 565 rc
c10
354 0 3346 766 2 MP stroke
gr

c10
0 sg
 715 1107 mt 2433 1107 L
2433 1107 mt 2433  332 L
 715 1107 mt  715  332 L
 715  332 mt 2433  332 L
%%IncludeResource: font Helvetica
/Helvetica /WindowsLatin1Encoding 132 FMSR

 775  480 mt 
(Right,Vertical = 0.021229) s
 775  631 mt 
(Right,Left = 0.11557) s
 775  782 mt 
(Vertical,Left = 0.040917) s
 775  933 mt 
(Total = 0.17772) s

end %%Color Dict

eplot
%%EndObject

epage
end

showpage

%%Trailer
%%EOF
