%!PS-Adobe-3.0 EPSF-3.0
%%Creator: MATLAB, The MathWorks, Inc. Version 8.1.0.604 (R2013a). Operating System: Microsoft Windows 7.
%%Title: C:\Users\Jules\Desktop\codereport\CrossValOld.eps
%%CreationDate: 01/25/2015  21:48:06
%%DocumentNeededFonts: Helvetica
%%DocumentProcessColors: Cyan Magenta Yellow Black
%%LanguageLevel: 2
%%Pages: 1
%%BoundingBox:    90   250   502   592
%%EndComments

%%BeginProlog
% MathWorks dictionary
/MathWorks 160 dict begin
% definition operators
/bdef {bind def} bind def
/ldef {load def} bind def
/xdef {exch def} bdef
/xstore {exch store} bdef
% operator abbreviations
/c  /clip ldef
/cc /concat ldef
/cp /closepath ldef
/gr /grestore ldef
/gs /gsave ldef
/mt /moveto ldef
/np /newpath ldef
/cm /currentmatrix ldef
/sm /setmatrix ldef
/rm /rmoveto ldef
/rl /rlineto ldef
/s {show newpath} bdef
/sc {setcmykcolor} bdef
/sr /setrgbcolor ldef
/sg /setgray ldef
/w /setlinewidth ldef
/j /setlinejoin ldef
/cap /setlinecap ldef
/rc {rectclip} bdef
/rf {rectfill} bdef
% page state control
/pgsv () def
/bpage {/pgsv save def} bdef
/epage {pgsv restore} bdef
/bplot /gsave ldef
/eplot {stroke grestore} bdef
% orientation switch
/portraitMode 0 def /landscapeMode 1 def /rotateMode 2 def
% coordinate system mappings
/dpi2point 0 def
% font control
/FontSize 0 def
/FMS {/FontSize xstore findfont [FontSize 0 0 FontSize neg 0 0]
  makefont setfont} bdef
/ISOLatin1Encoding where {pop /WindowsLatin1Encoding 256 array bdef
ISOLatin1Encoding WindowsLatin1Encoding copy pop
/.notdef/.notdef/quotesinglbase/florin/quotedblbase/ellipsis/dagger
/daggerdbl/circumflex/perthousand/Scaron/guilsinglleft/OE/.notdef/.notdef
/.notdef/.notdef/quoteleft/quoteright/quotedblleft/quotedblright/bullet
/endash/emdash/tilde/trademark/scaron/guilsinglright/oe/.notdef/.notdef
/Ydieresis WindowsLatin1Encoding 128 32 getinterval astore pop}
{/WindowsLatin1Encoding StandardEncoding bdef} ifelse
/reencode {exch dup where {pop load} {pop StandardEncoding} ifelse
  exch dup 3 1 roll findfont dup length dict begin
  { 1 index /FID ne {def}{pop pop} ifelse } forall
  /Encoding exch def currentdict end definefont pop} bdef
/isroman {findfont /CharStrings get /Agrave known} bdef
/FMSR {3 1 roll 1 index dup isroman {reencode} {pop pop} ifelse
  exch FMS} bdef
/csm {1 dpi2point div -1 dpi2point div scale neg translate
 dup landscapeMode eq {pop -90 rotate}
  {rotateMode eq {90 rotate} if} ifelse} bdef
% line types: solid, dotted, dashed, dotdash
/SO { [] 0 setdash } bdef
/DO { [.5 dpi2point mul 4 dpi2point mul] 0 setdash } bdef
/DA { [6 dpi2point mul] 0 setdash } bdef
/DD { [.5 dpi2point mul 4 dpi2point mul 6 dpi2point mul 4
  dpi2point mul] 0 setdash } bdef
% macros for lines and objects
/L {lineto stroke} bdef
/MP {3 1 roll moveto 1 sub {rlineto} repeat} bdef
/AP {{rlineto} repeat} bdef
/PDlw -1 def
/W {/PDlw currentlinewidth def setlinewidth} def
/PP {closepath eofill} bdef
/DP {closepath stroke} bdef
/MR {4 -2 roll moveto dup  0 exch rlineto exch 0 rlineto
  neg 0 exch rlineto closepath} bdef
/FR {MR stroke} bdef
/PR {MR fill} bdef
/L1i {{currentfile picstr readhexstring pop} image} bdef
/tMatrix matrix def
/MakeOval {newpath tMatrix currentmatrix pop translate scale
0 0 1 0 360 arc tMatrix setmatrix} bdef
/FO {MakeOval stroke} bdef
/PO {MakeOval fill} bdef
/PD {currentlinewidth 2 div 0 360 arc fill
   PDlw -1 eq not {PDlw w /PDlw -1 def} if} def
/FA {newpath tMatrix currentmatrix pop translate scale
  0 0 1 5 -2 roll arc tMatrix setmatrix stroke} bdef
/PA {newpath tMatrix currentmatrix pop	translate 0 0 moveto scale
  0 0 1 5 -2 roll arc closepath tMatrix setmatrix fill} bdef
/FAn {newpath tMatrix currentmatrix pop translate scale
  0 0 1 5 -2 roll arcn tMatrix setmatrix stroke} bdef
/PAn {newpath tMatrix currentmatrix pop translate 0 0 moveto scale
  0 0 1 5 -2 roll arcn closepath tMatrix setmatrix fill} bdef
/vradius 0 def /hradius 0 def /lry 0 def
/lrx 0 def /uly 0 def /ulx 0 def /rad 0 def
/MRR {/vradius xdef /hradius xdef /lry xdef /lrx xdef /uly xdef
  /ulx xdef newpath tMatrix currentmatrix pop ulx hradius add uly
  vradius add translate hradius vradius scale 0 0 1 180 270 arc 
  tMatrix setmatrix lrx hradius sub uly vradius add translate
  hradius vradius scale 0 0 1 270 360 arc tMatrix setmatrix
  lrx hradius sub lry vradius sub translate hradius vradius scale
  0 0 1 0 90 arc tMatrix setmatrix ulx hradius add lry vradius sub
  translate hradius vradius scale 0 0 1 90 180 arc tMatrix setmatrix
  closepath} bdef
/FRR {MRR stroke } bdef
/PRR {MRR fill } bdef
/MlrRR {/lry xdef /lrx xdef /uly xdef /ulx xdef /rad lry uly sub 2 div def
  newpath tMatrix currentmatrix pop ulx rad add uly rad add translate
  rad rad scale 0 0 1 90 270 arc tMatrix setmatrix lrx rad sub lry rad
  sub translate rad rad scale 0 0 1 270 90 arc tMatrix setmatrix
  closepath} bdef
/FlrRR {MlrRR stroke } bdef
/PlrRR {MlrRR fill } bdef
/MtbRR {/lry xdef /lrx xdef /uly xdef /ulx xdef /rad lrx ulx sub 2 div def
  newpath tMatrix currentmatrix pop ulx rad add uly rad add translate
  rad rad scale 0 0 1 180 360 arc tMatrix setmatrix lrx rad sub lry rad
  sub translate rad rad scale 0 0 1 0 180 arc tMatrix setmatrix
  closepath} bdef
/FtbRR {MtbRR stroke } bdef
/PtbRR {MtbRR fill } bdef
/stri 6 array def /dtri 6 array def
/smat 6 array def /dmat 6 array def
/tmat1 6 array def /tmat2 6 array def /dif 3 array def
/asub {/ind2 exch def /ind1 exch def dup dup
  ind1 get exch ind2 get sub exch } bdef
/tri_to_matrix {
  2 0 asub 3 1 asub 4 0 asub 5 1 asub
  dup 0 get exch 1 get 7 -1 roll astore } bdef
/compute_transform {
  dmat dtri tri_to_matrix tmat1 invertmatrix 
  smat stri tri_to_matrix tmat2 concatmatrix } bdef
/ds {stri astore pop} bdef
/dt {dtri astore pop} bdef
/db {2 copy /cols xdef /rows xdef mul dup 3 mul string
  currentfile 
  3 index 0 eq {/ASCIIHexDecode filter}
  {/ASCII85Decode filter 3 index 2 eq {/RunLengthDecode filter} if }
  ifelse exch readstring pop
  dup 0 3 index getinterval /rbmap xdef
  dup 2 index dup getinterval /gbmap xdef
  1 index dup 2 mul exch getinterval /bbmap xdef pop pop}bdef
/it {gs np dtri aload pop moveto lineto lineto cp c
  cols rows 8 compute_transform 
  rbmap gbmap bbmap true 3 colorimage gr}bdef
/il {newpath moveto lineto stroke}bdef
currentdict end def
%%EndProlog

%%BeginSetup
MathWorks begin

0 cap

end
%%EndSetup

%%Page: 1 1
%%BeginPageSetup
%%PageBoundingBox:    90   250   502   592
MathWorks begin
bpage
%%EndPageSetup

%%BeginObject: obj1
bplot

/dpi2point 12 def
portraitMode 1080 7104 csm

    0     0  4955  4097 rc
89 dict begin %Colortable dictionary
/c0 { 0.000000 0.000000 0.000000 sr} bdef
/c1 { 1.000000 1.000000 1.000000 sr} bdef
/c2 { 0.900000 0.000000 0.000000 sr} bdef
/c3 { 0.000000 0.820000 0.000000 sr} bdef
/c4 { 0.000000 0.000000 0.800000 sr} bdef
/c5 { 0.910000 0.820000 0.320000 sr} bdef
/c6 { 1.000000 0.260000 0.820000 sr} bdef
/c7 { 0.000000 0.820000 0.820000 sr} bdef
c0
1 j
1 sg
   0    0 4956 4098 rf
6 w
0 3339 3840 0 0 -3339 644 3572 4 MP
PP
-3840 0 0 3339 3840 0 0 -3339 644 3572 5 MP stroke
4 w
DO
SO
6 w
0 sg
 644 3572 mt 4484 3572 L
 644 3572 mt  644  233 L
1412 3572 mt 1412 3533 L
%%IncludeResource: font Helvetica
/Helvetica /WindowsLatin1Encoding 132 FMSR

1140 3728 mt 
(Univ Hori) s
2180 3572 mt 2180 3533 L
1938 3728 mt 
(MC Hori) s
2948 3572 mt 2948 3533 L
2683 3728 mt 
(Univ Vert) s
3716 3572 mt 3716 3533 L
3480 3728 mt 
(MC Vert) s
 644 3572 mt  682 3572 L
 463 3620 mt 
(50) s
 644 3238 mt  682 3238 L
 463 3286 mt 
(55) s
 644 2904 mt  682 2904 L
 463 2952 mt 
(60) s
 644 2570 mt  682 2570 L
 463 2618 mt 
(65) s
 644 2236 mt  682 2236 L
 463 2284 mt 
(70) s
 644 1902 mt  682 1902 L
 463 1950 mt 
(75) s
 644 1568 mt  682 1568 L
 463 1616 mt 
(80) s
 644 1234 mt  682 1234 L
 463 1282 mt 
(85) s
 644  900 mt  682  900 L
 463  948 mt 
(90) s
 644  566 mt  682  566 L
 463  614 mt 
(95) s
 644  233 mt  682  233 L
 389  281 mt 
(100) s
gs 644 233 3841 3340 rc
0 j
gr

/c8 { 1.000000 1.000000 0.000000 sr} bdef
c8
  36   36 1412 3438 PO
gs 644 233 3841 3340 rc
0 j
gr

  36   36 2180 2570 PO
gs 644 233 3841 3340 rc
0 j
gr

  36   36 2948  233 PO
gs 644 233 3841 3340 rc
0 j
gr

  36   36 3716  500 PO
gs 644 233 3841 3340 rc
0 j
gr

/c9 { 1.000000 0.000000 1.000000 sr} bdef
c9
  36   36 1412 2970 PO
gs 644 233 3841 3340 rc
0 j
gr

  36   36 2180 2637 PO
gs 644 233 3841 3340 rc
0 j
gr

  36   36 2948 2169 PO
gs 644 233 3841 3340 rc
0 j
gr

  36   36 3716 2102 PO
gs 644 233 3841 3340 rc
0 j
gr

/c10 { 0.000000 1.000000 1.000000 sr} bdef
c10
  36   36 1412 2303 PO
gs 644 233 3841 3340 rc
0 j
gr

  36   36 2180 3037 PO
gs 644 233 3841 3340 rc
0 j
gr

  36   36 2948 3037 PO
gs 644 233 3841 3340 rc
0 j
gr

  36   36 3716 2770 PO
gs 644 233 3841 3340 rc
0 j
gr

/c11 { 1.000000 0.000000 0.000000 sr} bdef
c11
  36   36 1412 1902 PO
gs 644 233 3841 3340 rc
0 j
gr

  36   36 2180 1501 PO
gs 644 233 3841 3340 rc
0 j
gr

  36   36 2948 2303 PO
gs 644 233 3841 3340 rc
0 j
gr

  36   36 3716 2036 PO
gs 644 233 3841 3340 rc
0 j
gr

/c12 { 0.000000 1.000000 0.000000 sr} bdef
c12
  36   36 1412 3037 PO
gs 644 233 3841 3340 rc
0 j
gr

  36   36 2180 2436 PO
gs 644 233 3841 3340 rc
0 j
gr

  36   36 2948 1835 PO
gs 644 233 3841 3340 rc
0 j
gr

  36   36 3716 2236 PO
gs 644 233 3841 3340 rc
0 j
gr

/c13 { 0.000000 0.000000 1.000000 sr} bdef
c13
  36   36 1412 1902 PO
gs 644 233 3841 3340 rc
0 j
gr

  36   36 2180 2102 PO
gs 644 233 3841 3340 rc
0 j
gr

  36   36 2948 1501 PO
gs 644 233 3841 3340 rc
0 j
gr

  36   36 3716 2102 PO
gs 644 233 3841 3340 rc
0 j
gr

0 sg
  36   36 1412 2169 PO
gs 644 233 3841 3340 rc
0 j
gr

  36   36 2180  967 PO
gs 644 233 3841 3340 rc
0 j
gr

  36   36 2948 1568 PO
gs 644 233 3841 3340 rc
0 j
gr

  36   36 3716 1368 PO
gs 644 233 3841 3340 rc
gr

%%IncludeResource: font Helvetica
/Helvetica /WindowsLatin1Encoding 144 FMSR

 302 2883 mt  -90 rotate
(Cross-validation Accuracy \(%\)) s
90 rotate

end %%Color Dict

eplot
%%EndObject

epage
end

showpage

%%Trailer
%%EOF
