\relax 
\select@language{english}
\@writefile{toc}{\select@language{english}}
\@writefile{lof}{\select@language{english}}
\@writefile{lot}{\select@language{english}}
\@writefile{toc}{\contentsline {section}{\numberline {1}User Guide}{2}}
\@writefile{toc}{\contentsline {subsection}{\numberline {1.1}Introduction}{2}}
\@writefile{toc}{\contentsline {subsection}{\numberline {1.2}Preparation}{2}}
\@writefile{toc}{\contentsline {subsection}{\numberline {1.3}Training}{2}}
\@writefile{toc}{\contentsline {subsection}{\numberline {1.4}Classifier Training}{3}}
\@writefile{toc}{\contentsline {subsection}{\numberline {1.5}Testing}{3}}
\@writefile{lof}{\contentsline {figure}{\numberline {1}{\ignorespaces Sequence in the Arrow Test. A yellow cue indicates the movement the subject has to perform, as soon as all arrows are white again. Then the system waits for a response from the classification pipeline to show the feedback, a green arrow in the same direction for a successful attempt, a red arrow in a different direction for a failed attempt, i.e. misclassification of movement.}}{4}}
\newlabel{fig:ArrowTestSequence}{{1}{4}}
\@writefile{toc}{\contentsline {section}{\numberline {2}Programmer Guide}{5}}
\@writefile{toc}{\contentsline {subsection}{\numberline {2.1}Introduction}{5}}
\@writefile{toc}{\contentsline {subsection}{\numberline {2.2}Training}{5}}
\@writefile{toc}{\contentsline {subsection}{\numberline {2.3}Test}{6}}
\@writefile{toc}{\contentsline {subsection}{\numberline {2.4}Matlab-Files}{8}}
\@writefile{lof}{\contentsline {figure}{\numberline {2}{\ignorespaces Visualisation of the classifier predictions (vertical on the left, horizontal on the right) in relation to their respective thresholds. After the pre-phase, they are adjusted according to the shift.}}{9}}
\newlabel{fig:Visual}{{2}{9}}
\@writefile{toc}{\contentsline {subsubsection}{\numberline {2.4.1}State variables and Containers}{10}}
\@writefile{toc}{\contentsline {subsubsection}{\numberline {2.4.2}Events}{12}}
